<svg width="21" height="21" viewBox="0 0 21 21" fill="none" xmlns="http://www.w3.org/2000/svg">
<path d="M3.23384 7.37088H17.7645C17.896 7.37088 18.0219 7.31745 18.1149 7.22228C18.2078 7.1271 18.26 6.99813 18.26 6.8635V3.31287C18.26 3.17842 18.2078 3.04927 18.1149 2.95427C18.0219 2.85909 17.896 2.80566 17.7645 2.80566H3.23384C2.96014 2.80566 2.73828 3.03264 2.73828 3.31286V6.86349C2.73828 6.99812 2.79046 7.12709 2.88342 7.22227C2.97639 7.31745 3.10235 7.37088 3.23384 7.37088ZM3.72922 3.82026L17.269 3.82008V6.3563H3.72922V3.82026Z" fill="black"/>
<path d="M17.7434 9.19703H14.2125C13.9268 9.19703 13.6953 9.42685 13.6953 9.71058V16.9009C13.6953 17.037 13.7498 17.1676 13.8468 17.264C13.9438 17.3603 14.0752 17.4144 14.2125 17.4144H17.7434C17.8806 17.4144 18.0121 17.3603 18.1091 17.264C18.2061 17.1676 18.2605 17.037 18.2605 16.9009V9.71058C18.2605 9.57426 18.2061 9.44368 18.1091 9.34731C18.0121 9.25111 17.8806 9.19702 17.7434 9.19702L17.7434 9.19703ZM17.2264 16.3873L14.7294 16.3871V10.224H17.2291L17.2264 16.3873Z" fill="black"/>
<path d="M3.19393 17.4144H11.4134H11.4132C11.5341 17.4144 11.6499 17.3603 11.7353 17.264C11.8208 17.1676 11.8687 17.037 11.8687 16.9009V9.71058C11.8687 9.57426 11.8208 9.44368 11.7353 9.34731C11.6499 9.25111 11.5341 9.19702 11.4132 9.19702H3.19377C2.9422 9.19702 2.73828 9.42684 2.73828 9.71057V16.9008C2.73828 17.037 2.78625 17.1676 2.87169 17.2639C2.95714 17.3603 3.07291 17.4144 3.19378 17.4144L3.19393 17.4144ZM3.64926 10.2241H10.958L10.9578 16.3872H3.6491L3.64926 10.2241Z" fill="black"/>
<path d="M21 0.609505C21 0.465599 20.9465 0.32738 20.8511 0.225699C20.7558 0.123829 20.6266 0.0666504 20.4918 0.0666504H0.508241C0.227536 0.0666504 0 0.309581 0 0.609495V19.6108C0 19.7547 0.0535188 19.8929 0.148857 19.9946C0.244199 20.0964 0.373385 20.1536 0.508246 20.1536H20.4918C20.6266 20.1536 20.7558 20.0964 20.8511 19.9946C20.9465 19.8929 21 19.7547 21 19.6108L21 0.609505ZM19.9839 19.0679H1.01612V1.1524H19.9834L19.9839 19.0679Z" fill="black"/>
</svg>
