<svg width="27" height="22" viewBox="0 0 27 22" fill="none" xmlns="http://www.w3.org/2000/svg">
<path d="M17.934 10.6963H8.14065C7.82268 10.6963 7.5625 10.9608 7.5625 11.284C7.5625 11.6073 7.82266 11.8718 8.14065 11.8718H17.934C18.252 11.8718 18.5122 11.6073 18.5122 11.284C18.5122 10.9608 18.252 10.6963 17.934 10.6963Z" fill="#1A2434"/>
<path d="M8.14065 8.42744H13.7197C14.0377 8.42744 14.2979 8.16296 14.2979 7.83969C14.2979 7.51643 14.0377 7.25195 13.7197 7.25195H8.14065C7.82268 7.25195 7.5625 7.51643 7.5625 7.83969C7.5625 8.16296 7.82266 8.42744 8.14065 8.42744Z" fill="#1A2434"/>
<path d="M17.934 14.1406H8.14065C7.82268 14.1406 7.5625 14.4051 7.5625 14.7284C7.5625 15.0516 7.82266 15.3161 8.14065 15.3161H17.934C18.252 15.3161 18.5122 15.0516 18.5122 14.7284C18.5122 14.4051 18.252 14.1406 17.934 14.1406Z" fill="#1A2434"/>
<path d="M25.4955 0H0.578152C0.260184 0 0 0.264472 0 0.587739V6.64138C0 6.96462 0.260158 7.22912 0.578152 7.22912H4.75799V20.8055C4.75799 21.0053 4.85627 21.1875 5.01815 21.2992C5.18002 21.405 5.38815 21.4226 5.56738 21.3462L7.85673 20.3236L10.2328 21.3462C10.3774 21.4108 10.5392 21.4108 10.6895 21.3462L13.0367 20.3236L15.3839 21.3462C15.5284 21.4108 15.6903 21.4108 15.8406 21.3462L18.2167 20.3236L20.506 21.3462C20.5812 21.3814 20.6621 21.3932 20.7373 21.3932C20.8471 21.3932 20.957 21.3638 21.0553 21.2992C21.2171 21.1934 21.3154 21.0053 21.3154 20.8055V7.22912H25.4953C25.8132 7.22912 26.0734 6.96465 26.0734 6.64138V0.587739C26.0734 0.264499 25.8132 0 25.4953 0H25.4955ZM1.15641 6.05364V1.17564H4.75815V6.05364H1.15641ZM18.4481 19.1421C18.3036 19.0775 18.1359 19.0775 17.9914 19.1421L15.6153 20.1706L13.2681 19.148C13.1236 19.0834 12.9559 19.0834 12.8114 19.148L10.4642 20.1706L8.08814 19.1421C7.9436 19.0775 7.77595 19.0775 7.63142 19.1421L5.92017 19.9061V1.17564H20.1652V19.9061L18.4481 19.1421ZM24.9173 6.05364H21.3155V1.17564H24.9173V6.05364Z" fill="#1A2434"/>
</svg>
