<svg width="811" height="243" viewBox="0 0 811 243" fill="none" xmlns="http://www.w3.org/2000/svg">
<path fill-rule="evenodd" clip-rule="evenodd" d="M121.693 242.614C188.557 242.614 242.761 188.41 242.761 121.546C242.761 54.6815 188.557 0.477539 121.693 0.477539C54.829 0.477539 0.625 54.6815 0.625 121.546C0.625 188.41 54.829 242.614 121.693 242.614ZM121.692 202.782C166.558 202.782 202.928 166.411 202.928 121.545C202.928 76.6798 166.558 40.309 121.692 40.309C76.8264 40.309 40.4557 76.6798 40.4557 121.545C40.4557 166.411 76.8264 202.782 121.692 202.782Z" fill="#2F7FED"/>
<path fill-rule="evenodd" clip-rule="evenodd" d="M121.693 242.614C188.557 242.614 242.761 188.41 242.761 121.546C242.761 54.6815 188.557 0.477539 121.693 0.477539C54.829 0.477539 0.625 54.6815 0.625 121.546C0.625 188.41 54.829 242.614 121.693 242.614ZM121.692 202.782C166.558 202.782 202.928 166.411 202.928 121.545C202.928 76.6798 166.558 40.309 121.692 40.309C76.8264 40.309 40.4557 76.6798 40.4557 121.545C40.4557 166.411 76.8264 202.782 121.692 202.782Z" fill="#2F7FED"/>
<mask id="mask0_1_10671" style="mask-type:alpha" maskUnits="userSpaceOnUse" x="0" y="0" width="243" height="243">
<path fill-rule="evenodd" clip-rule="evenodd" d="M121.693 242.613C188.557 242.613 242.761 188.409 242.761 121.545C242.761 54.6805 188.557 0.476562 121.693 0.476562C54.829 0.476562 0.625 54.6805 0.625 121.545C0.625 188.409 54.829 242.613 121.693 242.613ZM121.692 202.781C166.558 202.781 202.928 166.41 202.928 121.544C202.928 76.6789 166.558 40.3081 121.692 40.3081C76.8264 40.3081 40.4557 76.6789 40.4557 121.544C40.4557 166.41 76.8264 202.781 121.692 202.781Z" fill="#015CF2"/>
</mask>
<g mask="url(#mask0_1_10671)">
<path d="M263.335 136.889H149.404L121.691 109.177V-8.21789L222.92 -32.4668L263.335 136.889Z" fill="#6351C3" stroke="white" stroke-width="3"/>
</g>
<mask id="mask1_1_10671" style="mask-type:alpha" maskUnits="userSpaceOnUse" x="0" y="0" width="243" height="243">
<path fill-rule="evenodd" clip-rule="evenodd" d="M121.693 242.613C188.557 242.613 242.761 188.409 242.761 121.545C242.761 54.6805 188.557 0.476562 121.693 0.476562C54.829 0.476562 0.625 54.6805 0.625 121.545C0.625 188.409 54.829 242.613 121.693 242.613ZM121.692 202.781C166.558 202.781 202.928 166.41 202.928 121.544C202.928 76.6789 166.558 40.3081 121.692 40.3081C76.8264 40.3081 40.4557 76.6789 40.4557 121.544C40.4557 166.41 76.8264 202.781 121.692 202.781Z" fill="#015CF2"/>
</mask>
<g mask="url(#mask1_1_10671)">
<path d="M121.121 264.84L-2.07946 274.035L-25.8423 37.4646L40.1904 -20.9182L121.121 -18.502V264.84Z" fill="#3FAB77" stroke="white" stroke-width="3"/>
</g>
<path d="M12.0437 128.605C11.9503 128.605 11.871 128.573 11.8057 128.507C11.7403 128.442 11.7077 128.363 11.7077 128.269V126.477H7.26967C7.17634 126.477 7.09701 126.445 7.03167 126.379C6.96634 126.314 6.93367 126.235 6.93367 126.141V125.175C6.93367 125.026 6.98501 124.886 7.08767 124.755L11.2177 119.043C11.2643 118.969 11.3343 118.913 11.4277 118.875C11.521 118.829 11.6237 118.805 11.7357 118.805H13.2757C13.3783 118.805 13.4577 118.838 13.5137 118.903C13.579 118.959 13.6117 119.039 13.6117 119.141V124.811H14.8717C14.9743 124.811 15.0537 124.844 15.1097 124.909C15.175 124.965 15.2077 125.045 15.2077 125.147V126.141C15.2077 126.235 15.175 126.314 15.1097 126.379C15.0537 126.445 14.9743 126.477 14.8717 126.477H13.6117V128.269C13.6117 128.363 13.579 128.442 13.5137 128.507C13.4577 128.573 13.3783 128.605 13.2757 128.605H12.0437ZM8.90767 124.867H11.7497V120.849L8.90767 124.867ZM20.3922 128.745C19.5802 128.745 18.8802 128.619 18.2922 128.367C17.7135 128.106 17.2702 127.747 16.9622 127.289C16.6542 126.832 16.5002 126.309 16.5002 125.721C16.5002 125.199 16.6262 124.737 16.8782 124.335C17.1395 123.925 17.4895 123.612 17.9282 123.397C17.5828 123.183 17.3168 122.907 17.1302 122.571C16.9435 122.226 16.8502 121.834 16.8502 121.395C16.8502 120.574 17.1582 119.916 17.7742 119.421C18.3995 118.917 19.2722 118.665 20.3922 118.665C21.5122 118.665 22.3802 118.913 22.9962 119.407C23.6122 119.902 23.9202 120.56 23.9202 121.381C23.9202 121.82 23.8268 122.212 23.6402 122.557C23.4628 122.893 23.2015 123.173 22.8562 123.397C23.3042 123.612 23.6542 123.925 23.9062 124.335C24.1675 124.737 24.2982 125.203 24.2982 125.735C24.2982 126.323 24.1442 126.846 23.8362 127.303C23.5282 127.751 23.0802 128.106 22.4922 128.367C21.9042 128.619 21.2042 128.745 20.3922 128.745ZM20.3922 122.781C20.8775 122.772 21.2788 122.651 21.5962 122.417C21.9228 122.175 22.0862 121.857 22.0862 121.465C22.0862 121.064 21.9275 120.742 21.6102 120.499C21.2928 120.257 20.8868 120.135 20.3922 120.135C19.9068 120.135 19.5055 120.257 19.1882 120.499C18.8708 120.742 18.7122 121.064 18.7122 121.465C18.7122 121.867 18.8708 122.189 19.1882 122.431C19.5055 122.665 19.9068 122.781 20.3922 122.781ZM20.3922 127.275C20.9428 127.275 21.4002 127.135 21.7642 126.855C22.1375 126.575 22.3242 126.202 22.3242 125.735C22.3242 125.269 22.1375 124.895 21.7642 124.615C21.4002 124.335 20.9428 124.195 20.3922 124.195C19.8415 124.195 19.3842 124.335 19.0202 124.615C18.6562 124.886 18.4742 125.259 18.4742 125.735C18.4742 126.202 18.6562 126.575 19.0202 126.855C19.3842 127.135 19.8415 127.275 20.3922 127.275ZM27.8293 123.733C27.2133 123.733 26.7187 123.57 26.3453 123.243C25.9813 122.917 25.7807 122.473 25.7433 121.913C25.734 121.755 25.7293 121.545 25.7293 121.283C25.7293 121.003 25.734 120.779 25.7433 120.611C25.7807 120.033 25.9767 119.575 26.3313 119.239C26.686 118.903 27.1853 118.735 27.8293 118.735C28.4733 118.735 28.9727 118.903 29.3273 119.239C29.6913 119.575 29.892 120.033 29.9293 120.611C29.948 120.947 29.9573 121.171 29.9573 121.283C29.9573 121.386 29.948 121.596 29.9293 121.913C29.892 122.473 29.6867 122.917 29.3133 123.243C28.9493 123.57 28.4547 123.733 27.8293 123.733ZM26.6953 128.605C26.602 128.605 26.5273 128.582 26.4713 128.535C26.4153 128.479 26.3873 128.409 26.3873 128.325C26.3873 128.269 26.406 128.218 26.4433 128.171L33.3453 119.071C33.42 118.978 33.49 118.913 33.5553 118.875C33.6207 118.829 33.714 118.805 33.8353 118.805H34.5773C34.6707 118.805 34.7407 118.833 34.7873 118.889C34.8433 118.936 34.8713 119.001 34.8713 119.085C34.8713 119.141 34.8527 119.193 34.8153 119.239L27.9133 128.339C27.8387 128.433 27.7687 128.503 27.7033 128.549C27.638 128.587 27.5493 128.605 27.4373 128.605H26.6953ZM27.8293 122.683C28.1 122.683 28.296 122.604 28.4173 122.445C28.548 122.287 28.6273 122.086 28.6553 121.843C28.674 121.526 28.6833 121.33 28.6833 121.255C28.6833 121.153 28.674 120.961 28.6553 120.681C28.6367 120.439 28.562 120.238 28.4313 120.079C28.3007 119.911 28.1 119.827 27.8293 119.827C27.568 119.827 27.372 119.911 27.2413 120.079C27.1107 120.238 27.036 120.439 27.0173 120.681C27.008 120.821 27.0033 121.013 27.0033 121.255C27.0033 121.489 27.008 121.685 27.0173 121.843C27.036 122.077 27.106 122.277 27.2273 122.445C27.358 122.604 27.5587 122.683 27.8293 122.683ZM33.4293 128.689C32.8133 128.689 32.3187 128.521 31.9453 128.185C31.5813 127.84 31.3807 127.383 31.3433 126.813C31.334 126.655 31.3293 126.445 31.3293 126.183C31.3293 125.913 31.334 125.693 31.3433 125.525C31.3807 124.947 31.5767 124.489 31.9313 124.153C32.286 123.817 32.7853 123.649 33.4293 123.649C34.0827 123.649 34.5867 123.817 34.9413 124.153C35.296 124.489 35.492 124.947 35.5293 125.525C35.548 125.861 35.5573 126.081 35.5573 126.183C35.5573 126.286 35.548 126.496 35.5293 126.813C35.492 127.383 35.2867 127.84 34.9133 128.185C34.5493 128.521 34.0547 128.689 33.4293 128.689ZM33.4293 127.597C33.7093 127.597 33.91 127.518 34.0313 127.359C34.162 127.191 34.2367 126.991 34.2553 126.757C34.274 126.44 34.2833 126.239 34.2833 126.155C34.2833 126.062 34.274 125.875 34.2553 125.595C34.2367 125.353 34.162 125.152 34.0313 124.993C33.9007 124.825 33.7 124.741 33.4293 124.741C33.168 124.741 32.972 124.825 32.8413 124.993C32.7107 125.152 32.636 125.353 32.6173 125.595C32.608 125.735 32.6033 125.922 32.6033 126.155C32.6033 126.398 32.608 126.599 32.6173 126.757C32.636 126.991 32.706 127.191 32.8273 127.359C32.958 127.518 33.1587 127.597 33.4293 127.597Z" fill="white"/>
<path d="M181.659 197.215C181.566 197.215 181.487 197.182 181.421 197.117C181.356 197.052 181.323 196.972 181.323 196.879V189.655L179.209 191.279C179.153 191.326 179.083 191.349 178.999 191.349C178.887 191.349 178.799 191.302 178.733 191.209L178.131 190.425C178.085 190.36 178.061 190.294 178.061 190.229C178.061 190.117 178.113 190.024 178.215 189.949L181.351 187.513C181.454 187.448 181.571 187.415 181.701 187.415H182.961C183.055 187.415 183.134 187.448 183.199 187.513C183.265 187.578 183.297 187.658 183.297 187.751V196.879C183.297 196.972 183.265 197.052 183.199 197.117C183.134 197.182 183.055 197.215 182.961 197.215H181.659ZM189.945 197.215C189.852 197.215 189.773 197.182 189.707 197.117C189.642 197.052 189.609 196.972 189.609 196.879V195.087H185.171C185.078 195.087 184.999 195.054 184.933 194.989C184.868 194.924 184.835 194.844 184.835 194.751V193.785C184.835 193.636 184.887 193.496 184.989 193.365L189.119 187.653C189.166 187.578 189.236 187.522 189.329 187.485C189.423 187.438 189.525 187.415 189.637 187.415H191.177C191.28 187.415 191.359 187.448 191.415 187.513C191.481 187.569 191.513 187.648 191.513 187.751V193.421H192.773C192.876 193.421 192.955 193.454 193.011 193.519C193.077 193.575 193.109 193.654 193.109 193.757V194.751C193.109 194.844 193.077 194.924 193.011 194.989C192.955 195.054 192.876 195.087 192.773 195.087H191.513V196.879C191.513 196.972 191.481 197.052 191.415 197.117C191.359 197.182 191.28 197.215 191.177 197.215H189.945ZM186.809 193.477H189.651V189.459L186.809 193.477ZM196.39 192.343C195.774 192.343 195.279 192.18 194.906 191.853C194.542 191.526 194.341 191.083 194.304 190.523C194.295 190.364 194.29 190.154 194.29 189.893C194.29 189.613 194.295 189.389 194.304 189.221C194.341 188.642 194.537 188.185 194.892 187.849C195.247 187.513 195.746 187.345 196.39 187.345C197.034 187.345 197.533 187.513 197.888 187.849C198.252 188.185 198.453 188.642 198.49 189.221C198.509 189.557 198.518 189.781 198.518 189.893C198.518 189.996 198.509 190.206 198.49 190.523C198.453 191.083 198.247 191.526 197.874 191.853C197.51 192.18 197.015 192.343 196.39 192.343ZM195.256 197.215C195.163 197.215 195.088 197.192 195.032 197.145C194.976 197.089 194.948 197.019 194.948 196.935C194.948 196.879 194.967 196.828 195.004 196.781L201.906 187.681C201.981 187.588 202.051 187.522 202.116 187.485C202.181 187.438 202.275 187.415 202.396 187.415H203.138C203.231 187.415 203.301 187.443 203.348 187.499C203.404 187.546 203.432 187.611 203.432 187.695C203.432 187.751 203.413 187.802 203.376 187.849L196.474 196.949C196.399 197.042 196.329 197.112 196.264 197.159C196.199 197.196 196.11 197.215 195.998 197.215H195.256ZM196.39 191.293C196.661 191.293 196.857 191.214 196.978 191.055C197.109 190.896 197.188 190.696 197.216 190.453C197.235 190.136 197.244 189.94 197.244 189.865C197.244 189.762 197.235 189.571 197.216 189.291C197.197 189.048 197.123 188.848 196.992 188.689C196.861 188.521 196.661 188.437 196.39 188.437C196.129 188.437 195.933 188.521 195.802 188.689C195.671 188.848 195.597 189.048 195.578 189.291C195.569 189.431 195.564 189.622 195.564 189.865C195.564 190.098 195.569 190.294 195.578 190.453C195.597 190.686 195.667 190.887 195.788 191.055C195.919 191.214 196.119 191.293 196.39 191.293ZM201.99 197.299C201.374 197.299 200.879 197.131 200.506 196.795C200.142 196.45 199.941 195.992 199.904 195.423C199.895 195.264 199.89 195.054 199.89 194.793C199.89 194.522 199.895 194.303 199.904 194.135C199.941 193.556 200.137 193.099 200.492 192.763C200.847 192.427 201.346 192.259 201.99 192.259C202.643 192.259 203.147 192.427 203.502 192.763C203.857 193.099 204.053 193.556 204.09 194.135C204.109 194.471 204.118 194.69 204.118 194.793C204.118 194.896 204.109 195.106 204.09 195.423C204.053 195.992 203.847 196.45 203.474 196.795C203.11 197.131 202.615 197.299 201.99 197.299ZM201.99 196.207C202.27 196.207 202.471 196.128 202.592 195.969C202.723 195.801 202.797 195.6 202.816 195.367C202.835 195.05 202.844 194.849 202.844 194.765C202.844 194.672 202.835 194.485 202.816 194.205C202.797 193.962 202.723 193.762 202.592 193.603C202.461 193.435 202.261 193.351 201.99 193.351C201.729 193.351 201.533 193.435 201.402 193.603C201.271 193.762 201.197 193.962 201.178 194.205C201.169 194.345 201.164 194.532 201.164 194.765C201.164 195.008 201.169 195.208 201.178 195.367C201.197 195.6 201.267 195.801 201.388 195.969C201.519 196.128 201.719 196.207 201.99 196.207Z" fill="white"/>
<path d="M583.849 150.105C583.755 150.105 583.676 150.072 583.611 150.007C583.545 149.942 583.513 149.862 583.513 149.769V142.545L581.399 144.169C581.343 144.216 581.273 144.239 581.189 144.239C581.077 144.239 580.988 144.192 580.923 144.099L580.321 143.315C580.274 143.25 580.251 143.184 580.251 143.119C580.251 143.007 580.302 142.914 580.405 142.839L583.541 140.403C583.643 140.338 583.76 140.305 583.891 140.305H585.151C585.244 140.305 585.323 140.338 585.389 140.403C585.454 140.468 585.487 140.548 585.487 140.641V149.769C585.487 149.862 585.454 149.942 585.389 150.007C585.323 150.072 585.244 150.105 585.151 150.105H583.849ZM592.135 150.105C592.042 150.105 591.962 150.072 591.897 150.007C591.832 149.942 591.799 149.862 591.799 149.769V147.977H587.361C587.268 147.977 587.188 147.944 587.123 147.879C587.058 147.814 587.025 147.734 587.025 147.641V146.675C587.025 146.526 587.076 146.386 587.179 146.255L591.309 140.543C591.356 140.468 591.426 140.412 591.519 140.375C591.612 140.328 591.715 140.305 591.827 140.305H593.367C593.47 140.305 593.549 140.338 593.605 140.403C593.67 140.459 593.703 140.538 593.703 140.641V146.311H594.963C595.066 146.311 595.145 146.344 595.201 146.409C595.266 146.465 595.299 146.544 595.299 146.647V147.641C595.299 147.734 595.266 147.814 595.201 147.879C595.145 147.944 595.066 147.977 594.963 147.977H593.703V149.769C593.703 149.862 593.67 149.942 593.605 150.007C593.549 150.072 593.47 150.105 593.367 150.105H592.135ZM588.999 146.367H591.841V142.349L588.999 146.367ZM598.579 145.233C597.963 145.233 597.469 145.07 597.095 144.743C596.731 144.416 596.531 143.973 596.493 143.413C596.484 143.254 596.479 143.044 596.479 142.783C596.479 142.503 596.484 142.279 596.493 142.111C596.531 141.532 596.727 141.075 597.081 140.739C597.436 140.403 597.935 140.235 598.579 140.235C599.223 140.235 599.723 140.403 600.077 140.739C600.441 141.075 600.642 141.532 600.679 142.111C600.698 142.447 600.707 142.671 600.707 142.783C600.707 142.886 600.698 143.096 600.679 143.413C600.642 143.973 600.437 144.416 600.063 144.743C599.699 145.07 599.205 145.233 598.579 145.233ZM597.445 150.105C597.352 150.105 597.277 150.082 597.221 150.035C597.165 149.979 597.137 149.909 597.137 149.825C597.137 149.769 597.156 149.718 597.193 149.671L604.095 140.571C604.17 140.478 604.24 140.412 604.305 140.375C604.371 140.328 604.464 140.305 604.585 140.305H605.327C605.421 140.305 605.491 140.333 605.537 140.389C605.593 140.436 605.621 140.501 605.621 140.585C605.621 140.641 605.603 140.692 605.565 140.739L598.663 149.839C598.589 149.932 598.519 150.002 598.453 150.049C598.388 150.086 598.299 150.105 598.187 150.105H597.445ZM598.579 144.183C598.85 144.183 599.046 144.104 599.167 143.945C599.298 143.786 599.377 143.586 599.405 143.343C599.424 143.026 599.433 142.83 599.433 142.755C599.433 142.652 599.424 142.461 599.405 142.181C599.387 141.938 599.312 141.738 599.181 141.579C599.051 141.411 598.85 141.327 598.579 141.327C598.318 141.327 598.122 141.411 597.991 141.579C597.861 141.738 597.786 141.938 597.767 142.181C597.758 142.321 597.753 142.512 597.753 142.755C597.753 142.988 597.758 143.184 597.767 143.343C597.786 143.576 597.856 143.777 597.977 143.945C598.108 144.104 598.309 144.183 598.579 144.183ZM604.179 150.189C603.563 150.189 603.069 150.021 602.695 149.685C602.331 149.34 602.131 148.882 602.093 148.313C602.084 148.154 602.079 147.944 602.079 147.683C602.079 147.412 602.084 147.193 602.093 147.025C602.131 146.446 602.327 145.989 602.681 145.653C603.036 145.317 603.535 145.149 604.179 145.149C604.833 145.149 605.337 145.317 605.691 145.653C606.046 145.989 606.242 146.446 606.279 147.025C606.298 147.361 606.307 147.58 606.307 147.683C606.307 147.786 606.298 147.996 606.279 148.313C606.242 148.882 606.037 149.34 605.663 149.685C605.299 150.021 604.805 150.189 604.179 150.189ZM604.179 149.097C604.459 149.097 604.66 149.018 604.781 148.859C604.912 148.691 604.987 148.49 605.005 148.257C605.024 147.94 605.033 147.739 605.033 147.655C605.033 147.562 605.024 147.375 605.005 147.095C604.987 146.852 604.912 146.652 604.781 146.493C604.651 146.325 604.45 146.241 604.179 146.241C603.918 146.241 603.722 146.325 603.591 146.493C603.461 146.652 603.386 146.852 603.367 147.095C603.358 147.235 603.353 147.422 603.353 147.655C603.353 147.898 603.358 148.098 603.367 148.257C603.386 148.49 603.456 148.691 603.577 148.859C603.708 149.018 603.909 149.097 604.179 149.097Z" fill="white"/>
<path d="M785.583 129.744C784.752 129.744 784.048 129.614 783.469 129.352C782.9 129.091 782.47 128.764 782.181 128.372C781.901 127.971 781.752 127.56 781.733 127.14C781.733 127.056 781.761 126.986 781.817 126.93C781.873 126.874 781.943 126.846 782.027 126.846H783.315C783.52 126.846 783.66 126.94 783.735 127.126C783.94 127.789 784.556 128.12 785.583 128.12C786.152 128.12 786.596 127.99 786.913 127.728C787.24 127.467 787.403 127.094 787.403 126.608C787.403 126.123 787.254 125.773 786.955 125.558C786.666 125.334 786.236 125.222 785.667 125.222H784.225C784.132 125.222 784.052 125.19 783.987 125.124C783.922 125.059 783.889 124.98 783.889 124.886V124.284C783.889 124.107 783.95 123.967 784.071 123.864L786.563 121.428H782.573C782.47 121.428 782.386 121.396 782.321 121.33C782.256 121.265 782.223 121.186 782.223 121.092V120.154C782.223 120.052 782.256 119.968 782.321 119.902C782.386 119.837 782.47 119.804 782.573 119.804H788.593C788.696 119.804 788.78 119.837 788.845 119.902C788.91 119.968 788.943 120.052 788.943 120.154V121.008C788.943 121.167 788.882 121.298 788.761 121.4L786.353 123.878L786.521 123.892C787.417 123.967 788.126 124.238 788.649 124.704C789.181 125.171 789.447 125.838 789.447 126.706C789.447 127.322 789.279 127.859 788.943 128.316C788.616 128.774 788.159 129.128 787.571 129.38C786.992 129.623 786.33 129.744 785.583 129.744ZM791.153 129.604C791.06 129.604 790.98 129.572 790.915 129.506C790.85 129.441 790.817 129.362 790.817 129.268V128.54C790.817 128.279 790.934 128.06 791.167 127.882L793.351 125.712C794.014 125.19 794.522 124.765 794.877 124.438C795.241 124.102 795.512 123.794 795.689 123.514C795.866 123.234 795.955 122.959 795.955 122.688C795.955 122.25 795.838 121.904 795.605 121.652C795.372 121.4 795.017 121.274 794.541 121.274C794.074 121.274 793.706 121.414 793.435 121.694C793.174 121.965 793.01 122.32 792.945 122.758C792.917 122.87 792.861 122.954 792.777 123.01C792.702 123.057 792.618 123.08 792.525 123.08H791.265C791.181 123.08 791.111 123.052 791.055 122.996C790.999 122.94 790.971 122.87 790.971 122.786C790.99 122.236 791.139 121.722 791.419 121.246C791.708 120.761 792.119 120.374 792.651 120.084C793.183 119.786 793.808 119.636 794.527 119.636C795.274 119.636 795.908 119.767 796.431 120.028C796.954 120.28 797.346 120.63 797.607 121.078C797.868 121.526 797.999 122.035 797.999 122.604C797.999 123.23 797.822 123.799 797.467 124.312C797.122 124.816 796.58 125.358 795.843 125.936L793.897 127.91H797.859C797.962 127.91 798.046 127.943 798.111 128.008C798.176 128.074 798.209 128.158 798.209 128.26V129.268C798.209 129.371 798.176 129.455 798.111 129.52C798.046 129.576 797.962 129.604 797.859 129.604H791.153ZM801.697 124.732C801.081 124.732 800.586 124.569 800.213 124.242C799.849 123.916 799.648 123.472 799.611 122.912C799.601 122.754 799.597 122.544 799.597 122.282C799.597 122.002 799.601 121.778 799.611 121.61C799.648 121.032 799.844 120.574 800.199 120.238C800.553 119.902 801.053 119.734 801.697 119.734C802.341 119.734 802.84 119.902 803.195 120.238C803.559 120.574 803.759 121.032 803.797 121.61C803.815 121.946 803.825 122.17 803.825 122.282C803.825 122.385 803.815 122.595 803.797 122.912C803.759 123.472 803.554 123.916 803.181 124.242C802.817 124.569 802.322 124.732 801.697 124.732ZM800.563 129.604C800.469 129.604 800.395 129.581 800.339 129.534C800.283 129.478 800.255 129.408 800.255 129.324C800.255 129.268 800.273 129.217 800.311 129.17L807.213 120.07C807.287 119.977 807.357 119.912 807.423 119.874C807.488 119.828 807.581 119.804 807.703 119.804H808.445C808.538 119.804 808.608 119.832 808.655 119.888C808.711 119.935 808.739 120 808.739 120.084C808.739 120.14 808.72 120.192 808.683 120.238L801.781 129.338C801.706 129.432 801.636 129.502 801.571 129.548C801.505 129.586 801.417 129.604 801.305 129.604H800.563ZM801.697 123.682C801.967 123.682 802.163 123.603 802.285 123.444C802.415 123.286 802.495 123.085 802.523 122.842C802.541 122.525 802.551 122.329 802.551 122.254C802.551 122.152 802.541 121.96 802.523 121.68C802.504 121.438 802.429 121.237 802.299 121.078C802.168 120.91 801.967 120.826 801.697 120.826C801.435 120.826 801.239 120.91 801.109 121.078C800.978 121.237 800.903 121.438 800.885 121.68C800.875 121.82 800.871 122.012 800.871 122.254C800.871 122.488 800.875 122.684 800.885 122.842C800.903 123.076 800.973 123.276 801.095 123.444C801.225 123.603 801.426 123.682 801.697 123.682ZM807.297 129.688C806.681 129.688 806.186 129.52 805.813 129.184C805.449 128.839 805.248 128.382 805.211 127.812C805.201 127.654 805.197 127.444 805.197 127.182C805.197 126.912 805.201 126.692 805.211 126.524C805.248 125.946 805.444 125.488 805.799 125.152C806.153 124.816 806.653 124.648 807.297 124.648C807.95 124.648 808.454 124.816 808.809 125.152C809.163 125.488 809.359 125.946 809.397 126.524C809.415 126.86 809.425 127.08 809.425 127.182C809.425 127.285 809.415 127.495 809.397 127.812C809.359 128.382 809.154 128.839 808.781 129.184C808.417 129.52 807.922 129.688 807.297 129.688ZM807.297 128.596C807.577 128.596 807.777 128.517 807.899 128.358C808.029 128.19 808.104 127.99 808.123 127.756C808.141 127.439 808.151 127.238 808.151 127.154C808.151 127.061 808.141 126.874 808.123 126.594C808.104 126.352 808.029 126.151 807.899 125.992C807.768 125.824 807.567 125.74 807.297 125.74C807.035 125.74 806.839 125.824 806.709 125.992C806.578 126.151 806.503 126.352 806.485 126.594C806.475 126.734 806.471 126.921 806.471 127.154C806.471 127.397 806.475 127.598 806.485 127.756C806.503 127.99 806.573 128.19 806.695 128.358C806.825 128.517 807.026 128.596 807.297 128.596Z" fill="white"/>
<path d="M629.04 43.291C628.947 43.291 628.867 43.2583 628.802 43.193C628.737 43.1277 628.704 43.0483 628.704 42.955V35.731L626.59 37.355C626.534 37.4017 626.464 37.425 626.38 37.425C626.268 37.425 626.179 37.3783 626.114 37.285L625.512 36.501C625.465 36.4357 625.442 36.3703 625.442 36.305C625.442 36.193 625.493 36.0997 625.596 36.025L628.732 33.589C628.835 33.5237 628.951 33.491 629.082 33.491H630.342C630.435 33.491 630.515 33.5237 630.58 33.589C630.645 33.6543 630.678 33.7337 630.678 33.827V42.955C630.678 43.0483 630.645 43.1277 630.58 43.193C630.515 43.2583 630.435 43.291 630.342 43.291H629.04ZM632.762 43.291C632.669 43.291 632.59 43.2583 632.524 43.193C632.459 43.1277 632.426 43.0483 632.426 42.955V42.227C632.426 41.9657 632.543 41.7463 632.776 41.569L634.96 39.399C635.623 38.8763 636.132 38.4517 636.486 38.125C636.85 37.789 637.121 37.481 637.298 37.201C637.476 36.921 637.564 36.6457 637.564 36.375C637.564 35.9363 637.448 35.591 637.214 35.339C636.981 35.087 636.626 34.961 636.15 34.961C635.684 34.961 635.315 35.101 635.044 35.381C634.783 35.6517 634.62 36.0063 634.554 36.445C634.526 36.557 634.47 36.641 634.386 36.697C634.312 36.7437 634.228 36.767 634.134 36.767H632.874C632.79 36.767 632.72 36.739 632.664 36.683C632.608 36.627 632.58 36.557 632.58 36.473C632.599 35.9223 632.748 35.409 633.028 34.933C633.318 34.4477 633.728 34.0603 634.26 33.771C634.792 33.4723 635.418 33.323 636.136 33.323C636.883 33.323 637.518 33.4537 638.04 33.715C638.563 33.967 638.955 34.317 639.216 34.765C639.478 35.213 639.608 35.7217 639.608 36.291C639.608 36.9163 639.431 37.4857 639.076 37.999C638.731 38.503 638.19 39.0443 637.452 39.623L635.506 41.597H639.468C639.571 41.597 639.655 41.6297 639.72 41.695C639.786 41.7603 639.818 41.8443 639.818 41.947V42.955C639.818 43.0577 639.786 43.1417 639.72 43.207C639.655 43.263 639.571 43.291 639.468 43.291H632.762ZM643.306 38.419C642.69 38.419 642.195 38.2557 641.822 37.929C641.458 37.6023 641.257 37.159 641.22 36.599C641.211 36.4403 641.206 36.2303 641.206 35.969C641.206 35.689 641.211 35.465 641.22 35.297C641.257 34.7183 641.453 34.261 641.808 33.925C642.163 33.589 642.662 33.421 643.306 33.421C643.95 33.421 644.449 33.589 644.804 33.925C645.168 34.261 645.369 34.7183 645.406 35.297C645.425 35.633 645.434 35.857 645.434 35.969C645.434 36.0717 645.425 36.2817 645.406 36.599C645.369 37.159 645.163 37.6023 644.79 37.929C644.426 38.2557 643.931 38.419 643.306 38.419ZM642.172 43.291C642.079 43.291 642.004 43.2677 641.948 43.221C641.892 43.165 641.864 43.095 641.864 43.011C641.864 42.955 641.883 42.9037 641.92 42.857L648.822 33.757C648.897 33.6637 648.967 33.5983 649.032 33.561C649.097 33.5143 649.191 33.491 649.312 33.491H650.054C650.147 33.491 650.217 33.519 650.264 33.575C650.32 33.6217 650.348 33.687 650.348 33.771C650.348 33.827 650.329 33.8783 650.292 33.925L643.39 43.025C643.315 43.1183 643.245 43.1883 643.18 43.235C643.115 43.2723 643.026 43.291 642.914 43.291H642.172ZM643.306 37.369C643.577 37.369 643.773 37.2897 643.894 37.131C644.025 36.9723 644.104 36.7717 644.132 36.529C644.151 36.2117 644.16 36.0157 644.16 35.941C644.16 35.8383 644.151 35.647 644.132 35.367C644.113 35.1243 644.039 34.9237 643.908 34.765C643.777 34.597 643.577 34.513 643.306 34.513C643.045 34.513 642.849 34.597 642.718 34.765C642.587 34.9237 642.513 35.1243 642.494 35.367C642.485 35.507 642.48 35.6983 642.48 35.941C642.48 36.1743 642.485 36.3703 642.494 36.529C642.513 36.7623 642.583 36.963 642.704 37.131C642.835 37.2897 643.035 37.369 643.306 37.369ZM648.906 43.375C648.29 43.375 647.795 43.207 647.422 42.871C647.058 42.5257 646.857 42.0683 646.82 41.499C646.811 41.3403 646.806 41.1303 646.806 40.869C646.806 40.5983 646.811 40.379 646.82 40.211C646.857 39.6323 647.053 39.175 647.408 38.839C647.763 38.503 648.262 38.335 648.906 38.335C649.559 38.335 650.063 38.503 650.418 38.839C650.773 39.175 650.969 39.6323 651.006 40.211C651.025 40.547 651.034 40.7663 651.034 40.869C651.034 40.9717 651.025 41.1817 651.006 41.499C650.969 42.0683 650.763 42.5257 650.39 42.871C650.026 43.207 649.531 43.375 648.906 43.375ZM648.906 42.283C649.186 42.283 649.387 42.2037 649.508 42.045C649.639 41.877 649.713 41.6763 649.732 41.443C649.751 41.1257 649.76 40.925 649.76 40.841C649.76 40.7477 649.751 40.561 649.732 40.281C649.713 40.0383 649.639 39.8377 649.508 39.679C649.377 39.511 649.177 39.427 648.906 39.427C648.645 39.427 648.449 39.511 648.318 39.679C648.187 39.8377 648.113 40.0383 648.094 40.281C648.085 40.421 648.08 40.6077 648.08 40.841C648.08 41.0837 648.085 41.2843 648.094 41.443C648.113 41.6763 648.183 41.877 648.304 42.045C648.435 42.2037 648.635 42.283 648.906 42.283Z" fill="white"/>
<path d="M191.247 62.9766C191.154 62.9766 191.075 62.9439 191.009 62.8786C190.944 62.8132 190.911 62.7339 190.911 62.6406V61.9126C190.911 61.6512 191.028 61.4319 191.261 61.2546L193.445 59.0846C194.108 58.5619 194.617 58.1372 194.971 57.8106C195.335 57.4746 195.606 57.1666 195.783 56.8866C195.961 56.6066 196.049 56.3312 196.049 56.0606C196.049 55.6219 195.933 55.2766 195.699 55.0246C195.466 54.7726 195.111 54.6466 194.635 54.6466C194.169 54.6466 193.8 54.7866 193.529 55.0666C193.268 55.3372 193.105 55.6919 193.039 56.1306C193.011 56.2426 192.955 56.3266 192.871 56.3826C192.797 56.4292 192.713 56.4526 192.619 56.4526H191.359C191.275 56.4526 191.205 56.4246 191.149 56.3686C191.093 56.3126 191.065 56.2426 191.065 56.1586C191.084 55.6079 191.233 55.0946 191.513 54.6186C191.803 54.1332 192.213 53.7459 192.745 53.4566C193.277 53.1579 193.903 53.0086 194.621 53.0086C195.368 53.0086 196.003 53.1392 196.525 53.4006C197.048 53.6526 197.44 54.0026 197.701 54.4506C197.963 54.8986 198.093 55.4072 198.093 55.9766C198.093 56.6019 197.916 57.1712 197.561 57.6846C197.216 58.1886 196.675 58.7299 195.937 59.3086L193.991 61.2826H197.953C198.056 61.2826 198.14 61.3152 198.205 61.3806C198.271 61.4459 198.303 61.5299 198.303 61.6326V62.6406C198.303 62.7432 198.271 62.8272 198.205 62.8926C198.14 62.9486 198.056 62.9766 197.953 62.9766H191.247ZM200.069 62.9766C199.976 62.9766 199.896 62.9439 199.831 62.8786C199.766 62.8132 199.733 62.7339 199.733 62.6406V61.9126C199.733 61.6512 199.85 61.4319 200.083 61.2546L202.267 59.0846C202.93 58.5619 203.438 58.1372 203.793 57.8106C204.157 57.4746 204.428 57.1666 204.605 56.8866C204.782 56.6066 204.871 56.3312 204.871 56.0606C204.871 55.6219 204.754 55.2766 204.521 55.0246C204.288 54.7726 203.933 54.6466 203.457 54.6466C202.99 54.6466 202.622 54.7866 202.351 55.0666C202.09 55.3372 201.926 55.6919 201.861 56.1306C201.833 56.2426 201.777 56.3266 201.693 56.3826C201.618 56.4292 201.534 56.4526 201.441 56.4526H200.181C200.097 56.4526 200.027 56.4246 199.971 56.3686C199.915 56.3126 199.887 56.2426 199.887 56.1586C199.906 55.6079 200.055 55.0946 200.335 54.6186C200.624 54.1332 201.035 53.7459 201.567 53.4566C202.099 53.1579 202.724 53.0086 203.443 53.0086C204.19 53.0086 204.824 53.1392 205.347 53.4006C205.87 53.6526 206.262 54.0026 206.523 54.4506C206.784 54.8986 206.915 55.4072 206.915 55.9766C206.915 56.6019 206.738 57.1712 206.383 57.6846C206.038 58.1886 205.496 58.7299 204.759 59.3086L202.813 61.2826H206.775C206.878 61.2826 206.962 61.3152 207.027 61.3806C207.092 61.4459 207.125 61.5299 207.125 61.6326V62.6406C207.125 62.7432 207.092 62.8272 207.027 62.8926C206.962 62.9486 206.878 62.9766 206.775 62.9766H200.069ZM210.613 58.1046C209.997 58.1046 209.502 57.9412 209.129 57.6146C208.765 57.2879 208.564 56.8446 208.527 56.2846C208.517 56.1259 208.513 55.9159 208.513 55.6546C208.513 55.3746 208.517 55.1506 208.527 54.9826C208.564 54.4039 208.76 53.9466 209.115 53.6106C209.469 53.2746 209.969 53.1066 210.613 53.1066C211.257 53.1066 211.756 53.2746 212.111 53.6106C212.475 53.9466 212.675 54.4039 212.713 54.9826C212.731 55.3186 212.741 55.5426 212.741 55.6546C212.741 55.7572 212.731 55.9672 212.713 56.2846C212.675 56.8446 212.47 57.2879 212.097 57.6146C211.733 57.9412 211.238 58.1046 210.613 58.1046ZM209.479 62.9766C209.385 62.9766 209.311 62.9532 209.255 62.9066C209.199 62.8506 209.171 62.7806 209.171 62.6966C209.171 62.6406 209.189 62.5892 209.227 62.5426L216.129 53.4426C216.203 53.3492 216.273 53.2839 216.339 53.2466C216.404 53.1999 216.497 53.1766 216.619 53.1766H217.361C217.454 53.1766 217.524 53.2046 217.571 53.2606C217.627 53.3072 217.655 53.3726 217.655 53.4566C217.655 53.5126 217.636 53.5639 217.599 53.6106L210.697 62.7106C210.622 62.8039 210.552 62.8739 210.487 62.9206C210.421 62.9579 210.333 62.9766 210.221 62.9766H209.479ZM210.613 57.0546C210.883 57.0546 211.079 56.9752 211.201 56.8166C211.331 56.6579 211.411 56.4572 211.439 56.2146C211.457 55.8972 211.467 55.7012 211.467 55.6266C211.467 55.5239 211.457 55.3326 211.439 55.0526C211.42 54.8099 211.345 54.6092 211.215 54.4506C211.084 54.2826 210.883 54.1986 210.613 54.1986C210.351 54.1986 210.155 54.2826 210.025 54.4506C209.894 54.6092 209.819 54.8099 209.801 55.0526C209.791 55.1926 209.787 55.3839 209.787 55.6266C209.787 55.8599 209.791 56.0559 209.801 56.2146C209.819 56.4479 209.889 56.6486 210.011 56.8166C210.141 56.9752 210.342 57.0546 210.613 57.0546ZM216.213 63.0606C215.597 63.0606 215.102 62.8926 214.729 62.5566C214.365 62.2112 214.164 61.7539 214.127 61.1846C214.117 61.0259 214.113 60.8159 214.113 60.5546C214.113 60.2839 214.117 60.0646 214.127 59.8966C214.164 59.3179 214.36 58.8606 214.715 58.5246C215.069 58.1886 215.569 58.0206 216.213 58.0206C216.866 58.0206 217.37 58.1886 217.725 58.5246C218.079 58.8606 218.275 59.3179 218.313 59.8966C218.331 60.2326 218.341 60.4519 218.341 60.5546C218.341 60.6572 218.331 60.8672 218.313 61.1846C218.275 61.7539 218.07 62.2112 217.697 62.5566C217.333 62.8926 216.838 63.0606 216.213 63.0606ZM216.213 61.9686C216.493 61.9686 216.693 61.8892 216.815 61.7306C216.945 61.5626 217.02 61.3619 217.039 61.1286C217.057 60.8112 217.067 60.6106 217.067 60.5266C217.067 60.4332 217.057 60.2466 217.039 59.9666C217.02 59.7239 216.945 59.5232 216.815 59.3646C216.684 59.1966 216.483 59.1126 216.213 59.1126C215.951 59.1126 215.755 59.1966 215.625 59.3646C215.494 59.5232 215.419 59.7239 215.401 59.9666C215.391 60.1066 215.387 60.2932 215.387 60.5266C215.387 60.7692 215.391 60.9699 215.401 61.1286C215.419 61.3619 215.489 61.5626 215.611 61.7306C215.741 61.8892 215.942 61.9686 216.213 61.9686Z" fill="white"/>
</svg>
