<svg width="40" height="34" viewBox="0 0 40 34" fill="none" xmlns="http://www.w3.org/2000/svg">
<path d="M2.76846 18.6011V31.5659C3.12818 33.1243 4.26731 33.5646 4.79191 33.5899C13.0355 33.49 30.0924 33.3501 32.3706 33.5899C34.6488 33.8298 36.1177 32.3405 36.5674 31.5659V18.002L38.5159 17.1027V9.30735C38.5159 7.08906 36.7672 6.78534 35.8929 6.91077H4.04248C2.36378 6.91077 1.49439 7.50947 1.26953 7.80882V16.7275L2.76846 18.6011Z" fill="white"/>
<path d="M2.00338 31.1861V31.1863C2.00338 32.6779 3.20261 33.8933 4.67931 33.8933H34.7136C36.1903 33.8933 37.3895 32.678 37.3895 31.1863L37.3892 18.4002L38.4932 18.0125C38.7899 17.9082 38.9887 17.6268 38.9887 17.3114V9.00262C38.9887 7.53742 37.7811 6.29599 36.3125 6.29599H26.0872V3.57603C26.0872 1.74848 24.6076 0.261328 22.7883 0.261328H16.6038C14.7845 0.261328 13.3052 1.74849 13.3052 3.57603V6.29599H3.07983C1.61127 6.29599 0.403906 7.53774 0.403906 9.00291V17.311C0.403906 17.6272 0.603355 17.9091 0.901405 18.0127L2.02895 18.406L2.00338 31.1861ZM14.7847 3.57603C14.7847 2.56726 15.6014 1.7471 16.604 1.7471H22.7881C23.7907 1.7471 24.6074 2.56698 24.6074 3.57603V6.29599H14.7849L14.7847 3.57603ZM35.9097 31.1862C35.9097 31.8611 35.3712 32.4071 34.7132 32.4071L4.6789 32.4074C4.02111 32.4074 3.48248 31.8614 3.48238 31.1878C3.48238 31.1878 3.48238 31.1877 3.48238 31.1876L3.50697 18.9221L16.2711 23.3735V24.9667C16.2711 25.3766 16.6017 25.7096 17.0109 25.7096H22.5229C22.9318 25.7096 23.2627 25.3763 23.2627 24.9667V23.3662L35.9098 18.9203L35.9097 31.1862ZM17.7508 24.2232V20.9051H21.7831V24.2232H17.7508ZM37.5091 9.00298L37.5095 16.7841L23.2626 21.792V20.1626C23.2626 19.7527 22.932 19.4197 22.5228 19.4197H17.0111C16.6022 19.4197 16.2712 19.7529 16.2712 20.1626V21.8007L1.88288 16.783V9.00298C1.88288 8.34394 2.42324 7.78211 3.07941 7.78211H36.3125C36.969 7.78211 37.5091 8.34317 37.5091 9.00298Z" fill="#2F7FED" stroke="#2F7FED" stroke-width="0.2"/>
<path d="M2.87892 31.1055V18.3281L17.175 22.8828V25.2866L22.7417 24.5275V22.8828L36.1524 18.3281C36.3211 20.7319 36.7091 26.3999 36.9115 29.8411C37.1139 33.2824 35.2246 33.7209 34.2547 33.5101C25.8203 33.4679 8.29364 33.4089 5.66211 33.5101C3.03058 33.6113 2.71018 31.9492 2.87892 31.1055Z" fill="url(#paint0_linear_1_1523)"/>
<defs>
<linearGradient id="paint0_linear_1_1523" x1="19.8842" y1="18.3281" x2="19.8842" y2="33.5542" gradientUnits="userSpaceOnUse">
<stop stop-color="#015CF2" stop-opacity="0"/>
<stop offset="1" stop-color="#015CF2" stop-opacity="0.12"/>
</linearGradient>
</defs>
</svg>
