<svg width="26" height="34" viewBox="0 0 26 34" fill="none" xmlns="http://www.w3.org/2000/svg">
<path d="M23.4158 0.644531H2.99781C2.36095 0.645182 1.75038 0.875642 1.30006 1.28535C0.849727 1.69506 0.596418 2.25056 0.595703 2.82997V12.6645H1.79676V2.82997C1.79712 2.54026 1.92377 2.26252 2.14893 2.05766C2.3741 1.85281 2.67938 1.73758 2.99781 1.73725H23.4158C23.7342 1.73758 24.0395 1.85281 24.2646 2.05766C24.4898 2.26252 24.6164 2.54026 24.6168 2.82997V25.6445C24.6165 25.6888 24.6132 25.7331 24.607 25.7771H19.2121C18.7344 25.7776 18.2765 25.9505 17.9388 26.2577C17.601 26.565 17.411 26.9816 17.4105 27.4162V32.3246C17.3621 32.3302 17.3134 32.3331 17.2647 32.3334H2.99781C2.67938 32.3331 2.3741 32.2179 2.14893 32.013C1.92377 31.8082 1.79712 31.5304 1.79676 31.2407V23.5917H0.595703V31.2407C0.596418 31.8201 0.849727 32.3756 1.30006 32.7853C1.75038 33.195 2.36095 33.4255 2.99781 33.4262H17.2647C17.5803 33.4269 17.8929 33.3707 18.1844 33.2609C18.476 33.151 18.7407 32.9896 18.9633 32.7861L25.1143 27.1899C25.3381 26.9874 25.5154 26.7465 25.6362 26.4813C25.7569 26.216 25.8187 25.9316 25.8179 25.6445V2.82997C25.8171 2.25056 25.5638 1.69506 25.1135 1.28535C24.6632 0.875642 24.0526 0.645182 23.4158 0.644531Z" fill="#404A5A"/>
<path d="M23.2775 27.2024L19.3084 30.7875L18.6809 31.3996C18.6697 30.5694 18.654 28.5752 18.6809 28.0098C18.7078 27.4444 19.2754 27.2359 19.5559 27.2024H23.2775Z" fill="white"/>
<rect x="0.240234" y="13.2178" width="22.3206" height="9.75" rx="2" fill="#4CAF50"/>
<path d="M2.89858 18.2285C2.89858 17.6739 3.01324 17.1805 3.24258 16.7485C3.47724 16.3112 3.80791 15.9725 4.23458 15.7325C4.66124 15.4872 5.15191 15.3645 5.70658 15.3645C6.41058 15.3645 7.00258 15.5539 7.48258 15.9325C7.96258 16.3059 8.27191 16.8152 8.41058 17.4605H6.72258C6.62125 17.2472 6.47991 17.0845 6.29858 16.9725C6.12258 16.8605 5.91724 16.8045 5.68258 16.8045C5.31991 16.8045 5.02924 16.9352 4.81058 17.1965C4.59724 17.4525 4.49058 17.7965 4.49058 18.2285C4.49058 18.6659 4.59724 19.0152 4.81058 19.2765C5.02924 19.5325 5.31991 19.6605 5.68258 19.6605C5.91724 19.6605 6.12258 19.6045 6.29858 19.4925C6.47991 19.3805 6.62125 19.2179 6.72258 19.0045H8.41058C8.27191 19.6499 7.96258 20.1619 7.48258 20.5405C7.00258 20.9139 6.41058 21.1005 5.70658 21.1005C5.15191 21.1005 4.66124 20.9805 4.23458 20.7405C3.80791 20.4952 3.47724 20.1565 3.24258 19.7245C3.01324 19.2872 2.89858 18.7885 2.89858 18.2285ZM11.6011 21.1165C10.9451 21.1165 10.4064 20.9619 9.98508 20.6525C9.56374 20.3379 9.33708 19.8899 9.30508 19.3085H10.9771C10.9931 19.5059 11.0517 19.6499 11.1531 19.7405C11.2544 19.8312 11.3851 19.8765 11.5451 19.8765C11.6891 19.8765 11.8064 19.8419 11.8971 19.7725C11.9931 19.6979 12.0411 19.5965 12.0411 19.4685C12.0411 19.3032 11.9637 19.1752 11.8091 19.0845C11.6544 18.9939 11.4037 18.8925 11.0571 18.7805C10.6891 18.6579 10.3904 18.5405 10.1611 18.4285C9.93708 18.3112 9.73974 18.1432 9.56908 17.9245C9.40374 17.7005 9.32108 17.4099 9.32108 17.0525C9.32108 16.6899 9.41174 16.3805 9.59308 16.1245C9.77441 15.8632 10.0251 15.6659 10.3451 15.5325C10.6651 15.3992 11.0277 15.3325 11.4331 15.3325C12.0891 15.3325 12.6117 15.4872 13.0011 15.7965C13.3957 16.1005 13.6064 16.5299 13.6331 17.0845H11.9291C11.9237 16.9139 11.8704 16.7859 11.7691 16.7005C11.6731 16.6152 11.5477 16.5725 11.3931 16.5725C11.2757 16.5725 11.1797 16.6072 11.1051 16.6765C11.0304 16.7459 10.9931 16.8445 10.9931 16.9725C10.9931 17.0792 11.0331 17.1725 11.1131 17.2525C11.1984 17.3272 11.3024 17.3939 11.4251 17.4525C11.5477 17.5059 11.7291 17.5752 11.9691 17.6605C12.3264 17.7832 12.6197 17.9059 12.8491 18.0285C13.0837 18.1459 13.2837 18.3139 13.4491 18.5325C13.6197 18.7459 13.7051 19.0179 13.7051 19.3485C13.7051 19.6845 13.6197 19.9859 13.4491 20.2525C13.2837 20.5192 13.0411 20.7299 12.7211 20.8845C12.4064 21.0392 12.0331 21.1165 11.6011 21.1165ZM20.242 15.4205L18.298 21.0605H16.29L14.338 15.4205H16.018L17.298 19.4925L18.57 15.4205H20.242Z" fill="white"/>
</svg>
