<svg width="69" height="72" viewBox="0 0 69 72" fill="none" xmlns="http://www.w3.org/2000/svg">
<path d="M27.5579 0.90293C35.2827 0.90293 41.5678 7.18711 41.5678 14.9119C41.5678 22.6367 35.2827 28.9219 27.5579 28.9219C19.8331 28.9219 13.5479 22.6367 13.5479 14.9119C13.5479 7.18711 19.833 0.90293 27.5579 0.90293ZM27.5581 3.23732C21.1202 3.23732 15.8826 8.47492 15.8826 14.9119C15.8826 21.3499 21.1202 26.5875 27.5581 26.5875C33.9961 26.5875 39.2337 21.3499 39.2337 14.9119C39.2337 8.47492 33.996 3.23732 27.5581 3.23732Z" fill="black" stroke="#FFEDE7" stroke-width="0.3"/>
<path d="M51.4919 66.8352L51.6419 66.8352V66.6852V47.8423C51.6419 42.4389 47.2471 38.043 41.844 38.043H13.2701C7.86668 38.043 3.47168 42.4382 3.47168 47.8414V66.6842V66.8342L3.62168 66.8342L51.4919 66.8352ZM1.13706 68.0018V47.8423C1.13706 41.1511 6.58031 35.7086 13.2706 35.7086L41.8445 35.7095C48.5347 35.7095 53.9772 41.152 53.9772 47.8423V68.0018C53.9772 68.6467 53.4545 69.1695 52.8096 69.1695H2.30475C1.65897 69.1695 1.13706 68.6468 1.13706 68.0018Z" fill="black" stroke="#FFEDE7" stroke-width="0.3"/>
<circle cx="54.1272" cy="56.7396" r="14.7074" fill="#FFEDE7"/>
<mask id="path-4-outside-1_140_110" maskUnits="userSpaceOnUse" x="42.7887" y="44.4014" width="25" height="25" fill="black">
<rect fill="white" x="42.7887" y="44.4014" width="25" height="25"/>
<path d="M55.1272 46.3085C60.8788 46.3085 65.5587 50.9883 65.5587 56.7399C65.5587 62.492 60.8788 67.1714 55.1272 67.1714C49.3756 67.1714 44.6958 62.492 44.6958 56.7399C44.6958 50.9883 49.3756 46.3085 55.1272 46.3085ZM55.1272 45.4014C48.8654 45.4014 43.7887 50.4781 43.7887 56.7399C43.7887 63.0022 48.8654 68.0785 55.1272 68.0785C61.3891 68.0785 66.4658 63.0022 66.4658 56.7399C66.4658 50.4781 61.3891 45.4014 55.1272 45.4014Z"/>
</mask>
<path d="M55.1272 46.3085C60.8788 46.3085 65.5587 50.9883 65.5587 56.7399C65.5587 62.492 60.8788 67.1714 55.1272 67.1714C49.3756 67.1714 44.6958 62.492 44.6958 56.7399C44.6958 50.9883 49.3756 46.3085 55.1272 46.3085ZM55.1272 45.4014C48.8654 45.4014 43.7887 50.4781 43.7887 56.7399C43.7887 63.0022 48.8654 68.0785 55.1272 68.0785C61.3891 68.0785 66.4658 63.0022 66.4658 56.7399C66.4658 50.4781 61.3891 45.4014 55.1272 45.4014Z" fill="black"/>
<path d="M55.1272 46.7085C60.6579 46.7085 65.1587 51.2092 65.1587 56.7399H65.9587C65.9587 50.7674 61.0998 45.9085 55.1272 45.9085V46.7085ZM65.1587 56.7399C65.1587 62.271 60.6579 66.7714 55.1272 66.7714V67.5714C61.0998 67.5714 65.9587 62.7129 65.9587 56.7399H65.1587ZM55.1272 66.7714C49.5965 66.7714 45.0958 62.271 45.0958 56.7399H44.2958C44.2958 62.7129 49.1547 67.5714 55.1272 67.5714V66.7714ZM45.0958 56.7399C45.0958 51.2092 49.5965 46.7085 55.1272 46.7085V45.9085C49.1547 45.9085 44.2958 50.7674 44.2958 56.7399H45.0958ZM55.1272 45.0014C48.6445 45.0014 43.3887 50.2572 43.3887 56.7399H44.1887C44.1887 50.699 49.0863 45.8014 55.1272 45.8014V45.0014ZM43.3887 56.7399C43.3887 63.2231 48.6445 68.4785 55.1272 68.4785V67.6784C49.0863 67.6784 44.1887 62.7813 44.1887 56.7399H43.3887ZM55.1272 68.4785C61.61 68.4785 66.8658 63.2231 66.8658 56.7399H66.0658C66.0658 62.7813 61.1682 67.6784 55.1272 67.6784V68.4785ZM66.8658 56.7399C66.8658 50.2572 61.61 45.0014 55.1272 45.0014V45.8014C61.1682 45.8014 66.0658 50.699 66.0658 56.7399H66.8658Z" fill="black" mask="url(#path-4-outside-1_140_110)"/>
<path d="M54.6737 48.8293H54.4737V49.0293V56.993H49.2312H49.0312V57.193V58.1001V58.3001H49.2312H55.5808H55.7808V58.1001V49.0293V48.8293H55.5808H54.6737Z" fill="black" stroke="black" stroke-width="0.4"/>
</svg>
