<svg width="23" height="24" viewBox="0 0 23 24" fill="none" xmlns="http://www.w3.org/2000/svg">
<path d="M13.8496 2.34531L15.4126 3.90838C14.7222 4.18495 13.704 4.52239 12.5194 4.6211L12.5191 4.62113C10.8069 4.77446 8.55431 4.39083 7.70642 4.23667L7.70617 4.23663L7.69558 4.23476C7.48395 4.1974 7.30059 4.16503 7.13515 4.17827C6.96288 4.19205 6.81058 4.25493 6.66099 4.40454C6.58209 4.48343 6.49813 4.59305 6.46869 4.70797L2.67009 15.7442L2.67007 15.7442L2.66964 15.7455C2.53384 16.1801 2.75063 16.646 3.18975 16.7835C3.26811 16.8096 3.37673 16.8373 3.46182 16.8373C3.79016 16.8373 4.11802 16.6193 4.22795 16.2899C4.22798 16.2898 4.22801 16.2898 4.22804 16.2897L7.80795 5.9082C8.874 6.08937 10.9774 6.41364 12.6821 6.26098L12.6824 6.26095C14.0127 6.13304 15.3676 5.75146 16.6717 5.14183L18.3153 6.78537C17.732 7.9111 17.3765 9.11308 17.2742 10.3911C17.0961 12.2236 17.4205 14.5552 17.6016 15.6758L4.29214 20.2636L11.5579 12.9978C11.8843 12.6714 11.8869 12.1513 11.5572 11.8482C11.2307 11.5225 10.7112 11.5202 10.4083 11.8497L0.681085 21.5769C0.465862 21.7658 0.357227 22.01 0.357227 22.2808C0.357227 22.7386 0.734147 23.1546 1.18047 23.1009C1.28974 23.1004 1.37238 23.0729 1.44824 23.0476L1.44987 23.047L1.45046 23.0468L18.7508 17.0403C18.8657 17.0108 18.9753 16.9269 19.0542 16.848C19.2026 16.6996 19.2727 16.5544 19.29 16.3779C19.3069 16.2058 19.2731 16.0063 19.2221 15.7511C19.068 14.8262 18.7099 12.394 18.8633 10.5788L18.8633 10.5788C18.9378 9.68556 19.157 8.84055 19.4976 8.04357L21.0885 9.63447L21.0874 9.63556L21.0982 9.64199C21.2309 9.72166 21.4196 9.80314 21.6373 9.80314C21.8564 9.80314 22.0484 9.72049 22.211 9.55823C22.5396 9.25615 22.5392 8.73647 22.2106 8.43441L14.9978 1.19575L14.9977 1.19568C14.6713 0.869264 14.1512 0.866695 13.8481 1.19644C13.5224 1.5229 13.5201 2.0424 13.8496 2.34531Z" fill="white" stroke="white" stroke-width="0.1"/>
</svg>
