<?xml version="1.0" encoding="utf-8"?>
<!-- Generator: Adobe Illustrator 16.0.0, SVG Export Plug-In . SVG Version: 6.00 Build 0)  -->
<!DOCTYPE svg PUBLIC "-//W3C//DTD SVG 1.1//EN" "http://www.w3.org/Graphics/SVG/1.1/DTD/svg11.dtd">
<svg version="1.1" id="Layer_1" xmlns="http://www.w3.org/2000/svg" xmlns:xlink="http://www.w3.org/1999/xlink" x="0px" y="0px"
	 width="85px" height="86px" viewBox="0 0 85 86" enable-background="new 0 0 85 86" xml:space="preserve">
<g>
	<g>
		<path fill="#FFFFFF" stroke="#000000" stroke-width="2" stroke-miterlimit="10" d="M51.607,60.451c0-3.539,1.377-6.863,3.88-9.362
			c2.504-2.497,5.829-3.88,9.361-3.88c3.533,0,6.863,1.377,9.362,3.88c2.496,2.503,3.88,5.829,3.88,9.362"/>
		<path fill="#FFFFFF" stroke="#000000" stroke-width="2" stroke-miterlimit="10" d="M64.469,42.037
			c-3.637,0-6.596-2.958-6.596-6.596c0-3.637,2.959-6.591,6.596-6.591c3.638,0,6.596,2.958,6.596,6.596
			C71.064,39.083,68.106,42.037,64.469,42.037z"/>
	</g>
	<g>
		<path fill="#FFFFFF" stroke="#000000" stroke-width="2" stroke-miterlimit="10" d="M5.949,60.617c0-3.539,1.377-6.863,3.88-9.362
			c2.504-2.497,5.829-3.88,9.361-3.88c3.533,0,6.863,1.377,9.362,3.88c2.496,2.503,3.88,5.681,3.88,9.214"/>
		<path fill="#FFFFFF" stroke="#000000" stroke-width="2" stroke-miterlimit="10" d="M18.811,42.037
			c-3.637,0-6.596-2.958-6.596-6.596c0-3.637,2.959-6.591,6.596-6.591c3.638,0,6.596,2.958,6.596,6.596
			C25.406,39.083,22.448,42.037,18.811,42.037z"/>
	</g>
	<g>
		<path fill="#FFFFFF" stroke="#000000" stroke-width="2" stroke-miterlimit="10" d="M41.693,34.735
			c-5.467,0-9.914-4.448-9.914-9.915c0-5.468,4.447-9.908,9.914-9.908s9.914,4.447,9.914,9.915
			C51.607,30.294,47.16,34.735,41.693,34.735z"/>
		<path fill="#FFFFFF" stroke="#000000" stroke-width="2" stroke-miterlimit="10" d="M22.219,60.617v-0.74
			c0-5.204,2.025-10.095,5.707-13.769c3.682-3.673,8.572-5.707,13.768-5.707c5.196,0,10.095,2.025,13.769,5.707
			c3.673,3.682,5.707,8.571,5.707,13.769v0.574"/>
	</g>
</g>
</svg>
