<svg width="57" height="57" viewBox="0 0 57 57" fill="none" xmlns="http://www.w3.org/2000/svg">
<circle cx="28.5356" cy="28.1762" r="27.3305" fill="white"/>
<path d="M28.3682 15.1871V11.8828" stroke="black" stroke-width="2.4" stroke-miterlimit="10" stroke-linecap="round" stroke-linejoin="round"/>
<path d="M28.3682 43.7604V40.4578" stroke="black" stroke-width="2.4" stroke-miterlimit="10" stroke-linecap="round" stroke-linejoin="round"/>
<path d="M22.1289 39.1839C22.1289 39.1839 28.3207 41.8416 31.9748 39.1839C35.6297 36.5263 35.6843 30.9604 30.8395 28.3855C25.9947 25.8106 23.0286 24.4817 23.0286 19.8304C23.0286 15.1791 30.646 13.9883 34.191 15.9828" stroke="black" stroke-width="2.4" stroke-miterlimit="10" stroke-linecap="round" stroke-linejoin="round"/>
<path d="M55.2618 28.5372C55.2618 43.4323 43.1869 55.506 28.293 55.506C13.3979 55.506 1.32422 43.4311 1.32422 28.5372C1.32422 13.6433 13.3991 1.56836 28.293 1.56836C43.1869 1.56836 55.2618 13.6433 55.2618 28.5372Z" stroke="black" stroke-width="2.4" stroke-miterlimit="10" stroke-linecap="round" stroke-linejoin="round"/>
</svg>
