<svg width="58" height="65" viewBox="0 0 58 65" fill="none" xmlns="http://www.w3.org/2000/svg">
<path d="M1.88281 1.84961V56.1162H34.4881C33.0289 53.5627 33.1201 52.164 33.3481 51.7837C31.524 45.3995 38.1363 40.9153 41.6705 39.4712V14.9602L28.5599 1.84961H1.88281Z" fill="white"/>
<path fill-rule="evenodd" clip-rule="evenodd" d="M23.3054 15.5042H7.76212C7.5246 15.5042 7.33203 15.2602 7.33203 14.9591C7.33203 14.6581 7.5246 14.4141 7.76212 14.4141H23.3054C23.5441 14.4141 23.7355 14.6581 23.7355 14.9591C23.7355 15.2602 23.5441 15.5042 23.3054 15.5042Z" fill="#1A2434"/>
<path fill-rule="evenodd" clip-rule="evenodd" d="M23.5982 20.5286H7.88331C7.57887 20.5286 7.33203 20.2846 7.33203 19.9836C7.33203 19.6825 7.57887 19.4385 7.88331 19.4385H23.5982C23.9026 19.4385 24.1494 19.6825 24.1494 19.9836C24.1494 20.2846 23.9026 20.5286 23.5982 20.5286Z" fill="#1A2434"/>
<path fill-rule="evenodd" clip-rule="evenodd" d="M30.4467 25.5521H7.88136C7.57691 25.5521 7.33008 25.308 7.33008 25.007C7.33008 24.706 7.57691 24.4619 7.88136 24.4619H30.4467C30.7511 24.4619 30.9979 24.706 30.9979 25.007C30.9979 25.308 30.7511 25.5521 30.4467 25.5521Z" fill="#1A2434"/>
<path fill-rule="evenodd" clip-rule="evenodd" d="M26.2827 30.5785H7.88136C7.57691 30.5785 7.33008 30.3344 7.33008 30.0334C7.33008 29.7323 7.57691 29.4883 7.88136 29.4883H26.2827C26.5872 29.4883 26.834 29.7323 26.834 30.0334C26.834 30.3344 26.5872 30.5785 26.2827 30.5785Z" fill="#1A2434"/>
<path fill-rule="evenodd" clip-rule="evenodd" d="M20.2281 35.6019H7.88136C7.57691 35.6019 7.33008 35.3578 7.33008 35.0568C7.33008 34.7558 7.57691 34.5117 7.88136 34.5117H20.2281C20.5325 34.5117 20.7794 34.7563 20.7794 35.0573C20.7794 35.3583 20.5325 35.6024 20.2281 35.6024V35.6019Z" fill="#1A2434"/>
<path fill-rule="evenodd" clip-rule="evenodd" d="M28.366 40.6263H7.88331C7.57887 40.6263 7.33203 40.3822 7.33203 40.0812C7.33203 39.7802 7.57887 39.5361 7.88331 39.5361H28.366C28.6705 39.5361 28.9173 39.7807 28.9173 40.0812C28.9173 40.3822 28.6705 40.6263 28.366 40.6263Z" fill="#1A2434"/>
<path fill-rule="evenodd" clip-rule="evenodd" d="M27.9182 45.6517H7.7717C7.52889 45.6517 7.33203 45.4076 7.33203 45.1066C7.33203 44.8041 7.52889 44.5615 7.7717 44.5615H27.9182C28.161 44.5615 28.3579 44.8041 28.3579 45.1066C28.3579 45.4076 28.161 45.6517 27.9182 45.6517Z" fill="#1A2434"/>
<path d="M1.13182 0.169743C0.770198 0.238193 0.511363 0.554321 0.517692 0.918526V56.3513C0.517692 56.7651 0.85612 57.1001 1.2731 57.1001H29.2348C29.4367 57.1032 29.6317 57.0253 29.7756 56.8848C29.9201 56.7437 30.0012 56.5519 30.0012 56.3513C30.0012 56.1506 29.9201 55.9583 29.7756 55.8178C29.6317 55.6767 29.4367 55.5994 29.2348 55.602H2.02882V1.6674H27.7233V14.4018C27.7233 14.8157 28.0618 15.1511 28.4793 15.1511H41.3264V39.5207C36.1139 40.8531 32.2579 45.5213 32.2579 51.1082C32.2579 57.7337 37.6648 63.0934 44.3497 63.0934C51.0339 63.0934 56.4409 57.7339 56.4409 51.1082C56.4409 44.4821 51.034 39.1224 44.3497 39.1224C43.8331 39.1224 43.337 39.1773 42.8378 39.2395V14.4018C42.8426 14.2016 42.7661 14.0073 42.6254 13.8636L29.0224 0.37993C28.8774 0.240411 28.6819 0.164646 28.4794 0.169355H1.27351C1.22659 0.164652 1.17874 0.16504 1.13182 0.169743ZM29.2352 2.7212L40.2637 13.6535H29.2352V2.7212ZM44.3496 40.6199C50.2221 40.6199 54.9294 45.286 54.9294 51.1074C54.9294 56.9284 50.2219 61.5944 44.3496 61.5944C38.4766 61.5944 33.7692 56.9282 33.7692 51.1074C33.7692 45.2859 38.4767 40.6199 44.3496 40.6199Z" fill="black"/>
<path d="M44.8991 63.8436C51.6876 63.8436 57.1908 58.3405 57.1908 51.5519C57.1908 44.7634 51.6876 39.2603 44.8991 39.2603C38.1106 39.2603 32.6074 44.7634 32.6074 51.5519C32.6074 58.3405 38.1106 63.8436 44.8991 63.8436Z" fill="#F0AD00" stroke="#F0AD00" stroke-width="1.5"/>
<path d="M45.2538 43.2748H45.2538L45.2538 43.2742L45.2457 42.5996L45.2445 42.4984H45.3457H45.5073C45.6991 42.4984 46.0722 42.5399 46.4003 42.5879C46.5655 42.612 46.7219 42.6382 46.8416 42.6623C46.9012 42.6743 46.9532 42.6862 46.9932 42.6974C47.013 42.7029 47.0318 42.7088 47.0477 42.7151C47.0588 42.7194 47.0849 42.7298 47.1049 42.7499C47.1251 42.77 47.1308 42.7926 47.1323 42.7992C47.1346 42.8086 47.1352 42.8167 47.1354 42.8214C47.1359 42.8311 47.1353 42.8404 47.1347 42.8471C47.1334 42.8613 47.1307 42.8785 47.1274 42.8968C47.1207 42.9342 47.1098 42.9851 47.0958 43.0453C47.0676 43.166 47.0259 43.3287 46.9773 43.5051L46.8077 44.1469L46.7842 44.2361L46.6934 44.2198L46.3791 44.1634C46.2071 44.1354 45.9075 44.0955 45.7132 44.0796L45.358 44.0514L45.2675 44.0442L45.2659 43.9535L45.2538 43.2748Z" fill="white" stroke="white" stroke-width="0.2"/>
<path d="M43.3696 42.6168L43.3695 42.6168C41.3811 42.972 39.5319 43.9763 38.1479 45.4419L38.1477 45.442C36.384 47.316 35.4324 49.9611 35.6285 52.4703C35.7753 54.4076 36.3839 56.0376 37.5265 57.5639L37.5266 57.5639C37.8587 58.0068 38.6968 58.8694 39.1283 59.2065C42.0059 61.4758 45.8684 61.9008 49.1268 60.3042L49.127 60.3042C51.552 59.1121 53.316 56.9928 54.0508 54.3802C54.1044 54.1905 54.1746 53.8764 54.2313 53.592C54.2597 53.4494 54.285 53.3131 54.3031 53.2025C54.3207 53.0954 54.3332 53.0035 54.3332 52.9554C54.3332 52.9209 54.3188 52.8905 54.2961 52.8685C54.2766 52.8496 54.2539 52.8394 54.2369 52.8335C54.203 52.8216 54.1582 52.8152 54.1063 52.8108C53.9994 52.8018 53.8244 52.7989 53.5506 52.7989H52.8679H52.7842L52.7694 52.8812L52.721 53.1519L52.7208 53.1526C52.294 55.6459 50.7225 57.7598 48.4729 58.8807C47.7504 59.2359 47.1209 59.4431 46.2976 59.595L46.2976 59.595C45.9889 59.652 45.525 59.6832 45.0563 59.6863C44.5876 59.6893 44.1227 59.664 43.8119 59.6109L43.8115 59.6109C42.111 59.3274 40.6839 58.5978 39.4789 57.3928C37.8946 55.8085 37.0816 53.7432 37.1773 51.5501C37.265 49.5912 38.0144 47.8529 39.3753 46.4322L43.3696 42.6168ZM43.3696 42.6168C43.4298 42.6061 43.4856 42.5954 43.5366 42.5856C43.6192 42.5697 43.689 42.5563 43.7439 42.5494C43.8264 42.5389 43.9287 42.5335 43.999 42.6065C44.0326 42.6415 44.0493 42.6851 44.0587 42.7269C44.0681 42.7687 44.0721 42.8174 44.0739 42.8709C44.076 42.9345 44.0752 43.0149 44.0742 43.1114C44.0736 43.1745 44.0728 43.2445 44.0728 43.3212V43.9998V44.0827M43.3696 42.6168L44.0728 44.0827M44.0728 44.0827L43.9913 44.0981M44.0728 44.0827L43.9913 44.0981M43.9913 44.0981L43.5187 44.1869C41.9922 44.4739 40.4598 45.3039 39.3754 46.4321L43.9913 44.0981ZM35.7282 52.4626C35.8736 54.3814 36.4755 55.9931 37.6066 57.5039L35.7282 52.4626Z" fill="white" stroke="white" stroke-width="0.2"/>
<path d="M49.1259 44.231L49.1259 44.231L49.1252 44.2321C49.0384 44.3794 48.9553 44.5203 48.8904 44.6279C48.8579 44.6816 48.8296 44.7277 48.8075 44.7624C48.7964 44.7796 48.7865 44.7947 48.7781 44.8068C48.7717 44.8161 48.7623 44.8292 48.7523 44.8397C48.732 44.8617 48.7041 44.882 48.6657 44.8906C48.6297 44.8987 48.5943 44.8943 48.5626 44.8862C48.502 44.8709 48.4204 44.8331 48.3073 44.7756C48.1572 44.7005 47.8983 44.589 47.7363 44.5297C47.6522 44.499 47.5709 44.4671 47.5081 44.4406C47.4768 44.4274 47.4492 44.4152 47.4278 44.4049C47.4173 44.3998 47.4071 44.3947 47.3984 44.3897L47.3981 44.3896C47.393 44.3867 47.38 44.3794 47.3683 44.3686C47.3416 44.3446 47.3357 44.3143 47.3344 44.3076C47.3344 44.3075 47.3344 44.3073 47.3344 44.3072C47.332 44.295 47.3316 44.2835 47.3316 44.2754C47.3317 44.2586 47.3335 44.2393 47.3361 44.22C47.3412 44.1805 47.3509 44.1278 47.3637 44.0669C47.3895 43.9443 47.4294 43.7809 47.4761 43.6061C47.5229 43.4311 47.5698 43.2719 47.6073 43.1559C47.626 43.0981 47.6427 43.0498 47.6562 43.0151C47.6628 42.9982 47.6695 42.9822 47.676 42.9694C47.679 42.9635 47.6838 42.9545 47.6903 42.9457C47.6934 42.9415 47.6995 42.9337 47.7088 42.9259C47.7159 42.92 47.7391 42.9018 47.7747 42.9018C47.801 42.9018 47.8345 42.9106 47.8597 42.9177C47.89 42.9262 47.9277 42.9382 47.9703 42.9527C48.0558 42.9817 48.1651 43.0218 48.2827 43.067C48.5176 43.1573 48.7894 43.2693 48.9759 43.3554L48.9759 43.3553L48.9773 43.356L49.3893 43.5539L49.4862 43.6005L49.4329 43.6937L49.1259 44.231Z" fill="white" stroke="white" stroke-width="0.2"/>
<path d="M50.0409 44.0565L50.0876 43.9681C50.1318 43.9914 50.2204 44.0533 50.3228 44.1282C50.4283 44.2052 50.556 44.3017 50.6827 44.3995C50.8094 44.4973 50.9356 44.5968 51.0378 44.6799C51.1379 44.7612 51.2206 44.8311 51.256 44.8676L51.256 44.8676L51.2571 44.8688L51.3743 44.9941L51.4401 45.0644L51.3723 45.1328L50.8916 45.6175L50.8916 45.6175L50.4149 46.0982L50.3477 46.166L50.2769 46.1021L50.0711 45.9164C49.9615 45.8186 49.7225 45.6313 49.5418 45.4987C49.4623 45.4414 49.4001 45.396 49.3529 45.3592C49.3068 45.3232 49.2695 45.2913 49.2437 45.261C49.2171 45.2297 49.1923 45.188 49.1951 45.1348C49.1976 45.0883 49.2214 45.0515 49.234 45.0321L49.2339 45.032L49.237 45.0278C49.2492 45.0109 49.2882 44.9455 49.346 44.846C49.3682 44.8078 49.3928 44.7653 49.4188 44.7203C49.4577 44.653 49.4998 44.5802 49.542 44.5079C49.611 44.3842 49.6789 44.2666 49.7322 44.1767C49.759 44.1317 49.7822 44.0933 49.8002 44.0644C49.8154 44.04 49.8309 44.0155 49.8415 44.0024C49.8666 43.9704 49.9048 43.9395 49.9603 43.9351C50.0087 43.9313 50.0529 43.9496 50.088 43.9683L50.0409 44.0565ZM50.0409 44.0565C49.9803 44.0242 49.948 44.0283 49.9197 44.0646C49.8995 44.0889 49.7662 44.311 49.6289 44.5574L50.8205 45.5471L51.3012 45.0624L51.1841 44.9372C51.0629 44.8119 50.1863 44.1333 50.0409 44.0565Z" fill="white" stroke="white" stroke-width="0.2"/>
<path d="M44.5429 50.845L44.5429 50.8449L44.5471 50.8437L44.5594 50.8402V48.1284V45.3451V45.2451H44.6594H45.0027H45.3461H45.4461V45.3451V48.1284V50.8402L45.4584 50.8437L45.4584 50.8437L45.4608 50.8444C45.5099 50.8598 45.5637 50.8938 45.6123 50.9299C45.6632 50.9678 45.7173 51.0147 45.7681 51.064C45.819 51.1133 45.8682 51.1663 45.9088 51.2169C45.9481 51.2659 45.9844 51.3185 46.0041 51.3663L46.0041 51.3663L46.0045 51.3673L46.0278 51.4256H48.7433H51.5266H51.6266V51.5256V51.869V52.2123V52.3123H51.5266H48.7474H46.0283L46.0109 52.3503C46.0109 52.3504 46.0108 52.3505 46.0108 52.3506C45.9675 52.4466 45.8849 52.5531 45.7948 52.6453C45.7041 52.7381 45.597 52.8253 45.4983 52.8781L45.4983 52.8782L45.4977 52.8785C45.363 52.9494 45.1785 52.9809 45.0032 52.9809C44.8283 52.9809 44.6444 52.9494 44.5113 52.8782C44.3039 52.7678 44.0914 52.5555 43.9809 52.3392C43.9151 52.2144 43.8897 52.0314 43.8924 51.8599C43.895 51.6872 43.9263 51.503 43.993 51.3745L43.993 51.3745L43.9935 51.3735C44.0487 51.27 44.1465 51.1527 44.2448 51.0571C44.2946 51.0086 44.3464 50.9638 44.3958 50.9276C44.4436 50.8925 44.4949 50.861 44.5429 50.845Z" fill="white" stroke="white" stroke-width="0.2"/>
<path d="M50.7695 46.6156L50.6902 46.5452L50.7652 46.4702L51.2419 45.9935C51.3736 45.8617 51.4965 45.742 51.5881 45.6549C51.6338 45.6115 51.6723 45.5757 51.7004 45.5506C51.7143 45.5382 51.7265 45.5275 51.7363 45.5196C51.741 45.5158 51.7466 45.5114 51.7523 45.5075C51.755 45.5056 51.7597 45.5025 51.7655 45.4995C51.7684 45.498 51.7732 45.4956 51.7794 45.4934C51.7843 45.4917 51.7969 45.4875 51.8135 45.4875C51.8413 45.4875 51.8623 45.4985 51.8693 45.5023C51.8794 45.5077 51.8883 45.514 51.8953 45.5193C51.9095 45.5302 51.9249 45.5441 51.9404 45.5591C51.9717 45.5894 52.0111 45.6316 52.055 45.681C52.1434 45.7804 52.2553 45.9146 52.3687 46.0562C52.5918 46.3347 52.8314 46.6547 52.9066 46.7949L52.9133 46.8061L52.9135 46.8064C52.9161 46.8106 52.9201 46.8171 52.9237 46.8239C52.9309 46.8373 52.9438 46.864 52.9423 46.8989C52.9406 46.9355 52.9241 46.9638 52.9077 46.9837C52.892 47.0025 52.872 47.0193 52.8511 47.0347C52.7828 47.0854 52.6428 47.1666 52.3822 47.3177C52.337 47.3439 52.2881 47.3723 52.2354 47.4029L52.2351 47.4031L51.7383 47.6899L51.6605 47.7348L51.6075 47.6622L51.4984 47.5128L51.4983 47.5125C51.3329 47.2847 51.1983 47.1039 51.0938 46.9693C50.9889 46.8344 50.9177 46.7505 50.8771 46.7113L50.7695 46.6156Z" fill="white" stroke="white" stroke-width="0.2"/>
<path d="M52.6071 47.7635L52.6071 47.7635L52.6079 47.763C52.9034 47.5913 53.1591 47.4428 53.1709 47.4368L53.1884 47.4281L53.208 47.4266C53.2374 47.4243 53.2593 47.4352 53.269 47.4408C53.2798 47.4471 53.2875 47.4542 53.2921 47.4586C53.3012 47.4676 53.3085 47.4773 53.3135 47.4844C53.3241 47.4995 53.3353 47.5188 53.3466 47.5395C53.3696 47.5817 53.3985 47.6406 53.4307 47.7097C53.4953 47.8484 53.576 48.0343 53.6548 48.2235C53.7337 48.4129 53.8111 48.6069 53.8689 48.7621C53.8977 48.8396 53.9221 48.9084 53.9393 48.9625C53.9479 48.9894 53.9551 49.0138 53.9603 49.0344C53.9647 49.0521 53.97 49.076 53.97 49.0977C53.97 49.1376 53.9472 49.1623 53.942 49.1678C53.9338 49.1765 53.9258 49.1822 53.9217 49.1849C53.9128 49.1908 53.9038 49.1952 53.8976 49.1981C53.8841 49.2043 53.867 49.2109 53.8487 49.2176C53.8111 49.2312 53.7589 49.2482 53.6979 49.267C53.5755 49.3049 53.4127 49.3519 53.2499 49.397C53.087 49.4421 52.923 49.4856 52.7981 49.5163C52.7359 49.5316 52.6823 49.544 52.6429 49.5519C52.6236 49.5558 52.6057 49.559 52.5913 49.5608C52.5845 49.5616 52.5752 49.5625 52.5655 49.5624C52.561 49.5623 52.5524 49.562 52.5424 49.5599C52.5423 49.5599 52.5422 49.5599 52.5421 49.5598C52.5362 49.5586 52.5071 49.5525 52.4844 49.5252L52.477 49.5163L52.4718 49.5059C52.4681 49.4985 52.4621 49.4833 52.4573 49.4708C52.4512 49.4551 52.4431 49.4337 52.4336 49.4081C52.4147 49.3571 52.3903 49.2888 52.3658 49.2153C52.3144 49.0733 52.1991 48.7987 52.1108 48.6021C52.0634 48.501 52.0246 48.4059 52 48.3336C51.9879 48.298 51.9781 48.2648 51.9729 48.2381C51.9705 48.2256 51.9678 48.2087 51.9685 48.1915C51.9687 48.1833 51.9699 48.1684 51.9763 48.152C51.9829 48.135 51.9993 48.1063 52.0353 48.0919L52.0352 48.0917L52.0372 48.0911C52.0383 48.0905 52.0412 48.0891 52.0464 48.0864C52.0554 48.0818 52.068 48.075 52.0841 48.0662C52.116 48.0487 52.1599 48.024 52.2127 47.9939C52.3182 47.9336 52.458 47.8521 52.6071 47.7635Z" fill="white" stroke="white" stroke-width="0.2"/>
<path d="M52.6837 50.0931C52.6919 50.085 52.6995 50.0802 52.702 50.0787C52.7054 50.0765 52.7084 50.075 52.71 50.0742C52.7134 50.0725 52.7163 50.0713 52.7177 50.0707L52.7254 50.0678L52.739 50.0633C52.749 50.0602 52.7629 50.0559 52.78 50.0509C52.8142 50.0408 52.8629 50.0267 52.9222 50.01C53.0407 49.9766 53.2027 49.932 53.3787 49.8855L54.0246 49.7079L54.1247 49.6804L54.1484 49.7814L54.1968 49.9871C54.2306 50.1265 54.2746 50.409 54.3098 50.6812C54.345 50.9526 54.3733 51.2267 54.3733 51.3474V51.5251V51.6251H54.2733H53.5906H52.912H52.8189L52.8122 51.5323L52.784 51.1366C52.7679 50.9241 52.732 50.6223 52.701 50.4753L52.701 50.4753L52.7004 50.4723C52.6862 50.3931 52.6739 50.3205 52.6657 50.2669C52.6616 50.2403 52.6583 50.2174 52.6564 50.2004C52.6554 50.1922 52.6545 50.1837 52.6541 50.1762C52.654 50.1729 52.6537 50.167 52.6541 50.1605C52.6543 50.1574 52.6547 50.1511 52.6564 50.1435C52.6564 50.1434 52.6564 50.1433 52.6564 50.1431C52.6572 50.1394 52.6623 50.1146 52.6837 50.0931ZM52.6837 50.0931L52.7544 50.1638L52.6837 50.0931C52.6837 50.0931 52.6837 50.0931 52.6837 50.0931Z" fill="white" stroke="white" stroke-width="0.2"/>
</svg>
