<svg width="3" height="14" viewBox="0 0 3 14" fill="none" xmlns="http://www.w3.org/2000/svg">
<g opacity="0.8">
<circle cx="1.5" cy="1.5" r="1.5" fill="#3E4A5C"/>
<circle cx="1.5" cy="6.75" r="1.5" fill="#3E4A5C"/>
<circle cx="1.5" cy="12" r="1.5" fill="#3E4A5C"/>
</g>
</svg>
