<svg width="26" height="15" viewBox="0 0 26 15" fill="none" xmlns="http://www.w3.org/2000/svg">
<path d="M25.1583 7.7536C22.6015 12.1057 18.0591 14.7168 12.9999 14.7168C7.94072 14.7168 3.39833 12.1055 0.841531 7.7536C0.705492 7.53598 0.705492 7.29123 0.841531 7.0736C3.39838 2.72151 7.94072 0.110409 12.9999 0.110409C18.0591 0.110409 22.6015 2.7217 25.1583 7.0736C25.267 7.26391 25.267 7.53598 25.1583 7.7536ZM12.9999 1.4432C8.56627 1.4432 4.56793 3.64636 2.22873 7.4C4.56793 11.1264 8.56632 13.3568 12.9999 13.3568C17.4335 13.3568 21.4319 11.1263 23.7711 7.4C21.4319 3.67365 17.4335 1.4432 12.9999 1.4432Z" fill="#2F7FED"/>
<path d="M12.7395 12.1599C10.2708 12.1599 8.2395 10.1286 8.2395 7.65991C8.2395 5.19125 10.2708 3.15991 12.7395 3.15991C15.2082 3.15991 17.2395 5.19125 17.2395 7.65991C17.2395 10.1286 15.2082 12.1599 12.7395 12.1599ZM12.7395 4.44563C10.9652 4.44563 9.52522 5.88558 9.52522 7.65991C9.52522 9.43424 10.9652 10.8742 12.7395 10.8742C14.5138 10.8742 15.9538 9.43424 15.9538 7.65991C15.9538 5.88558 14.5138 4.44563 12.7395 4.44563Z" fill="#2F7FED"/>
<path d="M12.8809 9.63599C11.8149 9.63599 10.9309 8.75203 10.9309 7.68599C10.9309 6.61994 11.8149 5.73599 12.8809 5.73599C13.947 5.73599 14.8309 6.61994 14.8309 7.68599C14.8309 8.75203 13.947 9.63599 12.8809 9.63599ZM12.8809 7.03599C12.5169 7.03599 12.2309 7.322 12.2309 7.68599C12.2309 8.04998 12.5169 8.33599 12.8809 8.33599C13.2449 8.33599 13.5309 8.04998 13.5309 7.68599C13.5309 7.322 13.2449 7.03599 12.8809 7.03599Z" fill="#2F7FED"/>
</svg>
