<?xml version="1.0" encoding="UTF-8"?>
<svg viewBox="0 0 79 90" version="1.1" xmlns="http://www.w3.org/2000/svg" xmlns:xlink="http://www.w3.org/1999/xlink">
    <!-- Generator: Sketch 46.2 (44496) - http://www.bohemiancoding.com/sketch -->
    <title>Group 9</title>
    <desc>Created with Sketch.</desc>
    <defs></defs>
    <g id="Meerkat_Sending_VD" stroke="none" stroke-width="1" fill="none" fill-rule="evenodd">
        <g id="Meerkat_1.1_Home_Empty_VD" transform="translate(-761.000000, -297.000000)">
            <g id="Group" transform="translate(288.000000, 210.000000)">
                <g id="Group-14" transform="translate(371.000000, 87.000000)">
                    <g id="Group-13">
                        <g id="Group-20">
                            <g id="Group-16">
                                <g id="Group-9" transform="translate(102.000000, 0.000000)">
                                    <g id="Group-21">
                                        <path d="M2.01767727,89.368932 C0.903919417,89.368932 0,88.3913835 0,87.184466 C0,85.9775485 0.903919417,85 2.01767727,85 L75.3642814,85 C76.4790481,85 77.3819587,85.9775485 77.3819587,87.184466 C77.3819587,88.3913835 76.4790481,89.368932 75.3642814,89.368932 L2.01767727,89.368932 Z" id="Fill-7" fill="#D9D9D9"></path>
                                        <path d="M71.5568168,85.3786408 L71.5568168,20.9148848 L52.9827161,2 L6,2 L6,85.3786408 L71.5568168,85.3786408 Z M73.5568168,87.3786408 L4,87.3786408 L4,2.15866362e-13 L53.821813,0 L73.5568168,20.0970874 L73.5568168,87.3786408 Z" id="Fill-9" fill="#777777" fill-rule="nonzero"></path>
                                        <polygon id="Stroke-13" fill="#609AFF" points="54 0 54 20 73.7735781 20"></polygon>
                                    </g>
                                    <g id="Group-2" transform="translate(54.645453, 57.669903)">
                                        <path d="M9.04238619,9.96116505 L2.00679857,9.96116505 C0.898474323,9.96116505 0,10.8588518 0,11.9673196 L0,12.4986999 C0,13.6066684 0.900076922,14.5048544 2.00679857,14.5048544 L9.04238619,14.5048544 L9.04238619,21.5979692 C9.04238619,22.6993707 9.93562845,23.592233 11.038608,23.592233 L11.5673574,23.592233 C12.6698403,23.592233 13.5635793,22.6876776 13.5635793,21.5979692 L13.5635793,14.5048544 L20.5991669,14.5048544 C21.7074911,14.5048544 22.6059655,13.6071676 22.6059655,12.4986999 L22.6059655,11.9673196 C22.6059655,10.859351 21.7058885,9.96116505 20.5991669,9.96116505 L13.5635793,9.96116505 L13.5635793,2.86805022 C13.5635793,1.76664873 12.670337,0.873786408 11.5673574,0.873786408 L11.038608,0.873786408 C9.93612515,0.873786408 9.04238619,1.77834187 9.04238619,2.86805022 L9.04238619,9.96116505 Z" id="Combined-Shape-Copy" fill="#CCCCCC" style="mix-blend-mode: multiply;" opacity="0.5"></path>
                                        <path d="M9.9118464,9.08737864 L2.87625878,9.08737864 C1.76793453,9.08737864 0.86946021,9.98506544 0.86946021,11.0935332 L0.86946021,11.6249134 C0.86946021,12.732882 1.76953713,13.631068 2.87625878,13.631068 L9.9118464,13.631068 L9.9118464,20.7241828 C9.9118464,21.8255843 10.8050887,22.7184466 11.9080683,22.7184466 L12.4368176,22.7184466 C13.5393005,22.7184466 14.4330395,21.8138911 14.4330395,20.7241828 L14.4330395,13.631068 L21.4686271,13.631068 C22.5769513,13.631068 23.4754257,12.7333812 23.4754257,11.6249134 L23.4754257,11.0935332 C23.4754257,9.98556461 22.5753488,9.08737864 21.4686271,9.08737864 L14.4330395,9.08737864 L14.4330395,1.99426381 C14.4330395,0.89286232 13.5397972,0 12.4368176,0 L11.9080683,0 C10.8055854,0 9.9118464,0.90455546 9.9118464,1.99426381 L9.9118464,9.08737864 Z" id="Combined-Shape" fill="#4186EC"></path>
                                    </g>
                                </g>
                            </g>
                        </g>
                    </g>
                </g>
            </g>
        </g>
    </g>
</svg>
