<svg width="33" height="29" viewBox="0 0 33 29" fill="none" xmlns="http://www.w3.org/2000/svg">
<path d="M22.34 0.5H11.6816L21.9072 17.8402H32.5658L22.34 0.5Z" fill="white"/>
<path d="M32.5654 19.0574H12.2497L6.97461 28.1469H27.2904L32.5654 19.0574Z" fill="white"/>
<path d="M16.0591 10.3281L10.6487 1.21143L0.400391 18.5708L5.81081 27.6875L16.0591 10.3281Z" fill="white"/>
</svg>
