<svg width="23" height="19" viewBox="0 0 23 19" fill="none" xmlns="http://www.w3.org/2000/svg">
<path d="M2.28953 0.964844C1.38397 0.964844 0.632812 1.76271 0.632812 2.72457V16.8028C0.632812 17.7646 1.38397 18.5625 2.28953 18.5625H20.7505C21.6561 18.5625 22.4072 17.7646 22.4072 16.8028V2.72457C22.4072 1.76271 21.6561 0.964844 20.7505 0.964844H2.28953ZM2.28953 2.47331H20.7505C20.894 2.47331 20.9873 2.57239 20.9873 2.72478V12.7178L17.4075 9.67737C17.1733 9.47606 16.8142 9.4594 16.5644 9.63809L13.2066 12.0893L8.65048 8.16913C8.5052 8.04339 8.31171 7.98272 8.12531 8.00411C8.00858 8.01919 7.89566 8.06549 7.79991 8.13774L2.05282 12.3483V2.72432C2.05282 2.57194 2.1461 2.47285 2.28957 2.47285L2.28953 2.47331ZM13.1768 4.48453C12.0087 4.48453 11.0468 5.50654 11.0468 6.747C11.0468 7.98769 12.0089 9.00948 13.1768 9.00948C14.3448 9.00948 15.3068 7.98747 15.3068 6.747C15.3068 5.50632 14.3446 4.48453 13.1768 4.48453ZM13.1768 5.993C13.5773 5.993 13.8869 6.3218 13.8869 6.74723C13.8869 7.17266 13.5773 7.50146 13.1768 7.50146C12.7763 7.50146 12.4667 7.17266 12.4667 6.74723C12.4667 6.3218 12.7763 5.993 13.1768 5.993ZM8.17693 9.70118L12.733 13.6134C12.9673 13.8148 13.3264 13.8314 13.5761 13.6527L16.9265 11.2015L20.987 14.6503V16.8029C20.987 16.9551 20.8938 17.0543 20.7503 17.0543H2.28929C2.14582 17.0543 2.05254 16.9553 2.05254 16.8029V14.1869L8.17693 9.70118Z" fill="white"/>
</svg>
