<svg width="984" height="393" viewBox="0 0 984 393" fill="none" xmlns="http://www.w3.org/2000/svg">
<path d="M4.61207 343.393C3.86207 343.393 3.21207 343.258 2.66207 342.988C2.11207 342.718 1.69207 342.368 1.40207 341.938C1.11207 341.498 0.95707 341.028 0.93707 340.528V340.498C0.93707 340.418 0.96707 340.353 1.02707 340.303C1.08707 340.253 1.15707 340.228 1.23707 340.228H1.97207C2.18207 340.228 2.31707 340.338 2.37707 340.558C2.52707 341.098 2.80207 341.503 3.20207 341.773C3.61207 342.033 4.08207 342.163 4.61207 342.163C5.29207 342.163 5.85707 341.958 6.30707 341.548C6.75707 341.128 6.98207 340.553 6.98207 339.823C6.98207 339.153 6.75707 338.623 6.30707 338.233C5.85707 337.833 5.29207 337.633 4.61207 337.633C4.25207 337.633 3.96207 337.678 3.74207 337.768C3.52207 337.858 3.29707 337.988 3.06707 338.158C2.93707 338.258 2.82707 338.333 2.73707 338.383C2.65707 338.423 2.56707 338.443 2.46707 338.443H1.74707C1.65707 338.443 1.57707 338.413 1.50707 338.353C1.43707 338.283 1.40707 338.203 1.41707 338.113L1.88207 333.118C1.91207 332.868 2.03707 332.743 2.25707 332.743H7.44707C7.55707 332.743 7.64207 332.773 7.70207 332.833C7.76207 332.893 7.79207 332.978 7.79207 333.088V333.643C7.79207 333.743 7.75707 333.823 7.68707 333.883C7.62707 333.943 7.54707 333.973 7.44707 333.973H3.12707L2.85707 336.988C3.33707 336.648 3.98207 336.478 4.79207 336.478C5.46207 336.478 6.07207 336.613 6.62207 336.883C7.17207 337.143 7.60707 337.528 7.92707 338.038C8.25707 338.548 8.42207 339.153 8.42207 339.853C8.42207 340.593 8.25707 341.233 7.92707 341.773C7.60707 342.303 7.15707 342.708 6.57707 342.988C6.00707 343.258 5.35207 343.393 4.61207 343.393ZM14.164 343.393C12.874 343.393 11.929 343.018 11.329 342.268C10.739 341.508 10.424 340.518 10.384 339.298L10.369 338.008L10.384 336.673C10.414 335.463 10.729 334.483 11.329 333.733C11.939 332.973 12.884 332.593 14.164 332.593C15.454 332.593 16.399 332.973 16.999 333.733C17.609 334.483 17.929 335.463 17.959 336.673C17.969 336.953 17.974 337.398 17.974 338.008C17.974 338.598 17.969 339.028 17.959 339.298C17.919 340.518 17.599 341.508 16.999 342.268C16.409 343.018 15.464 343.393 14.164 343.393ZM14.164 342.148C14.934 342.148 15.514 341.893 15.904 341.383C16.294 340.873 16.499 340.153 16.519 339.223C16.529 338.933 16.534 338.518 16.534 337.978C16.534 337.428 16.529 337.018 16.519 336.748C16.499 335.828 16.289 335.113 15.889 334.603C15.499 334.083 14.924 333.823 14.164 333.823C13.404 333.823 12.829 334.083 12.439 334.603C12.049 335.113 11.844 335.828 11.824 336.748L11.809 337.978L11.824 339.223C11.844 340.153 12.049 340.873 12.439 341.383C12.829 341.893 13.404 342.148 14.164 342.148Z" fill="#656668"/>
<path d="M4.38707 282.721C4.28707 282.721 4.20707 282.691 4.14707 282.631C4.08707 282.561 4.05707 282.476 4.05707 282.376V273.916L1.53707 275.851C1.46707 275.911 1.39207 275.941 1.31207 275.941C1.22207 275.941 1.13707 275.891 1.05707 275.791L0.69707 275.326C0.64707 275.256 0.62207 275.186 0.62207 275.116C0.62207 275.006 0.67207 274.916 0.77207 274.846L4.02707 272.326C4.13707 272.256 4.26707 272.221 4.41707 272.221H5.12207C5.22207 272.221 5.30207 272.256 5.36207 272.326C5.43207 272.386 5.46707 272.466 5.46707 272.566V282.376C5.46707 282.476 5.43207 282.561 5.36207 282.631C5.30207 282.691 5.22207 282.721 5.12207 282.721H4.38707ZM11.6591 282.871C10.3691 282.871 9.42414 282.496 8.82414 281.746C8.23414 280.986 7.91914 279.996 7.87914 278.776L7.86414 277.486L7.87914 276.151C7.90914 274.941 8.22414 273.961 8.82414 273.211C9.43414 272.451 10.3791 272.071 11.6591 272.071C12.9491 272.071 13.8941 272.451 14.4941 273.211C15.1041 273.961 15.4241 274.941 15.4541 276.151C15.4641 276.431 15.4691 276.876 15.4691 277.486C15.4691 278.076 15.4641 278.506 15.4541 278.776C15.4141 279.996 15.0941 280.986 14.4941 281.746C13.9041 282.496 12.9591 282.871 11.6591 282.871ZM11.6591 281.626C12.4291 281.626 13.0091 281.371 13.3991 280.861C13.7891 280.351 13.9941 279.631 14.0141 278.701C14.0241 278.411 14.0291 277.996 14.0291 277.456C14.0291 276.906 14.0241 276.496 14.0141 276.226C13.9941 275.306 13.7841 274.591 13.3841 274.081C12.9941 273.561 12.4191 273.301 11.6591 273.301C10.8991 273.301 10.3241 273.561 9.93414 274.081C9.54414 274.591 9.33914 275.306 9.31914 276.226L9.30414 277.456L9.31914 278.701C9.33914 279.631 9.54414 280.351 9.93414 280.861C10.3241 281.371 10.8991 281.626 11.6591 281.626ZM21.4513 282.871C20.1613 282.871 19.2163 282.496 18.6163 281.746C18.0263 280.986 17.7113 279.996 17.6713 278.776L17.6563 277.486L17.6713 276.151C17.7013 274.941 18.0163 273.961 18.6163 273.211C19.2263 272.451 20.1713 272.071 21.4513 272.071C22.7413 272.071 23.6863 272.451 24.2863 273.211C24.8963 273.961 25.2163 274.941 25.2463 276.151C25.2563 276.431 25.2613 276.876 25.2613 277.486C25.2613 278.076 25.2563 278.506 25.2463 278.776C25.2063 279.996 24.8863 280.986 24.2863 281.746C23.6963 282.496 22.7513 282.871 21.4513 282.871ZM21.4513 281.626C22.2213 281.626 22.8013 281.371 23.1913 280.861C23.5813 280.351 23.7863 279.631 23.8063 278.701C23.8163 278.411 23.8213 277.996 23.8213 277.456C23.8213 276.906 23.8163 276.496 23.8063 276.226C23.7863 275.306 23.5763 274.591 23.1763 274.081C22.7863 273.561 22.2113 273.301 21.4513 273.301C20.6913 273.301 20.1163 273.561 19.7263 274.081C19.3363 274.591 19.1313 275.306 19.1113 276.226L19.0963 277.456L19.1113 278.701C19.1313 279.631 19.3363 280.351 19.7263 280.861C20.1163 281.371 20.6913 281.626 21.4513 281.626Z" fill="#656668"/>
<path d="M1.32707 215.903C1.22707 215.903 1.14207 215.873 1.07207 215.813C1.01207 215.743 0.98207 215.658 0.98207 215.558V215.108C0.98207 214.878 1.10707 214.658 1.35707 214.448L4.62707 211.193C5.36707 210.563 5.87707 210.048 6.15707 209.648C6.43707 209.248 6.57707 208.823 6.57707 208.373C6.57707 207.783 6.41207 207.323 6.08207 206.993C5.75207 206.653 5.27207 206.483 4.64207 206.483C4.04207 206.483 3.56707 206.658 3.21707 207.008C2.86707 207.358 2.65207 207.828 2.57207 208.418C2.55207 208.528 2.50207 208.613 2.42207 208.673C2.34207 208.733 2.26207 208.763 2.18207 208.763H1.46207C1.37207 208.763 1.29707 208.733 1.23707 208.673C1.17707 208.613 1.14707 208.543 1.14707 208.463C1.16707 207.933 1.30707 207.423 1.56707 206.933C1.83707 206.433 2.23207 206.028 2.75207 205.718C3.27207 205.398 3.90207 205.238 4.64207 205.238C5.76207 205.238 6.60207 205.533 7.16207 206.123C7.73207 206.703 8.01707 207.443 8.01707 208.343C8.01707 208.973 7.86207 209.543 7.55207 210.053C7.25207 210.553 6.77707 211.083 6.12707 211.643L3.17207 214.643H7.89707C8.00707 214.643 8.09207 214.673 8.15207 214.733C8.21207 214.793 8.24207 214.878 8.24207 214.988V215.558C8.24207 215.658 8.20707 215.743 8.13707 215.813C8.07707 215.873 7.99707 215.903 7.89707 215.903H1.32707ZM14.0468 216.053C12.7568 216.053 11.8118 215.678 11.2118 214.928C10.6218 214.168 10.3068 213.178 10.2668 211.958L10.2518 210.668L10.2668 209.333C10.2968 208.123 10.6118 207.143 11.2118 206.393C11.8218 205.633 12.7668 205.253 14.0468 205.253C15.3368 205.253 16.2818 205.633 16.8818 206.393C17.4918 207.143 17.8118 208.123 17.8418 209.333C17.8518 209.613 17.8568 210.058 17.8568 210.668C17.8568 211.258 17.8518 211.688 17.8418 211.958C17.8018 213.178 17.4818 214.168 16.8818 214.928C16.2918 215.678 15.3468 216.053 14.0468 216.053ZM14.0468 214.808C14.8168 214.808 15.3968 214.553 15.7868 214.043C16.1768 213.533 16.3818 212.813 16.4018 211.883C16.4118 211.593 16.4168 211.178 16.4168 210.638C16.4168 210.088 16.4118 209.678 16.4018 209.408C16.3818 208.488 16.1718 207.773 15.7718 207.263C15.3818 206.743 14.8068 206.483 14.0468 206.483C13.2868 206.483 12.7118 206.743 12.3218 207.263C11.9318 207.773 11.7268 208.488 11.7068 209.408L11.6918 210.638L11.7068 211.883C11.7268 212.813 11.9318 213.533 12.3218 214.043C12.7118 214.553 13.2868 214.808 14.0468 214.808ZM23.839 216.053C22.549 216.053 21.604 215.678 21.004 214.928C20.414 214.168 20.099 213.178 20.059 211.958L20.044 210.668L20.059 209.333C20.089 208.123 20.404 207.143 21.004 206.393C21.614 205.633 22.559 205.253 23.839 205.253C25.129 205.253 26.074 205.633 26.674 206.393C27.284 207.143 27.604 208.123 27.634 209.333C27.644 209.613 27.649 210.058 27.649 210.668C27.649 211.258 27.644 211.688 27.634 211.958C27.594 213.178 27.274 214.168 26.674 214.928C26.084 215.678 25.139 216.053 23.839 216.053ZM23.839 214.808C24.609 214.808 25.189 214.553 25.579 214.043C25.969 213.533 26.174 212.813 26.194 211.883C26.204 211.593 26.209 211.178 26.209 210.638C26.209 210.088 26.204 209.678 26.194 209.408C26.174 208.488 25.964 207.773 25.564 207.263C25.174 206.743 24.599 206.483 23.839 206.483C23.079 206.483 22.504 206.743 22.114 207.263C21.724 207.773 21.519 208.488 21.499 209.408L21.484 210.638L21.499 211.883C21.519 212.813 21.724 213.533 22.114 214.043C22.504 214.553 23.079 214.808 23.839 214.808Z" fill="#656668"/>
<path d="M6.27707 151.014C6.17707 151.014 6.09207 150.984 6.02207 150.924C5.96207 150.854 5.93207 150.769 5.93207 150.669V148.479H1.05707C0.95707 148.479 0.87207 148.449 0.80207 148.389C0.74207 148.319 0.71207 148.234 0.71207 148.134V147.579C0.71207 147.439 0.76707 147.289 0.87707 147.129L5.39207 140.769C5.44207 140.689 5.51707 140.629 5.61707 140.589C5.71707 140.539 5.82707 140.514 5.94707 140.514H6.96707C7.07707 140.514 7.16207 140.544 7.22207 140.604C7.28207 140.664 7.31207 140.749 7.31207 140.859V147.219H8.67707C8.77707 147.219 8.85707 147.254 8.91707 147.324C8.98707 147.384 9.02207 147.464 9.02207 147.564V148.134C9.02207 148.234 8.98707 148.319 8.91707 148.389C8.85707 148.449 8.77707 148.479 8.67707 148.479H7.31207V150.669C7.31207 150.769 7.27707 150.854 7.20707 150.924C7.14707 150.984 7.06707 151.014 6.96707 151.014H6.27707ZM2.27207 147.249H5.94707V142.029L2.27207 147.249ZM14.5595 151.164C13.2695 151.164 12.3245 150.789 11.7245 150.039C11.1345 149.279 10.8195 148.289 10.7795 147.069L10.7645 145.779L10.7795 144.444C10.8095 143.234 11.1245 142.254 11.7245 141.504C12.3345 140.744 13.2795 140.364 14.5595 140.364C15.8495 140.364 16.7945 140.744 17.3945 141.504C18.0045 142.254 18.3245 143.234 18.3545 144.444C18.3645 144.724 18.3695 145.169 18.3695 145.779C18.3695 146.369 18.3645 146.799 18.3545 147.069C18.3145 148.289 17.9945 149.279 17.3945 150.039C16.8045 150.789 15.8595 151.164 14.5595 151.164ZM14.5595 149.919C15.3295 149.919 15.9095 149.664 16.2995 149.154C16.6895 148.644 16.8945 147.924 16.9145 146.994C16.9245 146.704 16.9295 146.289 16.9295 145.749C16.9295 145.199 16.9245 144.789 16.9145 144.519C16.8945 143.599 16.6845 142.884 16.2845 142.374C15.8945 141.854 15.3195 141.594 14.5595 141.594C13.7995 141.594 13.2245 141.854 12.8345 142.374C12.4445 142.884 12.2395 143.599 12.2195 144.519L12.2045 145.749L12.2195 146.994C12.2395 147.924 12.4445 148.644 12.8345 149.154C13.2245 149.664 13.7995 149.919 14.5595 149.919ZM24.3517 151.164C23.0617 151.164 22.1167 150.789 21.5167 150.039C20.9267 149.279 20.6117 148.289 20.5717 147.069L20.5567 145.779L20.5717 144.444C20.6017 143.234 20.9167 142.254 21.5167 141.504C22.1267 140.744 23.0717 140.364 24.3517 140.364C25.6417 140.364 26.5867 140.744 27.1867 141.504C27.7967 142.254 28.1167 143.234 28.1467 144.444C28.1567 144.724 28.1617 145.169 28.1617 145.779C28.1617 146.369 28.1567 146.799 28.1467 147.069C28.1067 148.289 27.7867 149.279 27.1867 150.039C26.5967 150.789 25.6517 151.164 24.3517 151.164ZM24.3517 149.919C25.1217 149.919 25.7017 149.664 26.0917 149.154C26.4817 148.644 26.6867 147.924 26.7067 146.994C26.7167 146.704 26.7217 146.289 26.7217 145.749C26.7217 145.199 26.7167 144.789 26.7067 144.519C26.6867 143.599 26.4767 142.884 26.0767 142.374C25.6867 141.854 25.1117 141.594 24.3517 141.594C23.5917 141.594 23.0167 141.854 22.6267 142.374C22.2367 142.884 22.0317 143.599 22.0117 144.519L21.9967 145.749L22.0117 146.994C22.0317 147.924 22.2367 148.644 22.6267 149.154C23.0167 149.664 23.5917 149.919 24.3517 149.919Z" fill="#656668"/>
<path d="M4.85207 80.9615C4.05207 80.9615 3.35707 80.8015 2.76707 80.4815C2.18707 80.1515 1.74207 79.7115 1.43207 79.1615C1.13207 78.6115 0.98207 78.0115 0.98207 77.3615C0.98207 76.5015 1.32707 75.5815 2.01707 74.6015L4.88207 70.6115C4.89207 70.6015 4.91707 70.5665 4.95707 70.5065C5.00707 70.4465 5.06707 70.4015 5.13707 70.3715C5.20707 70.3315 5.28707 70.3115 5.37707 70.3115H6.11207C6.20207 70.3115 6.27207 70.3465 6.32207 70.4165C6.38207 70.4765 6.41207 70.5515 6.41207 70.6415C6.41207 70.6915 6.38707 70.7565 6.33707 70.8365L4.14707 73.8965C4.40707 73.8365 4.69707 73.8065 5.01707 73.8065C5.74707 73.8065 6.38707 73.9715 6.93707 74.3015C7.49707 74.6215 7.92707 75.0515 8.22707 75.5915C8.53707 76.1215 8.69207 76.7065 8.69207 77.3465C8.69207 77.9865 8.53707 78.5865 8.22707 79.1465C7.92707 79.6965 7.48707 80.1365 6.90707 80.4665C6.32707 80.7965 5.64207 80.9615 4.85207 80.9615ZM4.83707 79.7165C5.27707 79.7165 5.68207 79.6265 6.05207 79.4465C6.42207 79.2665 6.71707 79.0015 6.93707 78.6515C7.15707 78.2915 7.26707 77.8615 7.26707 77.3615C7.26707 76.8715 7.15207 76.4515 6.92207 76.1015C6.70207 75.7415 6.40707 75.4715 6.03707 75.2915C5.66707 75.1015 5.26707 75.0065 4.83707 75.0065C4.40707 75.0065 4.00707 75.1015 3.63707 75.2915C3.26707 75.4715 2.97207 75.7415 2.75207 76.1015C2.53207 76.4515 2.42207 76.8715 2.42207 77.3615C2.42207 77.8615 2.53207 78.2915 2.75207 78.6515C2.97207 79.0015 3.26707 79.2665 3.63707 79.4465C4.00707 79.6265 4.40707 79.7165 4.83707 79.7165ZM14.2812 80.9615C12.9912 80.9615 12.0462 80.5865 11.4462 79.8365C10.8562 79.0765 10.5412 78.0865 10.5012 76.8665L10.4862 75.5765L10.5012 74.2415C10.5312 73.0315 10.8462 72.0515 11.4462 71.3015C12.0562 70.5415 13.0012 70.1615 14.2812 70.1615C15.5712 70.1615 16.5162 70.5415 17.1162 71.3015C17.7262 72.0515 18.0462 73.0315 18.0762 74.2415C18.0862 74.5215 18.0912 74.9665 18.0912 75.5765C18.0912 76.1665 18.0862 76.5965 18.0762 76.8665C18.0362 78.0865 17.7162 79.0765 17.1162 79.8365C16.5262 80.5865 15.5812 80.9615 14.2812 80.9615ZM14.2812 79.7165C15.0512 79.7165 15.6312 79.4615 16.0212 78.9515C16.4112 78.4415 16.6162 77.7215 16.6362 76.7915C16.6462 76.5015 16.6512 76.0865 16.6512 75.5465C16.6512 74.9965 16.6462 74.5865 16.6362 74.3165C16.6162 73.3965 16.4062 72.6815 16.0062 72.1715C15.6162 71.6515 15.0412 71.3915 14.2812 71.3915C13.5212 71.3915 12.9462 71.6515 12.5562 72.1715C12.1662 72.6815 11.9612 73.3965 11.9412 74.3165L11.9262 75.5465L11.9412 76.7915C11.9612 77.7215 12.1662 78.4415 12.5562 78.9515C12.9462 79.4615 13.5212 79.7165 14.2812 79.7165ZM24.0734 80.9615C22.7834 80.9615 21.8384 80.5865 21.2384 79.8365C20.6484 79.0765 20.3334 78.0865 20.2934 76.8665L20.2784 75.5765L20.2934 74.2415C20.3234 73.0315 20.6384 72.0515 21.2384 71.3015C21.8484 70.5415 22.7934 70.1615 24.0734 70.1615C25.3634 70.1615 26.3084 70.5415 26.9084 71.3015C27.5184 72.0515 27.8384 73.0315 27.8684 74.2415C27.8784 74.5215 27.8834 74.9665 27.8834 75.5765C27.8834 76.1665 27.8784 76.5965 27.8684 76.8665C27.8284 78.0865 27.5084 79.0765 26.9084 79.8365C26.3184 80.5865 25.3734 80.9615 24.0734 80.9615ZM24.0734 79.7165C24.8434 79.7165 25.4234 79.4615 25.8134 78.9515C26.2034 78.4415 26.4084 77.7215 26.4284 76.7915C26.4384 76.5015 26.4434 76.0865 26.4434 75.5465C26.4434 74.9965 26.4384 74.5865 26.4284 74.3165C26.4084 73.3965 26.1984 72.6815 25.7984 72.1715C25.4084 71.6515 24.8334 71.3915 24.0734 71.3915C23.3134 71.3915 22.7384 71.6515 22.3484 72.1715C21.9584 72.6815 21.7534 73.3965 21.7334 74.3165L21.7184 75.5465L21.7334 76.7915C21.7534 77.7215 21.9584 78.4415 22.3484 78.9515C22.7384 79.4615 23.3134 79.7165 24.0734 79.7165Z" fill="#656668"/>
<path d="M5.00207 14.3766C4.24207 14.3766 3.56207 14.2516 2.96207 14.0016C2.37207 13.7416 1.91207 13.3716 1.58207 12.8916C1.25207 12.4116 1.08707 11.8516 1.08707 11.2116C1.08707 10.6216 1.23207 10.1066 1.52207 9.66656C1.82207 9.21656 2.22207 8.87156 2.72207 8.63156C2.32207 8.40156 2.01207 8.10156 1.79207 7.73156C1.57207 7.35156 1.46207 6.90656 1.46207 6.39656C1.46207 5.52656 1.78707 4.84156 2.43707 4.34156C3.08707 3.83156 3.94207 3.57656 5.00207 3.57656C6.06207 3.57656 6.91207 3.82656 7.55207 4.32656C8.20207 4.82656 8.52707 5.51656 8.52707 6.39656C8.52707 6.89656 8.41707 7.33656 8.19707 7.71656C7.97707 8.08656 7.67207 8.39156 7.28207 8.63156C7.78207 8.87156 8.17707 9.21656 8.46707 9.66656C8.76707 10.1066 8.91707 10.6266 8.91707 11.2266C8.91707 11.8666 8.75207 12.4266 8.42207 12.9066C8.09207 13.3766 7.62707 13.7416 7.02707 14.0016C6.43707 14.2516 5.76207 14.3766 5.00207 14.3766ZM5.00207 8.10656C5.61207 8.08656 6.12707 7.92656 6.54707 7.62656C6.96707 7.32656 7.17707 6.92656 7.17707 6.42656C7.17707 5.91656 6.96707 5.51156 6.54707 5.21156C6.13707 4.90156 5.62207 4.74656 5.00207 4.74656C4.37207 4.74656 3.85207 4.90156 3.44207 5.21156C3.03207 5.51156 2.82707 5.91656 2.82707 6.42656C2.82707 6.93656 3.03207 7.34656 3.44207 7.65656C3.85207 7.95656 4.37207 8.10656 5.00207 8.10656ZM5.00207 13.2066C5.71207 13.2066 6.30207 13.0266 6.77207 12.6666C7.25207 12.3066 7.49207 11.8266 7.49207 11.2266C7.49207 10.6266 7.25207 10.1466 6.77207 9.78656C6.30207 9.42656 5.71207 9.24656 5.00207 9.24656C4.28207 9.24656 3.68207 9.42656 3.20207 9.78656C2.73207 10.1466 2.49707 10.6266 2.49707 11.2266C2.49707 11.8266 2.73207 12.3066 3.20207 12.6666C3.68207 13.0266 4.28207 13.2066 5.00207 13.2066ZM14.7939 14.3766C13.5039 14.3766 12.5589 14.0016 11.9589 13.2516C11.3689 12.4916 11.0539 11.5016 11.0139 10.2816L10.9989 8.99156L11.0139 7.65656C11.0439 6.44656 11.3589 5.46656 11.9589 4.71656C12.5689 3.95656 13.5139 3.57656 14.7939 3.57656C16.0839 3.57656 17.0289 3.95656 17.6289 4.71656C18.2389 5.46656 18.5589 6.44656 18.5889 7.65656C18.5989 7.93656 18.6039 8.38156 18.6039 8.99156C18.6039 9.58156 18.5989 10.0116 18.5889 10.2816C18.5489 11.5016 18.2289 12.4916 17.6289 13.2516C17.0389 14.0016 16.0939 14.3766 14.7939 14.3766ZM14.7939 13.1316C15.5639 13.1316 16.1439 12.8766 16.5339 12.3666C16.9239 11.8566 17.1289 11.1366 17.1489 10.2066C17.1589 9.91656 17.1639 9.50156 17.1639 8.96156C17.1639 8.41156 17.1589 8.00156 17.1489 7.73156C17.1289 6.81156 16.9189 6.09656 16.5189 5.58656C16.1289 5.06656 15.5539 4.80656 14.7939 4.80656C14.0339 4.80656 13.4589 5.06656 13.0689 5.58656C12.6789 6.09656 12.4739 6.81156 12.4539 7.73156L12.4389 8.96156L12.4539 10.2066C12.4739 11.1366 12.6789 11.8566 13.0689 12.3666C13.4589 12.8766 14.0339 13.1316 14.7939 13.1316ZM24.5861 14.3766C23.2961 14.3766 22.3511 14.0016 21.7511 13.2516C21.1611 12.4916 20.8461 11.5016 20.8061 10.2816L20.7911 8.99156L20.8061 7.65656C20.8361 6.44656 21.1511 5.46656 21.7511 4.71656C22.3611 3.95656 23.3061 3.57656 24.5861 3.57656C25.8761 3.57656 26.8211 3.95656 27.4211 4.71656C28.0311 5.46656 28.3511 6.44656 28.3811 7.65656C28.3911 7.93656 28.3961 8.38156 28.3961 8.99156C28.3961 9.58156 28.3911 10.0116 28.3811 10.2816C28.3411 11.5016 28.0211 12.4916 27.4211 13.2516C26.8311 14.0016 25.8861 14.3766 24.5861 14.3766ZM24.5861 13.1316C25.3561 13.1316 25.9361 12.8766 26.3261 12.3666C26.7161 11.8566 26.9211 11.1366 26.9411 10.2066C26.9511 9.91656 26.9561 9.50156 26.9561 8.96156C26.9561 8.41156 26.9511 8.00156 26.9411 7.73156C26.9211 6.81156 26.7111 6.09656 26.3111 5.58656C25.9211 5.06656 25.3461 4.80656 24.5861 4.80656C23.8261 4.80656 23.2511 5.06656 22.8611 5.58656C22.4711 6.09656 22.2661 6.81156 22.2461 7.73156L22.2311 8.96156L22.2461 10.2066C22.2661 11.1366 22.4711 11.8566 22.8611 12.3666C23.2511 12.8766 23.8261 13.1316 24.5861 13.1316Z" fill="#656668"/>
<path d="M50.9439 389.188C50.8439 389.188 50.7639 389.158 50.7039 389.098C50.6439 389.028 50.6139 388.943 50.6139 388.843V379.048C50.6139 378.938 50.6439 378.853 50.7039 378.793C50.7639 378.723 50.8439 378.688 50.9439 378.688H51.6039C51.7039 378.688 51.7789 378.708 51.8289 378.748C51.8789 378.788 51.9289 378.838 51.9789 378.898L57.0039 386.638V379.048C57.0039 378.938 57.0339 378.853 57.0939 378.793C57.1639 378.723 57.2489 378.688 57.3489 378.688H58.0239C58.1339 378.688 58.2189 378.723 58.2789 378.793C58.3489 378.853 58.3839 378.938 58.3839 379.048V388.828C58.3839 388.928 58.3489 389.013 58.2789 389.083C58.2189 389.153 58.1389 389.188 58.0389 389.188H57.3639C57.1939 389.188 57.0739 389.118 57.0039 388.978L51.9789 381.313V388.843C51.9789 388.943 51.9439 389.028 51.8739 389.098C51.8139 389.158 51.7339 389.188 51.6339 389.188H50.9439ZM65.6643 389.338C64.3643 389.338 63.3593 388.998 62.6493 388.318C61.9393 387.628 61.5643 386.593 61.5243 385.213C61.5143 384.913 61.5093 384.488 61.5093 383.938C61.5093 383.388 61.5143 382.968 61.5243 382.678C61.5643 381.318 61.9493 380.288 62.6793 379.588C63.4193 378.888 64.4143 378.538 65.6643 378.538C66.9143 378.538 67.9043 378.888 68.6343 379.588C69.3643 380.288 69.7493 381.318 69.7893 382.678C69.8093 383.258 69.8193 383.678 69.8193 383.938C69.8193 384.188 69.8093 384.613 69.7893 385.213C69.7493 386.593 69.3743 387.628 68.6643 388.318C67.9643 388.998 66.9643 389.338 65.6643 389.338ZM65.6643 388.093C66.4643 388.093 67.1043 387.853 67.5843 387.373C68.0643 386.883 68.3243 386.138 68.3643 385.138C68.3843 384.538 68.3943 384.138 68.3943 383.938C68.3943 383.718 68.3843 383.318 68.3643 382.738C68.3243 381.738 68.0643 380.993 67.5843 380.503C67.1043 380.013 66.4643 379.768 65.6643 379.768C64.8643 379.768 64.2193 380.013 63.7293 380.503C63.2493 380.993 62.9943 381.738 62.9643 382.738C62.9543 383.028 62.9493 383.428 62.9493 383.938C62.9493 384.438 62.9543 384.838 62.9643 385.138C62.9943 386.138 63.2493 386.883 63.7293 387.373C64.2093 387.853 64.8543 388.093 65.6643 388.093ZM72.7324 389.188C72.6324 389.188 72.5474 389.158 72.4774 389.098C72.4174 389.028 72.3874 388.943 72.3874 388.843V387.808C72.3874 387.708 72.4174 387.623 72.4774 387.553C72.5474 387.483 72.6324 387.448 72.7324 387.448H73.7674C73.8674 387.448 73.9474 387.483 74.0074 387.553C74.0774 387.623 74.1124 387.708 74.1124 387.808V388.843C74.1124 388.943 74.0774 389.028 74.0074 389.098C73.9474 389.158 73.8674 389.188 73.7674 389.188H72.7324ZM80.8384 389.338C79.5384 389.338 78.5334 388.998 77.8234 388.318C77.1134 387.628 76.7384 386.593 76.6984 385.213C76.6884 384.913 76.6834 384.488 76.6834 383.938C76.6834 383.388 76.6884 382.968 76.6984 382.678C76.7384 381.318 77.1234 380.288 77.8534 379.588C78.5934 378.888 79.5884 378.538 80.8384 378.538C82.0884 378.538 83.0784 378.888 83.8084 379.588C84.5384 380.288 84.9234 381.318 84.9634 382.678C84.9834 383.258 84.9934 383.678 84.9934 383.938C84.9934 384.188 84.9834 384.613 84.9634 385.213C84.9234 386.593 84.5484 387.628 83.8384 388.318C83.1384 388.998 82.1384 389.338 80.8384 389.338ZM80.8384 388.093C81.6384 388.093 82.2784 387.853 82.7584 387.373C83.2384 386.883 83.4984 386.138 83.5384 385.138C83.5584 384.538 83.5684 384.138 83.5684 383.938C83.5684 383.718 83.5584 383.318 83.5384 382.738C83.4984 381.738 83.2384 380.993 82.7584 380.503C82.2784 380.013 81.6384 379.768 80.8384 379.768C80.0384 379.768 79.3934 380.013 78.9034 380.503C78.4234 380.993 78.1684 381.738 78.1384 382.738C78.1284 383.028 78.1234 383.428 78.1234 383.938C78.1234 384.438 78.1284 384.838 78.1384 385.138C78.1684 386.138 78.4234 386.883 78.9034 387.373C79.3834 387.853 80.0284 388.093 80.8384 388.093ZM88.4404 389.188C88.3404 389.188 88.2604 389.158 88.2004 389.098C88.1404 389.028 88.1104 388.943 88.1104 388.843V379.048C88.1104 378.938 88.1404 378.853 88.2004 378.793C88.2604 378.723 88.3404 378.688 88.4404 378.688H94.5304C94.6404 378.688 94.7254 378.723 94.7854 378.793C94.8554 378.853 94.8904 378.938 94.8904 379.048V379.603C94.8904 379.703 94.8554 379.788 94.7854 379.858C94.7254 379.918 94.6404 379.948 94.5304 379.948H89.5054V383.503H94.2304C94.3404 383.503 94.4254 383.538 94.4854 383.608C94.5554 383.668 94.5904 383.748 94.5904 383.848V384.418C94.5904 384.518 94.5554 384.603 94.4854 384.673C94.4154 384.733 94.3304 384.763 94.2304 384.763H89.5054V388.843C89.5054 388.943 89.4704 389.028 89.4004 389.098C89.3304 389.158 89.2454 389.188 89.1454 389.188H88.4404ZM102.443 389.188C102.343 389.188 102.263 389.158 102.203 389.098C102.143 389.028 102.113 388.943 102.113 388.843V379.048C102.113 378.938 102.143 378.853 102.203 378.793C102.263 378.723 102.343 378.688 102.443 378.688H105.833C107.343 378.688 108.433 379.028 109.103 379.708C109.773 380.378 110.118 381.393 110.138 382.753C110.148 383.043 110.153 383.433 110.153 383.923C110.153 384.413 110.148 384.808 110.138 385.108C110.118 386.058 109.963 386.833 109.673 387.433C109.393 388.023 108.948 388.463 108.338 388.753C107.728 389.043 106.918 389.188 105.908 389.188H102.443ZM105.833 387.943C106.533 387.943 107.088 387.848 107.498 387.658C107.918 387.458 108.218 387.153 108.398 386.743C108.588 386.323 108.693 385.758 108.713 385.048C108.733 384.448 108.743 384.073 108.743 383.923C108.743 383.763 108.733 383.393 108.713 382.813C108.693 381.813 108.453 381.083 107.993 380.623C107.543 380.153 106.798 379.918 105.758 379.918H103.523V387.943H105.833ZM117.09 389.338C115.79 389.338 114.785 388.998 114.075 388.318C113.365 387.628 112.99 386.593 112.95 385.213C112.94 384.913 112.935 384.488 112.935 383.938C112.935 383.388 112.94 382.968 112.95 382.678C112.99 381.318 113.375 380.288 114.105 379.588C114.845 378.888 115.84 378.538 117.09 378.538C118.34 378.538 119.33 378.888 120.06 379.588C120.79 380.288 121.175 381.318 121.215 382.678C121.235 383.258 121.245 383.678 121.245 383.938C121.245 384.188 121.235 384.613 121.215 385.213C121.175 386.593 120.8 387.628 120.09 388.318C119.39 388.998 118.39 389.338 117.09 389.338ZM117.09 388.093C117.89 388.093 118.53 387.853 119.01 387.373C119.49 386.883 119.75 386.138 119.79 385.138C119.81 384.538 119.82 384.138 119.82 383.938C119.82 383.718 119.81 383.318 119.79 382.738C119.75 381.738 119.49 380.993 119.01 380.503C118.53 380.013 117.89 379.768 117.09 379.768C116.29 379.768 115.645 380.013 115.155 380.503C114.675 380.993 114.42 381.738 114.39 382.738C114.38 383.028 114.375 383.428 114.375 383.938C114.375 384.438 114.38 384.838 114.39 385.138C114.42 386.138 114.675 386.883 115.155 387.373C115.635 387.853 116.28 388.093 117.09 388.093ZM128.112 389.338C126.782 389.338 125.767 388.978 125.067 388.258C124.377 387.528 124.007 386.533 123.957 385.273C123.947 385.003 123.942 384.563 123.942 383.953C123.942 383.333 123.947 382.883 123.957 382.603C124.007 381.343 124.377 380.353 125.067 379.633C125.767 378.903 126.782 378.538 128.112 378.538C129.002 378.538 129.757 378.698 130.377 379.018C130.997 379.328 131.462 379.738 131.772 380.248C132.092 380.758 132.267 381.303 132.297 381.883C132.297 381.973 132.262 382.048 132.192 382.108C132.132 382.158 132.057 382.183 131.967 382.183H131.217C131.117 382.183 131.037 382.158 130.977 382.108C130.917 382.058 130.872 381.973 130.842 381.853C130.672 381.083 130.362 380.543 129.912 380.233C129.472 379.923 128.872 379.768 128.112 379.768C126.372 379.768 125.467 380.738 125.397 382.678C125.387 382.948 125.382 383.363 125.382 383.923C125.382 384.483 125.387 384.908 125.397 385.198C125.467 387.128 126.372 388.093 128.112 388.093C128.862 388.093 129.462 387.938 129.912 387.628C130.362 387.318 130.672 386.783 130.842 386.023C130.872 385.903 130.917 385.818 130.977 385.768C131.037 385.718 131.117 385.693 131.217 385.693H131.967C132.057 385.693 132.132 385.723 132.192 385.783C132.262 385.833 132.297 385.903 132.297 385.993C132.267 386.573 132.092 387.118 131.772 387.628C131.462 388.138 130.997 388.553 130.377 388.873C129.757 389.183 129.002 389.338 128.112 389.338ZM139.182 389.338C137.892 389.338 136.897 388.993 136.197 388.303C135.497 387.603 135.147 386.548 135.147 385.138V379.048C135.147 378.938 135.177 378.853 135.237 378.793C135.297 378.723 135.377 378.688 135.477 378.688H136.197C136.307 378.688 136.392 378.723 136.452 378.793C136.522 378.853 136.557 378.938 136.557 379.048V385.168C136.557 386.148 136.782 386.878 137.232 387.358C137.692 387.838 138.342 388.078 139.182 388.078C140.012 388.078 140.652 387.838 141.102 387.358C141.562 386.868 141.792 386.138 141.792 385.168V379.048C141.792 378.938 141.822 378.853 141.882 378.793C141.942 378.723 142.027 378.688 142.137 378.688H142.857C142.957 378.688 143.037 378.723 143.097 378.793C143.167 378.853 143.202 378.938 143.202 379.048V385.138C143.202 386.548 142.852 387.603 142.152 388.303C141.462 388.993 140.472 389.338 139.182 389.338ZM146.985 389.188C146.885 389.188 146.8 389.158 146.73 389.098C146.67 389.028 146.64 388.943 146.64 388.843V379.048C146.64 378.938 146.67 378.853 146.73 378.793C146.79 378.723 146.875 378.688 146.985 378.688H147.69C147.87 378.688 147.995 378.763 148.065 378.913L151.26 385.048L154.485 378.913C154.565 378.763 154.685 378.688 154.845 378.688H155.55C155.66 378.688 155.745 378.723 155.805 378.793C155.865 378.853 155.895 378.938 155.895 379.048V388.843C155.895 388.943 155.86 389.028 155.79 389.098C155.73 389.158 155.65 389.188 155.55 389.188H154.86C154.76 389.188 154.68 389.158 154.62 389.098C154.56 389.028 154.53 388.943 154.53 388.843V381.388L151.965 386.353C151.865 386.563 151.705 386.668 151.485 386.668H151.035C150.825 386.668 150.665 386.563 150.555 386.353L148.005 381.388V388.843C148.005 388.943 147.97 389.028 147.9 389.098C147.84 389.158 147.76 389.188 147.66 389.188H146.985ZM159.765 389.188C159.665 389.188 159.585 389.158 159.525 389.098C159.465 389.028 159.435 388.943 159.435 388.843V379.048C159.435 378.938 159.465 378.853 159.525 378.793C159.585 378.723 159.665 378.688 159.765 378.688H165.93C166.04 378.688 166.125 378.723 166.185 378.793C166.255 378.853 166.29 378.938 166.29 379.048V379.588C166.29 379.688 166.255 379.768 166.185 379.828C166.125 379.888 166.04 379.918 165.93 379.918H160.815V383.263H165.6C165.71 383.263 165.795 383.298 165.855 383.368C165.925 383.428 165.96 383.513 165.96 383.623V384.133C165.96 384.233 165.925 384.318 165.855 384.388C165.795 384.448 165.71 384.478 165.6 384.478H160.815V387.943H166.05C166.16 387.943 166.245 387.978 166.305 388.048C166.375 388.108 166.41 388.193 166.41 388.303V388.843C166.41 388.943 166.375 389.028 166.305 389.098C166.235 389.158 166.15 389.188 166.05 389.188H159.765ZM169.747 389.188C169.647 389.188 169.567 389.158 169.507 389.098C169.447 389.028 169.417 388.943 169.417 388.843V379.048C169.417 378.938 169.447 378.853 169.507 378.793C169.567 378.723 169.647 378.688 169.747 378.688H170.407C170.507 378.688 170.582 378.708 170.632 378.748C170.682 378.788 170.732 378.838 170.782 378.898L175.807 386.638V379.048C175.807 378.938 175.837 378.853 175.897 378.793C175.967 378.723 176.052 378.688 176.152 378.688H176.827C176.937 378.688 177.022 378.723 177.082 378.793C177.152 378.853 177.187 378.938 177.187 379.048V388.828C177.187 388.928 177.152 389.013 177.082 389.083C177.022 389.153 176.942 389.188 176.842 389.188H176.167C175.997 389.188 175.877 389.118 175.807 388.978L170.782 381.313V388.843C170.782 388.943 170.747 389.028 170.677 389.098C170.617 389.158 170.537 389.188 170.437 389.188H169.747ZM183.357 389.188C183.257 389.188 183.172 389.158 183.102 389.098C183.042 389.028 183.012 388.943 183.012 388.843V379.978H180.117C180.017 379.978 179.932 379.948 179.862 379.888C179.802 379.818 179.772 379.733 179.772 379.633V379.048C179.772 378.938 179.802 378.853 179.862 378.793C179.932 378.723 180.017 378.688 180.117 378.688H187.317C187.427 378.688 187.512 378.723 187.572 378.793C187.632 378.853 187.662 378.938 187.662 379.048V379.633C187.662 379.733 187.627 379.818 187.557 379.888C187.497 379.948 187.417 379.978 187.317 379.978H184.437V388.843C184.437 388.943 184.402 389.028 184.332 389.098C184.262 389.158 184.177 389.188 184.077 389.188H183.357ZM194.815 389.188C194.715 389.188 194.635 389.158 194.575 389.098C194.515 389.028 194.485 388.943 194.485 388.843V379.048C194.485 378.938 194.515 378.853 194.575 378.793C194.635 378.723 194.715 378.688 194.815 378.688H198.61C199.74 378.688 200.625 378.963 201.265 379.513C201.915 380.053 202.24 380.843 202.24 381.883C202.24 382.923 201.915 383.713 201.265 384.253C200.625 384.793 199.74 385.063 198.61 385.063H195.91V388.843C195.91 388.943 195.875 389.028 195.805 389.098C195.745 389.158 195.665 389.188 195.565 389.188H194.815ZM198.535 383.848C200.045 383.848 200.8 383.193 200.8 381.883C200.8 381.243 200.61 380.753 200.23 380.413C199.86 380.073 199.295 379.903 198.535 379.903H195.91V383.848H198.535ZM205.324 389.188C205.224 389.188 205.144 389.158 205.084 389.098C205.024 389.028 204.994 388.943 204.994 388.843V379.048C204.994 378.938 205.024 378.853 205.084 378.793C205.144 378.723 205.224 378.688 205.324 378.688H208.984C210.124 378.688 211.014 378.958 211.654 379.498C212.304 380.028 212.629 380.803 212.629 381.823C212.629 382.583 212.439 383.208 212.059 383.698C211.679 384.188 211.149 384.528 210.469 384.718L212.779 388.723C212.809 388.783 212.824 388.838 212.824 388.888C212.824 388.968 212.794 389.038 212.734 389.098C212.674 389.158 212.604 389.188 212.524 389.188H211.864C211.714 389.188 211.594 389.153 211.504 389.083C211.424 389.013 211.349 388.913 211.279 388.783L209.074 384.943H206.404V388.843C206.404 388.943 206.369 389.028 206.299 389.098C206.229 389.158 206.144 389.188 206.044 389.188H205.324ZM208.924 383.713C210.434 383.713 211.189 383.078 211.189 381.808C211.189 380.538 210.434 379.903 208.924 379.903H206.404V383.713H208.924ZM219.444 389.338C218.144 389.338 217.139 388.998 216.429 388.318C215.719 387.628 215.344 386.593 215.304 385.213C215.294 384.913 215.289 384.488 215.289 383.938C215.289 383.388 215.294 382.968 215.304 382.678C215.344 381.318 215.729 380.288 216.459 379.588C217.199 378.888 218.194 378.538 219.444 378.538C220.694 378.538 221.684 378.888 222.414 379.588C223.144 380.288 223.529 381.318 223.569 382.678C223.589 383.258 223.599 383.678 223.599 383.938C223.599 384.188 223.589 384.613 223.569 385.213C223.529 386.593 223.154 387.628 222.444 388.318C221.744 388.998 220.744 389.338 219.444 389.338ZM219.444 388.093C220.244 388.093 220.884 387.853 221.364 387.373C221.844 386.883 222.104 386.138 222.144 385.138C222.164 384.538 222.174 384.138 222.174 383.938C222.174 383.718 222.164 383.318 222.144 382.738C222.104 381.738 221.844 380.993 221.364 380.503C220.884 380.013 220.244 379.768 219.444 379.768C218.644 379.768 217.999 380.013 217.509 380.503C217.029 380.993 216.774 381.738 216.744 382.738C216.734 383.028 216.729 383.428 216.729 383.938C216.729 384.438 216.734 384.838 216.744 385.138C216.774 386.138 217.029 386.883 217.509 387.373C217.989 387.853 218.634 388.093 219.444 388.093ZM230.466 389.338C229.136 389.338 228.121 388.978 227.421 388.258C226.731 387.528 226.361 386.533 226.311 385.273C226.301 385.003 226.296 384.563 226.296 383.953C226.296 383.333 226.301 382.883 226.311 382.603C226.361 381.343 226.731 380.353 227.421 379.633C228.121 378.903 229.136 378.538 230.466 378.538C231.356 378.538 232.111 378.698 232.731 379.018C233.351 379.328 233.816 379.738 234.126 380.248C234.446 380.758 234.621 381.303 234.651 381.883C234.651 381.973 234.616 382.048 234.546 382.108C234.486 382.158 234.411 382.183 234.321 382.183H233.571C233.471 382.183 233.391 382.158 233.331 382.108C233.271 382.058 233.226 381.973 233.196 381.853C233.026 381.083 232.716 380.543 232.266 380.233C231.826 379.923 231.226 379.768 230.466 379.768C228.726 379.768 227.821 380.738 227.751 382.678C227.741 382.948 227.736 383.363 227.736 383.923C227.736 384.483 227.741 384.908 227.751 385.198C227.821 387.128 228.726 388.093 230.466 388.093C231.216 388.093 231.816 387.938 232.266 387.628C232.716 387.318 233.026 386.783 233.196 386.023C233.226 385.903 233.271 385.818 233.331 385.768C233.391 385.718 233.471 385.693 233.571 385.693H234.321C234.411 385.693 234.486 385.723 234.546 385.783C234.616 385.833 234.651 385.903 234.651 385.993C234.621 386.573 234.446 387.118 234.126 387.628C233.816 388.138 233.351 388.553 232.731 388.873C232.111 389.183 231.356 389.338 230.466 389.338ZM237.922 389.188C237.822 389.188 237.742 389.158 237.682 389.098C237.622 389.028 237.592 388.943 237.592 388.843V379.048C237.592 378.938 237.622 378.853 237.682 378.793C237.742 378.723 237.822 378.688 237.922 378.688H244.087C244.197 378.688 244.282 378.723 244.342 378.793C244.412 378.853 244.447 378.938 244.447 379.048V379.588C244.447 379.688 244.412 379.768 244.342 379.828C244.282 379.888 244.197 379.918 244.087 379.918H238.972V383.263H243.757C243.867 383.263 243.952 383.298 244.012 383.368C244.082 383.428 244.117 383.513 244.117 383.623V384.133C244.117 384.233 244.082 384.318 244.012 384.388C243.952 384.448 243.867 384.478 243.757 384.478H238.972V387.943H244.207C244.317 387.943 244.402 387.978 244.462 388.048C244.532 388.108 244.567 388.193 244.567 388.303V388.843C244.567 388.943 244.532 389.028 244.462 389.098C244.392 389.158 244.307 389.188 244.207 389.188H237.922ZM250.919 389.338C250.099 389.338 249.384 389.208 248.774 388.948C248.174 388.688 247.714 388.348 247.394 387.928C247.084 387.498 246.919 387.038 246.899 386.548C246.899 386.468 246.929 386.398 246.989 386.338C247.049 386.278 247.124 386.248 247.214 386.248H247.949C248.129 386.248 248.254 386.348 248.324 386.548C248.414 386.968 248.669 387.333 249.089 387.643C249.519 387.943 250.129 388.093 250.919 388.093C251.769 388.093 252.404 387.943 252.824 387.643C253.244 387.343 253.454 386.928 253.454 386.398C253.454 386.058 253.349 385.778 253.139 385.558C252.939 385.338 252.634 385.148 252.224 384.988C251.824 384.818 251.219 384.613 250.409 384.373C249.639 384.153 249.024 383.918 248.564 383.668C248.114 383.418 247.774 383.113 247.544 382.753C247.314 382.383 247.199 381.918 247.199 381.358C247.199 380.818 247.344 380.338 247.634 379.918C247.924 379.488 248.344 379.153 248.894 378.913C249.444 378.663 250.094 378.538 250.844 378.538C251.624 378.538 252.289 378.678 252.839 378.958C253.399 379.228 253.824 379.573 254.114 379.993C254.404 380.403 254.559 380.818 254.579 381.238C254.579 381.328 254.549 381.403 254.489 381.463C254.429 381.523 254.354 381.553 254.264 381.553H253.514C253.434 381.553 253.359 381.528 253.289 381.478C253.219 381.428 253.169 381.353 253.139 381.253C253.079 380.823 252.839 380.468 252.419 380.188C251.999 379.908 251.474 379.768 250.844 379.768C250.164 379.768 249.624 379.903 249.224 380.173C248.824 380.433 248.624 380.823 248.624 381.343C248.624 381.693 248.714 381.978 248.894 382.198C249.084 382.418 249.369 382.613 249.749 382.783C250.139 382.953 250.704 383.148 251.444 383.368C252.294 383.608 252.959 383.848 253.439 384.088C253.929 384.328 254.294 384.628 254.534 384.988C254.774 385.338 254.894 385.793 254.894 386.353C254.894 387.293 254.534 388.028 253.814 388.558C253.104 389.078 252.139 389.338 250.919 389.338ZM261.121 389.338C260.301 389.338 259.586 389.208 258.976 388.948C258.376 388.688 257.916 388.348 257.596 387.928C257.286 387.498 257.121 387.038 257.101 386.548C257.101 386.468 257.131 386.398 257.191 386.338C257.251 386.278 257.326 386.248 257.416 386.248H258.151C258.331 386.248 258.456 386.348 258.526 386.548C258.616 386.968 258.871 387.333 259.291 387.643C259.721 387.943 260.331 388.093 261.121 388.093C261.971 388.093 262.606 387.943 263.026 387.643C263.446 387.343 263.656 386.928 263.656 386.398C263.656 386.058 263.551 385.778 263.341 385.558C263.141 385.338 262.836 385.148 262.426 384.988C262.026 384.818 261.421 384.613 260.611 384.373C259.841 384.153 259.226 383.918 258.766 383.668C258.316 383.418 257.976 383.113 257.746 382.753C257.516 382.383 257.401 381.918 257.401 381.358C257.401 380.818 257.546 380.338 257.836 379.918C258.126 379.488 258.546 379.153 259.096 378.913C259.646 378.663 260.296 378.538 261.046 378.538C261.826 378.538 262.491 378.678 263.041 378.958C263.601 379.228 264.026 379.573 264.316 379.993C264.606 380.403 264.761 380.818 264.781 381.238C264.781 381.328 264.751 381.403 264.691 381.463C264.631 381.523 264.556 381.553 264.466 381.553H263.716C263.636 381.553 263.561 381.528 263.491 381.478C263.421 381.428 263.371 381.353 263.341 381.253C263.281 380.823 263.041 380.468 262.621 380.188C262.201 379.908 261.676 379.768 261.046 379.768C260.366 379.768 259.826 379.903 259.426 380.173C259.026 380.433 258.826 380.823 258.826 381.343C258.826 381.693 258.916 381.978 259.096 382.198C259.286 382.418 259.571 382.613 259.951 382.783C260.341 382.953 260.906 383.148 261.646 383.368C262.496 383.608 263.161 383.848 263.641 384.088C264.131 384.328 264.496 384.628 264.736 384.988C264.976 385.338 265.096 385.793 265.096 386.353C265.096 387.293 264.736 388.028 264.016 388.558C263.306 389.078 262.341 389.338 261.121 389.338Z" fill="#7E7E7E"/>
<path fill-rule="evenodd" clip-rule="evenodd" d="M48.4411 4.58301L48.4411 344.776H49.4411L49.4411 4.58301H48.4411ZM48.4395 345.777L979 345.777V344.777L48.4395 344.777V345.777Z" fill="#D5D5D5"/>
<path d="M49 341.841L118.569 338.216L180.042 320.554L261.02 305.68L301 266.871H362L407.807 222.346L451 231.246L512.666 209.785L568.626 158.19L683.212 104.561L765.447 115.766L767.127 114.715L828.442 41.6671L897.125 54.5556L976.931 16.0967L979 344.775H49V341.841Z" fill="url(#paint0_linear_370_3)" fill-opacity="0.46"/>
<path opacity="0.7" d="M49.6338 339.974L116.763 331.418L169.423 305.472L236.505 294.614L277.656 229.453L327.142 232.708L377.404 229.453L465.072 179.821L526.238 185.391L587.405 183.821L645.34 171.604L700.999 143.448H788.257L837.797 96.7324L911.07 117.606L979.34 111.728V346.477H49.6338V339.974Z" fill="url(#paint1_linear_370_3)" fill-opacity="0.37"/>
<path d="M49.5273 339.376L116.107 330.977L168.552 305.164L235.747 294.511L256.642 261.631L277.538 228.751L326.936 231.914L377.101 228.751L464.372 179.584L525.541 184.689L587.288 183.067L644.296 170.902L700.167 142.71H788.052L837.628 96.2051L908.571 116.184L978.778 110.955" stroke="#5392FF" stroke-width="1.4"/>
<path d="M115.892 334.492C117.905 334.492 119.538 332.859 119.538 330.846C119.538 328.832 117.905 327.199 115.892 327.199C113.878 327.199 112.245 328.832 112.245 330.846C112.245 332.859 113.878 334.492 115.892 334.492Z" fill="white" stroke="#015CF2" stroke-miterlimit="10"/>
<path d="M168.951 309.053C170.965 309.053 172.597 307.42 172.597 305.406C172.597 303.392 170.965 301.76 168.951 301.76C166.937 301.76 165.305 303.392 165.305 305.406C165.305 307.42 166.937 309.053 168.951 309.053Z" fill="white" stroke="#015CF2" stroke-miterlimit="10"/>
<path d="M235.458 297.786C237.472 297.786 239.104 296.153 239.104 294.14C239.104 292.126 237.472 290.493 235.458 290.493C233.444 290.493 231.812 292.126 231.812 294.14C231.812 296.153 233.444 297.786 235.458 297.786Z" fill="white" stroke="#015CF2" stroke-miterlimit="10"/>
<path d="M277.615 233.21C279.629 233.21 281.262 231.577 281.262 229.563C281.262 227.55 279.629 225.917 277.615 225.917C275.601 225.917 273.969 227.55 273.969 229.563C273.969 231.577 275.601 233.21 277.615 233.21Z" fill="white" stroke="#015CF2" stroke-miterlimit="10"/>
<path d="M326.933 235.908C328.946 235.908 330.579 234.275 330.579 232.262C330.579 230.248 328.946 228.615 326.933 228.615C324.919 228.615 323.286 230.248 323.286 232.262C323.286 234.275 324.919 235.908 326.933 235.908Z" fill="white" stroke="#015CF2" stroke-miterlimit="10"/>
<path d="M376.25 232.262C378.264 232.262 379.896 230.629 379.896 228.615C379.896 226.601 378.264 224.969 376.25 224.969C374.236 224.969 372.604 226.601 372.604 228.615C372.604 230.629 374.236 232.262 376.25 232.262Z" fill="white" stroke="#015CF2" stroke-miterlimit="10"/>
<path d="M464.744 182.935C466.758 182.935 468.39 181.303 468.39 179.289C468.39 177.275 466.758 175.643 464.744 175.643C462.73 175.643 461.098 177.275 461.098 179.289C461.098 181.303 462.73 182.935 464.744 182.935Z" fill="white" stroke="#015CF2" stroke-miterlimit="10"/>
<path d="M587.037 186.582C589.051 186.582 590.683 184.949 590.683 182.935C590.683 180.922 589.051 179.289 587.037 179.289C585.023 179.289 583.391 180.922 583.391 182.935C583.391 184.949 585.023 186.582 587.037 186.582Z" fill="white" stroke="#015CF2" stroke-miterlimit="10"/>
<path d="M525.458 188.19C527.472 188.19 529.104 186.558 529.104 184.544C529.104 182.53 527.472 180.897 525.458 180.897C523.444 180.897 521.812 182.53 521.812 184.544C521.812 186.558 523.444 188.19 525.458 188.19Z" fill="white" stroke="#015CF2" stroke-miterlimit="10"/>
<path d="M700.495 146.226C702.509 146.226 704.141 144.594 704.141 142.58C704.141 140.566 702.509 138.934 700.495 138.934C698.481 138.934 696.849 140.566 696.849 142.58C696.849 144.594 698.481 146.226 700.495 146.226Z" fill="white" stroke="#015CF2" stroke-miterlimit="10"/>
<path d="M642.857 174.726C644.871 174.726 646.504 173.094 646.504 171.08C646.504 169.066 644.871 167.434 642.857 167.434C640.843 167.434 639.211 169.066 639.211 171.08C639.211 173.094 640.843 174.726 642.857 174.726Z" fill="white" stroke="#015CF2" stroke-miterlimit="10"/>
<path d="M787.285 146.226C789.299 146.226 790.931 144.594 790.931 142.58C790.931 140.566 789.299 138.934 787.285 138.934C785.271 138.934 783.639 140.566 783.639 142.58C783.639 144.594 785.271 146.226 787.285 146.226Z" fill="white" stroke="#015CF2" stroke-miterlimit="10"/>
<path d="M838.367 99.8514C840.381 99.8514 842.013 98.2189 842.013 96.205C842.013 94.1912 840.381 92.5586 838.367 92.5586C836.353 92.5586 834.721 94.1912 834.721 96.205C834.721 98.2189 836.353 99.8514 838.367 99.8514Z" fill="white" stroke="#015CF2" stroke-miterlimit="10"/>
<path d="M979 114.752C981.014 114.752 982.646 113.119 982.646 111.105C982.646 109.092 981.014 107.459 979 107.459C976.986 107.459 975.354 109.092 975.354 111.105C975.354 113.119 976.986 114.752 979 114.752Z" fill="white" stroke="#015CF2" stroke-miterlimit="10"/>
<path d="M49.0107 342.844L117.576 339.052L179.507 320.093L261.976 306.19L301.156 266.695H361.823L407.639 223.406L451.875 231.937L512.226 210.767L568.785 157.684L683.483 104.601L765.635 116.607L827.566 42.6698L897.125 55.2778L977.111 15.7363" stroke="#48DC72" stroke-width="1.4"/>
<path d="M976.815 19.743C978.829 19.743 980.462 18.1105 980.462 16.0966C980.462 14.0828 978.829 12.4502 976.815 12.4502C974.801 12.4502 973.169 14.0828 973.169 16.0966C973.169 18.1105 974.801 19.743 976.815 19.743Z" fill="white" stroke="#48DC72" stroke-miterlimit="10"/>
<path d="M897.163 58.6844C899.177 58.6844 900.809 57.0519 900.809 55.038C900.809 53.0242 899.177 51.3916 897.163 51.3916C895.149 51.3916 893.517 53.0242 893.517 55.038C893.517 57.0519 895.149 58.6844 897.163 58.6844Z" fill="white" stroke="#48DC72" stroke-miterlimit="10"/>
<path d="M828.905 46.3709C830.919 46.3709 832.552 44.7384 832.552 42.7245C832.552 40.7107 830.919 39.0781 828.905 39.0781C826.891 39.0781 825.259 40.7107 825.259 42.7245C825.259 44.7384 826.891 46.3709 828.905 46.3709Z" fill="white" stroke="#48DC72" stroke-miterlimit="10"/>
<path d="M765.405 118.398C767.419 118.398 769.052 116.766 769.052 114.752C769.052 112.738 767.419 111.105 765.405 111.105C763.391 111.105 761.759 112.738 761.759 114.752C761.759 116.766 763.391 118.398 765.405 118.398Z" fill="white" stroke="#48DC72" stroke-miterlimit="10"/>
<path d="M684.801 108.398C686.815 108.398 688.447 106.766 688.447 104.752C688.447 102.738 686.815 101.105 684.801 101.105C682.787 101.105 681.154 102.738 681.154 104.752C681.154 106.766 682.787 108.398 684.801 108.398Z" fill="white" stroke="#48DC72" stroke-miterlimit="10"/>
<path d="M568.551 161.398C570.565 161.398 572.197 159.766 572.197 157.752C572.197 155.738 570.565 154.105 568.551 154.105C566.537 154.105 564.904 155.738 564.904 157.752C564.904 159.766 566.537 161.398 568.551 161.398Z" fill="white" stroke="#48DC72" stroke-miterlimit="10"/>
<path d="M513.5 213.398C515.514 213.398 517.146 211.766 517.146 209.752C517.146 207.738 515.514 206.105 513.5 206.105C511.486 206.105 509.854 207.738 509.854 209.752C509.854 211.766 511.486 213.398 513.5 213.398Z" fill="white" stroke="#48DC72" stroke-miterlimit="10"/>
<path d="M408.473 226.527C410.486 226.527 412.119 224.895 412.119 222.881C412.119 220.867 410.486 219.234 408.473 219.234C406.459 219.234 404.826 220.867 404.826 222.881C404.826 224.895 406.459 226.527 408.473 226.527Z" fill="white" stroke="#48DC72" stroke-miterlimit="10"/>
<path d="M362.559 269.644C364.572 269.644 366.205 268.012 366.205 265.998C366.205 263.984 364.572 262.352 362.559 262.352C360.545 262.352 358.912 263.984 358.912 265.998C358.912 268.012 360.545 269.644 362.559 269.644Z" fill="white" stroke="#48DC72" stroke-miterlimit="10"/>
<path d="M302.184 269.644C304.197 269.644 305.83 268.012 305.83 265.998C305.83 263.984 304.197 262.352 302.184 262.352C300.17 262.352 298.537 263.984 298.537 265.998C298.537 268.012 300.17 269.644 302.184 269.644Z" fill="white" stroke="#48DC72" stroke-miterlimit="10"/>
<path d="M262.059 308.894C264.072 308.894 265.705 307.262 265.705 305.248C265.705 303.234 264.072 301.602 262.059 301.602C260.045 301.602 258.412 303.234 258.412 305.248C258.412 307.262 260.045 308.894 262.059 308.894Z" fill="white" stroke="#48DC72" stroke-miterlimit="10"/>
<path d="M180.559 323.269C182.572 323.269 184.205 321.637 184.205 319.623C184.205 317.609 182.572 315.977 180.559 315.977C178.545 315.977 176.912 317.609 176.912 319.623C176.912 321.637 178.545 323.269 180.559 323.269Z" fill="white" stroke="#48DC72" stroke-miterlimit="10"/>
<path d="M118.297 341.785C120.311 341.785 121.943 340.152 121.943 338.139C121.943 336.125 120.311 334.492 118.297 334.492C116.283 334.492 114.65 336.125 114.65 338.139C114.65 340.152 116.283 341.785 118.297 341.785Z" fill="white" stroke="#48DC72" stroke-miterlimit="10"/>
<path d="M451.839 235.1C453.853 235.1 455.485 233.468 455.485 231.454C455.485 229.44 453.853 227.808 451.839 227.808C449.825 227.808 448.192 229.44 448.192 231.454C448.192 233.468 449.825 235.1 451.839 235.1Z" fill="white" stroke="#48DC72" stroke-miterlimit="10"/>
<path d="M157.998 44.2461C157.898 44.2461 157.818 44.2161 157.758 44.1561C157.698 44.0861 157.668 44.0011 157.668 43.9011V34.1061C157.668 33.9961 157.698 33.9111 157.758 33.8511C157.818 33.7811 157.898 33.7461 157.998 33.7461H161.388C162.898 33.7461 163.988 34.0861 164.658 34.7661C165.328 35.4361 165.673 36.4511 165.693 37.8111C165.703 38.1011 165.708 38.4911 165.708 38.9811C165.708 39.4711 165.703 39.8661 165.693 40.1661C165.673 41.1161 165.518 41.8911 165.228 42.4911C164.948 43.0811 164.503 43.5211 163.893 43.8111C163.283 44.1011 162.473 44.2461 161.463 44.2461H157.998ZM161.388 43.0011C162.088 43.0011 162.643 42.9061 163.053 42.7161C163.473 42.5161 163.773 42.2111 163.953 41.8011C164.143 41.3811 164.248 40.8161 164.268 40.1061C164.288 39.5061 164.298 39.1311 164.298 38.9811C164.298 38.8211 164.288 38.4511 164.268 37.8711C164.248 36.8711 164.008 36.1411 163.548 35.6811C163.098 35.2111 162.353 34.9761 161.313 34.9761H159.078V43.0011H161.388ZM171.49 44.3961C170.47 44.3961 169.655 44.0811 169.045 43.4511C168.435 42.8111 168.1 41.9411 168.04 40.8411L168.025 40.3311L168.04 39.8361C168.1 38.7561 168.435 37.8961 169.045 37.2561C169.655 36.6161 170.47 36.2961 171.49 36.2961C172.59 36.2961 173.44 36.6461 174.04 37.3461C174.65 38.0461 174.955 38.9961 174.955 40.1961V40.4661C174.955 40.5661 174.92 40.6511 174.85 40.7211C174.79 40.7811 174.71 40.8111 174.61 40.8111H169.405V40.9461C169.435 41.5961 169.635 42.1511 170.005 42.6111C170.375 43.0711 170.865 43.3011 171.475 43.3011C171.945 43.3011 172.325 43.2111 172.615 43.0311C172.915 42.8411 173.14 42.6461 173.29 42.4461C173.38 42.3261 173.45 42.2561 173.5 42.2361C173.55 42.2061 173.635 42.1911 173.755 42.1911H174.415C174.505 42.1911 174.58 42.2161 174.64 42.2661C174.71 42.3161 174.745 42.3811 174.745 42.4611C174.745 42.6811 174.61 42.9461 174.34 43.2561C174.07 43.5661 173.685 43.8361 173.185 44.0661C172.695 44.2861 172.13 44.3961 171.49 44.3961ZM173.59 39.7911V39.7461C173.59 39.0461 173.4 38.4761 173.02 38.0361C172.64 37.5961 172.13 37.3761 171.49 37.3761C170.84 37.3761 170.33 37.5961 169.96 38.0361C169.59 38.4761 169.405 39.0461 169.405 39.7461V39.7911H173.59ZM180.499 44.3961C179.429 44.3961 178.594 44.0961 177.994 43.4961C177.394 42.8861 177.079 42.0361 177.049 40.9461L177.034 40.3461L177.049 39.7461C177.079 38.6561 177.394 37.8111 177.994 37.2111C178.594 36.6011 179.429 36.2961 180.499 36.2961C181.219 36.2961 181.824 36.4261 182.314 36.6861C182.814 36.9361 183.184 37.2511 183.424 37.6311C183.674 38.0111 183.809 38.3911 183.829 38.7711C183.839 38.8611 183.804 38.9411 183.724 39.0111C183.654 39.0811 183.574 39.1161 183.484 39.1161H182.824C182.724 39.1161 182.649 39.0961 182.599 39.0561C182.549 39.0061 182.499 38.9211 182.449 38.8011C182.269 38.3111 182.019 37.9661 181.699 37.7661C181.389 37.5561 180.994 37.4511 180.514 37.4511C179.884 37.4511 179.384 37.6461 179.014 38.0361C178.644 38.4261 178.444 39.0211 178.414 39.8211L178.399 40.3461L178.414 40.8711C178.444 41.6711 178.644 42.2661 179.014 42.6561C179.384 43.0461 179.884 43.2411 180.514 43.2411C181.004 43.2411 181.404 43.1411 181.714 42.9411C182.024 42.7311 182.269 42.3811 182.449 41.8911C182.499 41.7711 182.549 41.6911 182.599 41.6511C182.649 41.6011 182.724 41.5761 182.824 41.5761H183.484C183.574 41.5761 183.654 41.6111 183.724 41.6811C183.804 41.7511 183.839 41.8311 183.829 41.9211C183.809 42.2911 183.674 42.6661 183.424 43.0461C183.184 43.4261 182.814 43.7461 182.314 44.0061C181.824 44.2661 181.219 44.3961 180.499 44.3961ZM190.472 44.2461C190.372 44.2461 190.287 44.2161 190.217 44.1561C190.157 44.0861 190.127 44.0011 190.127 43.9011V43.4511C190.127 43.2211 190.252 43.0011 190.502 42.7911L193.772 39.5361C194.512 38.9061 195.022 38.3911 195.302 37.9911C195.582 37.5911 195.722 37.1661 195.722 36.7161C195.722 36.1261 195.557 35.6661 195.227 35.3361C194.897 34.9961 194.417 34.8261 193.787 34.8261C193.187 34.8261 192.712 35.0011 192.362 35.3511C192.012 35.7011 191.797 36.1711 191.717 36.7611C191.697 36.8711 191.647 36.9561 191.567 37.0161C191.487 37.0761 191.407 37.1061 191.327 37.1061H190.607C190.517 37.1061 190.442 37.0761 190.382 37.0161C190.322 36.9561 190.292 36.8861 190.292 36.8061C190.312 36.2761 190.452 35.7661 190.712 35.2761C190.982 34.7761 191.377 34.3711 191.897 34.0611C192.417 33.7411 193.047 33.5811 193.787 33.5811C194.907 33.5811 195.747 33.8761 196.307 34.4661C196.877 35.0461 197.162 35.7861 197.162 36.6861C197.162 37.3161 197.007 37.8861 196.697 38.3961C196.397 38.8961 195.922 39.4261 195.272 39.9861L192.317 42.9861H197.042C197.152 42.9861 197.237 43.0161 197.297 43.0761C197.357 43.1361 197.387 43.2211 197.387 43.3311V43.9011C197.387 44.0011 197.352 44.0861 197.282 44.1561C197.222 44.2161 197.142 44.2461 197.042 44.2461H190.472ZM202.892 44.2461C202.792 44.2461 202.712 44.2161 202.652 44.1561C202.592 44.0861 202.562 44.0011 202.562 43.9011V35.4411L200.042 37.3761C199.972 37.4361 199.897 37.4661 199.817 37.4661C199.727 37.4661 199.642 37.4161 199.562 37.3161L199.202 36.8511C199.152 36.7811 199.127 36.7111 199.127 36.6411C199.127 36.5311 199.177 36.4411 199.277 36.3711L202.532 33.8511C202.642 33.7811 202.772 33.7461 202.922 33.7461H203.627C203.727 33.7461 203.807 33.7811 203.867 33.8511C203.937 33.9111 203.972 33.9911 203.972 34.0911V43.9011C203.972 44.0011 203.937 44.0861 203.867 44.1561C203.807 44.2161 203.727 44.2461 203.627 44.2461H202.892Z" fill="#767676"/>
<rect x="97.2676" y="26.292" width="47.061" height="25.024" rx="3" fill="#48DC72"/>
<path d="M108.973 44.2461C108.883 44.2461 108.808 44.2161 108.748 44.1561C108.688 44.0861 108.658 44.0061 108.658 43.9161C108.658 43.8861 108.668 43.8411 108.688 43.7811L112.288 35.5461H107.593C107.493 35.5461 107.408 35.5111 107.338 35.4411C107.268 35.3711 107.233 35.2861 107.233 35.1861V34.1211C107.233 34.0111 107.263 33.9211 107.323 33.8511C107.393 33.7811 107.483 33.7461 107.593 33.7461H114.193C114.303 33.7461 114.393 33.7811 114.463 33.8511C114.533 33.9211 114.568 34.0111 114.568 34.1211V35.0661C114.568 35.2761 114.518 35.4911 114.418 35.7111L110.848 43.8861C110.788 43.9961 110.723 44.0861 110.653 44.1561C110.583 44.2161 110.488 44.2461 110.368 44.2461H108.973ZM120.192 44.3961C119.322 44.3961 118.572 44.2611 117.942 43.9911C117.322 43.7111 116.847 43.3261 116.517 42.8361C116.187 42.3461 116.022 41.7861 116.022 41.1561C116.022 40.5961 116.157 40.1011 116.427 39.6711C116.707 39.2311 117.082 38.8961 117.552 38.6661C117.182 38.4361 116.897 38.1411 116.697 37.7811C116.497 37.4111 116.397 36.9911 116.397 36.5211C116.397 35.6411 116.727 34.9361 117.387 34.4061C118.057 33.8661 118.992 33.5961 120.192 33.5961C121.392 33.5961 122.322 33.8611 122.982 34.3911C123.642 34.9211 123.972 35.6261 123.972 36.5061C123.972 36.9761 123.872 37.3961 123.672 37.7661C123.482 38.1261 123.202 38.4261 122.832 38.6661C123.312 38.8961 123.687 39.2311 123.957 39.6711C124.237 40.1011 124.377 40.6011 124.377 41.1711C124.377 41.8011 124.212 42.3611 123.882 42.8511C123.552 43.3311 123.072 43.7111 122.442 43.9911C121.812 44.2611 121.062 44.3961 120.192 44.3961ZM120.192 38.0061C120.712 37.9961 121.142 37.8661 121.482 37.6161C121.832 37.3561 122.007 37.0161 122.007 36.5961C122.007 36.1661 121.837 35.8211 121.497 35.5611C121.157 35.3011 120.722 35.1711 120.192 35.1711C119.672 35.1711 119.242 35.3011 118.902 35.5611C118.562 35.8211 118.392 36.1661 118.392 36.5961C118.392 37.0261 118.562 37.3711 118.902 37.6311C119.242 37.8811 119.672 38.0061 120.192 38.0061ZM120.192 42.8211C120.782 42.8211 121.272 42.6711 121.662 42.3711C122.062 42.0711 122.262 41.6711 122.262 41.1711C122.262 40.6711 122.062 40.2711 121.662 39.9711C121.272 39.6711 120.782 39.5211 120.192 39.5211C119.602 39.5211 119.112 39.6711 118.722 39.9711C118.332 40.2611 118.137 40.6611 118.137 41.1711C118.137 41.6711 118.332 42.0711 118.722 42.3711C119.112 42.6711 119.602 42.8211 120.192 42.8211ZM131.355 44.2461C131.255 44.2461 131.17 44.2111 131.1 44.1411C131.03 44.0711 130.995 43.9861 130.995 43.8861V41.9661H126.24C126.14 41.9661 126.055 41.9311 125.985 41.8611C125.915 41.7911 125.88 41.7061 125.88 41.6061V40.5711C125.88 40.4111 125.935 40.2611 126.045 40.1211L130.47 34.0011C130.52 33.9211 130.595 33.8611 130.695 33.8211C130.795 33.7711 130.905 33.7461 131.025 33.7461H132.675C132.785 33.7461 132.87 33.7811 132.93 33.8511C133 33.9111 133.035 33.9961 133.035 34.1061V40.1811H134.385C134.495 40.1811 134.58 40.2161 134.64 40.2861C134.71 40.3461 134.745 40.4311 134.745 40.5411V41.6061C134.745 41.7061 134.71 41.7911 134.64 41.8611C134.58 41.9311 134.495 41.9661 134.385 41.9661H133.035V43.8861C133.035 43.9861 133 44.0711 132.93 44.1411C132.87 44.2111 132.785 44.2461 132.675 44.2461H131.355ZM127.995 40.2411H131.04V35.9361L127.995 40.2411Z" fill="white"/>
<path d="M158.067 83.8346C156.977 83.8346 156.072 83.5696 155.352 83.0396C154.642 82.4996 154.267 81.7096 154.227 80.6696C154.227 80.5796 154.257 80.5046 154.317 80.4446C154.377 80.3746 154.452 80.3396 154.542 80.3396H155.307C155.527 80.3396 155.652 80.4546 155.682 80.6846C155.742 81.3346 155.992 81.8146 156.432 82.1246C156.872 82.4346 157.422 82.5896 158.082 82.5896C158.842 82.5896 159.427 82.3396 159.837 81.8396C160.257 81.3396 160.467 80.6646 160.467 79.8146V74.4446H155.112C155.012 74.4446 154.927 74.4146 154.857 74.3546C154.797 74.2846 154.767 74.1996 154.767 74.0996V73.5296C154.767 73.4296 154.797 73.3496 154.857 73.2896C154.927 73.2196 155.012 73.1846 155.112 73.1846H161.547C161.657 73.1846 161.742 73.2196 161.802 73.2896C161.872 73.3496 161.907 73.4346 161.907 73.5446V79.8446C161.907 80.6446 161.752 81.3446 161.442 81.9446C161.142 82.5446 160.702 83.0096 160.122 83.3396C159.542 83.6696 158.857 83.8346 158.067 83.8346ZM166.946 83.8346C166.456 83.8346 166.001 83.7346 165.581 83.5346C165.171 83.3346 164.841 83.0646 164.591 82.7246C164.351 82.3746 164.231 81.9896 164.231 81.5696C164.231 80.9096 164.501 80.3696 165.041 79.9496C165.581 79.5296 166.316 79.2496 167.246 79.1096L169.496 78.7946V78.3596C169.496 77.3296 168.901 76.8146 167.711 76.8146C167.251 76.8146 166.881 76.9096 166.601 77.0996C166.321 77.2796 166.116 77.4946 165.986 77.7446C165.946 77.8446 165.901 77.9146 165.851 77.9546C165.811 77.9846 165.751 77.9996 165.671 77.9996H165.086C164.996 77.9996 164.916 77.9696 164.846 77.9096C164.786 77.8396 164.756 77.7596 164.756 77.6696C164.756 77.4396 164.861 77.1746 165.071 76.8746C165.291 76.5646 165.626 76.2996 166.076 76.0796C166.526 75.8496 167.076 75.7346 167.726 75.7346C168.846 75.7346 169.646 75.9946 170.126 76.5146C170.616 77.0346 170.861 77.6846 170.861 78.4646V83.3396C170.861 83.4396 170.826 83.5246 170.756 83.5946C170.696 83.6546 170.616 83.6846 170.516 83.6846H169.856C169.756 83.6846 169.676 83.6546 169.616 83.5946C169.556 83.5246 169.526 83.4396 169.526 83.3396V82.6796C169.306 83.0096 168.986 83.2846 168.566 83.5046C168.146 83.7246 167.606 83.8346 166.946 83.8346ZM167.246 82.7396C167.906 82.7396 168.446 82.5246 168.866 82.0946C169.286 81.6646 169.496 81.0396 169.496 80.2196V79.7996L167.741 80.0546C167.021 80.1546 166.476 80.3246 166.106 80.5646C165.736 80.8046 165.551 81.1046 165.551 81.4646C165.551 81.8746 165.716 82.1896 166.046 82.4096C166.386 82.6296 166.786 82.7396 167.246 82.7396ZM173.978 83.6846C173.878 83.6846 173.793 83.6546 173.723 83.5946C173.663 83.5246 173.633 83.4396 173.633 83.3396V76.2296C173.633 76.1296 173.663 76.0496 173.723 75.9896C173.793 75.9196 173.878 75.8846 173.978 75.8846H174.623C174.733 75.8846 174.818 75.9146 174.878 75.9746C174.938 76.0346 174.968 76.1196 174.968 76.2296V76.8896C175.268 76.5196 175.613 76.2346 176.003 76.0346C176.403 75.8346 176.898 75.7346 177.488 75.7346C178.448 75.7346 179.193 76.0446 179.723 76.6646C180.253 77.2746 180.518 78.0846 180.518 79.0946V83.3396C180.518 83.4396 180.483 83.5246 180.413 83.5946C180.353 83.6546 180.273 83.6846 180.173 83.6846H179.483C179.383 83.6846 179.298 83.6546 179.228 83.5946C179.168 83.5246 179.138 83.4396 179.138 83.3396V79.1846C179.138 78.4646 178.963 77.9046 178.613 77.5046C178.263 77.1046 177.763 76.9046 177.113 76.9046C176.473 76.9046 175.963 77.1096 175.583 77.5196C175.203 77.9196 175.013 78.4746 175.013 79.1846V83.3396C175.013 83.4396 174.978 83.5246 174.908 83.5946C174.848 83.6546 174.768 83.6846 174.668 83.6846H173.978ZM187.532 83.6846C187.432 83.6846 187.347 83.6546 187.277 83.5946C187.217 83.5246 187.187 83.4396 187.187 83.3396V82.8896C187.187 82.6596 187.312 82.4396 187.562 82.2296L190.832 78.9746C191.572 78.3446 192.082 77.8296 192.362 77.4296C192.642 77.0296 192.782 76.6046 192.782 76.1546C192.782 75.5646 192.617 75.1046 192.287 74.7746C191.957 74.4346 191.477 74.2646 190.847 74.2646C190.247 74.2646 189.772 74.4396 189.422 74.7896C189.072 75.1396 188.857 75.6096 188.777 76.1996C188.757 76.3096 188.707 76.3946 188.627 76.4546C188.547 76.5146 188.467 76.5446 188.387 76.5446H187.667C187.577 76.5446 187.502 76.5146 187.442 76.4546C187.382 76.3946 187.352 76.3246 187.352 76.2446C187.372 75.7146 187.512 75.2046 187.772 74.7146C188.042 74.2146 188.437 73.8096 188.957 73.4996C189.477 73.1796 190.107 73.0196 190.847 73.0196C191.967 73.0196 192.807 73.3146 193.367 73.9046C193.937 74.4846 194.222 75.2246 194.222 76.1246C194.222 76.7546 194.067 77.3246 193.757 77.8346C193.457 78.3346 192.982 78.8646 192.332 79.4246L189.377 82.4246H194.102C194.212 82.4246 194.297 82.4546 194.357 82.5146C194.417 82.5746 194.447 82.6596 194.447 82.7696V83.3396C194.447 83.4396 194.412 83.5246 194.342 83.5946C194.282 83.6546 194.202 83.6846 194.102 83.6846H187.532ZM196.892 83.6846C196.792 83.6846 196.707 83.6546 196.637 83.5946C196.577 83.5246 196.547 83.4396 196.547 83.3396V82.8896C196.547 82.6596 196.672 82.4396 196.922 82.2296L200.192 78.9746C200.932 78.3446 201.442 77.8296 201.722 77.4296C202.002 77.0296 202.142 76.6046 202.142 76.1546C202.142 75.5646 201.977 75.1046 201.647 74.7746C201.317 74.4346 200.837 74.2646 200.207 74.2646C199.607 74.2646 199.132 74.4396 198.782 74.7896C198.432 75.1396 198.217 75.6096 198.137 76.1996C198.117 76.3096 198.067 76.3946 197.987 76.4546C197.907 76.5146 197.827 76.5446 197.747 76.5446H197.027C196.937 76.5446 196.862 76.5146 196.802 76.4546C196.742 76.3946 196.712 76.3246 196.712 76.2446C196.732 75.7146 196.872 75.2046 197.132 74.7146C197.402 74.2146 197.797 73.8096 198.317 73.4996C198.837 73.1796 199.467 73.0196 200.207 73.0196C201.327 73.0196 202.167 73.3146 202.727 73.9046C203.297 74.4846 203.582 75.2246 203.582 76.1246C203.582 76.7546 203.427 77.3246 203.117 77.8346C202.817 78.3346 202.342 78.8646 201.692 79.4246L198.737 82.4246H203.462C203.572 82.4246 203.657 82.4546 203.717 82.5146C203.777 82.5746 203.807 82.6596 203.807 82.7696V83.3396C203.807 83.4396 203.772 83.5246 203.702 83.5946C203.642 83.6546 203.562 83.6846 203.462 83.6846H196.892Z" fill="#767676"/>
<rect x="98.2686" y="65.6465" width="47.061" height="25.024" rx="3" fill="#0560FD"/>
<path d="M113.173 83.3232C112.343 83.3232 111.623 83.1832 111.013 82.9032C110.413 82.6232 109.958 82.2532 109.648 81.7932C109.338 81.3332 109.173 80.8382 109.153 80.3082V80.2782C109.153 80.1982 109.183 80.1332 109.243 80.0832C109.313 80.0232 109.388 79.9932 109.468 79.9932H110.893C111.123 79.9932 111.268 80.0932 111.328 80.2932C111.468 80.7332 111.698 81.0582 112.018 81.2682C112.348 81.4782 112.733 81.5832 113.173 81.5832C113.733 81.5832 114.193 81.4132 114.553 81.0732C114.923 80.7332 115.108 80.2632 115.108 79.6632C115.108 79.1232 114.923 78.6882 114.553 78.3582C114.193 78.0182 113.733 77.8482 113.173 77.8482C112.873 77.8482 112.628 77.8882 112.438 77.9682C112.248 78.0482 112.063 78.1582 111.883 78.2982C111.863 78.3082 111.818 78.3382 111.748 78.3882C111.678 78.4382 111.613 78.4732 111.553 78.4932C111.503 78.5132 111.448 78.5232 111.388 78.5232H109.978C109.888 78.5232 109.808 78.4932 109.738 78.4332C109.678 78.3632 109.648 78.2832 109.648 78.1932L110.158 73.0782C110.168 72.9482 110.213 72.8482 110.293 72.7782C110.383 72.6982 110.488 72.6582 110.608 72.6582H116.248C116.358 72.6582 116.443 72.6932 116.503 72.7632C116.573 72.8232 116.608 72.9082 116.608 73.0182V74.0382C116.608 74.1382 116.573 74.2232 116.503 74.2932C116.443 74.3632 116.358 74.3982 116.248 74.3982H111.913L111.673 76.8282C111.903 76.6782 112.168 76.5582 112.468 76.4682C112.768 76.3682 113.158 76.3182 113.638 76.3182C114.288 76.3182 114.888 76.4582 115.438 76.7382C115.998 77.0082 116.443 77.4032 116.773 77.9232C117.113 78.4332 117.283 79.0282 117.283 79.7082C117.283 80.4382 117.113 81.0782 116.773 81.6282C116.433 82.1682 115.953 82.5882 115.333 82.8882C114.713 83.1782 113.993 83.3232 113.173 83.3232ZM122.985 83.3082C122.145 83.3082 121.405 83.1482 120.765 82.8282C120.135 82.5082 119.645 82.0682 119.295 81.5082C118.955 80.9482 118.785 80.3182 118.785 79.6182C118.785 78.7382 119.175 77.7682 119.955 76.7082L122.685 72.9582C122.765 72.8582 122.84 72.7832 122.91 72.7332C122.98 72.6832 123.08 72.6582 123.21 72.6582H124.635C124.725 72.6582 124.795 72.6932 124.845 72.7632C124.905 72.8232 124.935 72.8982 124.935 72.9882C124.935 73.0582 124.915 73.1232 124.875 73.1832L122.775 76.0782C122.935 76.0382 123.145 76.0182 123.405 76.0182C124.075 76.0282 124.69 76.1932 125.25 76.5132C125.82 76.8232 126.27 77.2482 126.6 77.7882C126.94 78.3282 127.11 78.9282 127.11 79.5882C127.11 80.2682 126.94 80.8932 126.6 81.4632C126.27 82.0232 125.79 82.4732 125.16 82.8132C124.54 83.1432 123.815 83.3082 122.985 83.3082ZM122.955 81.5682C123.515 81.5682 123.99 81.3982 124.38 81.0582C124.77 80.7082 124.965 80.2282 124.965 79.6182C124.965 79.0182 124.77 78.5482 124.38 78.2082C124 77.8582 123.525 77.6832 122.955 77.6832C122.395 77.6832 121.92 77.8582 121.53 78.2082C121.15 78.5482 120.96 79.0182 120.96 79.6182C120.96 80.2282 121.15 80.7082 121.53 81.0582C121.92 81.3982 122.395 81.5682 122.955 81.5682ZM128.939 83.1582C128.839 83.1582 128.754 83.1232 128.684 83.0532C128.614 82.9832 128.579 82.8982 128.579 82.7982V82.0182C128.579 81.7382 128.704 81.5032 128.954 81.3132L131.294 78.9882C132.004 78.4282 132.549 77.9732 132.929 77.6232C133.319 77.2632 133.609 76.9332 133.799 76.6332C133.989 76.3332 134.084 76.0382 134.084 75.7482C134.084 75.2782 133.959 74.9082 133.709 74.6382C133.459 74.3682 133.079 74.2332 132.569 74.2332C132.069 74.2332 131.674 74.3832 131.384 74.6832C131.104 74.9732 130.929 75.3532 130.859 75.8232C130.829 75.9432 130.769 76.0332 130.679 76.0932C130.599 76.1432 130.509 76.1682 130.409 76.1682H129.059C128.969 76.1682 128.894 76.1382 128.834 76.0782C128.774 76.0182 128.744 75.9432 128.744 75.8532C128.764 75.2632 128.924 74.7132 129.224 74.2032C129.534 73.6832 129.974 73.2682 130.544 72.9582C131.114 72.6382 131.784 72.4782 132.554 72.4782C133.354 72.4782 134.034 72.6182 134.594 72.8982C135.154 73.1682 135.574 73.5432 135.854 74.0232C136.134 74.5032 136.274 75.0482 136.274 75.6582C136.274 76.3282 136.084 76.9382 135.704 77.4882C135.334 78.0282 134.754 78.6082 133.964 79.2282L131.879 81.3432H136.124C136.234 81.3432 136.324 81.3782 136.394 81.4482C136.464 81.5182 136.499 81.6082 136.499 81.7182V82.7982C136.499 82.9082 136.464 82.9982 136.394 83.0682C136.324 83.1282 136.234 83.1582 136.124 83.1582H128.939Z" fill="white"/>
<defs>
<linearGradient id="paint0_linear_370_3" x1="514" y1="2.30957" x2="514" y2="344.775" gradientUnits="userSpaceOnUse">
<stop stop-color="#48DC72"/>
<stop offset="1" stop-color="#CBE5FE" stop-opacity="0.12"/>
</linearGradient>
<linearGradient id="paint1_linear_370_3" x1="514.487" y1="99.8867" x2="514.487" y2="349.632" gradientUnits="userSpaceOnUse">
<stop stop-color="#0560FD"/>
<stop offset="1" stop-color="#0560FD" stop-opacity="0.22"/>
</linearGradient>
</defs>
</svg>
