<?xml version="1.0" encoding="utf-8"?>
<!-- Generator: Adobe Illustrator 26.0.3, SVG Export Plug-In . SVG Version: 6.00 Build 0)  -->
<svg version="1.1" id="Layer_1" xmlns="http://www.w3.org/2000/svg" xmlns:xlink="http://www.w3.org/1999/xlink" x="0px" y="0px"
	 viewBox="0 0 621.9 488" style="enable-background:new 0 0 621.9 488;" xml:space="preserve">
<style type="text/css">
	.st0{clip-path:url(#SVGID_00000152258216883923909490000004899922664836802720_);}
	.st1{opacity:0.8;fill:#E2EFFF;enable-background:new    ;}
	.st2{opacity:0.2;enable-background:new    ;}
	.st3{fill:#9E9E9E;stroke:#1A2E35;stroke-linecap:round;stroke-linejoin:round;stroke-miterlimit:10;}
	.st4{fill:#BDBDBD;stroke:#1A2E35;stroke-linecap:round;stroke-linejoin:round;stroke-miterlimit:10;}
	.st5{fill:#5C5C5C;stroke:#1A2E35;stroke-linecap:round;stroke-linejoin:round;stroke-miterlimit:10;}
	.st6{fill:none;stroke:#1A2E35;stroke-width:2;stroke-linecap:round;stroke-linejoin:round;stroke-miterlimit:10;}
	.st7{fill:#5AE4A7;stroke:#1A2E35;stroke-miterlimit:10;}
	.st8{fill:#5AE4A7;}
	.st9{fill:none;stroke:#1A2E35;stroke-miterlimit:10;}
	.st10{fill:#45D08D;stroke:#1A2E35;stroke-miterlimit:10;}
	.st11{fill:#36C781;stroke:#1A2E35;stroke-miterlimit:10;}
	.st12{fill:#45D08D;}
	.st13{fill:#FFFFFF;stroke:#1A2E35;stroke-linecap:round;stroke-linejoin:round;stroke-miterlimit:10;}
	.st14{fill:#1A2E35;stroke:#1A2E35;stroke-linecap:round;stroke-linejoin:round;stroke-miterlimit:10;}
	.st15{fill:none;stroke:#8A8A8A;stroke-linecap:round;stroke-linejoin:round;stroke-miterlimit:10;}
	.st16{fill:#1A2E35;}
	.st17{fill:#FFFFFF;stroke:#1A2E35;stroke-width:0.7043;stroke-miterlimit:10;}
	.st18{fill:none;stroke:#FFFFFF;stroke-linecap:round;stroke-linejoin:round;stroke-miterlimit:10;}
	.st19{fill:#FFFFFF;}
	.st20{fill:none;stroke:#1A2E35;stroke-linecap:round;stroke-linejoin:round;stroke-miterlimit:10;}
	.st21{fill:#272727;}
	.st22{fill:#FFFFFF;stroke:#D9D9D9;stroke-width:1.5;}
	.st23{fill:#B5B5B5;fill-opacity:0.56;}
	.st24{fill:#E7C59F;stroke:#1A2E35;stroke-linecap:round;stroke-linejoin:round;stroke-miterlimit:10;}
	.st25{fill:#FEDBB3;}
	.st26{fill:#5AE4A7;stroke:#1A2E35;stroke-linecap:round;stroke-linejoin:round;stroke-miterlimit:10;}
	.st27{fill:#FEDBB3;stroke:#1A2E35;stroke-linecap:round;stroke-linejoin:round;stroke-miterlimit:10;}
	.st28{clip-path:url(#SVGID_00000108281571217823408730000001265534521583987388_);}
	.st29{clip-path:url(#SVGID_00000036215549294462203820000002409599728670769331_);}
	.st30{fill:#DBCFC5;fill-opacity:0.63;}
	.st31{fill:#2E2E2E;}
	.st32{fill:#1E1E1E;}
	.st33{fill:#FFFFFF;fill-opacity:0.27;}
	.st34{fill:#FFFFFF;fill-opacity:0.38;}
	.st35{fill:#4A4A4A;}
	.st36{fill:#595C60;}
</style>
<g>
	<defs>
		<rect id="SVGID_1_" x="46.2" y="-20" width="618" height="508.1"/>
	</defs>
	<clipPath id="SVGID_00000143583461920729445510000008669332423988542128_">
		<use xlink:href="#SVGID_1_"  style="overflow:visible;"/>
	</clipPath>
	<g style="clip-path:url(#SVGID_00000143583461920729445510000008669332423988542128_);">
		<path class="st1" d="M547.5,187.7c-2.7-8.5-6-16.9-10.3-24.9c-21.8-40.4-59.9-70.9-101.7-89c-33.1-14.3-74.1-21.8-109.3-8.9
			c-17.8,6.5-34.5,19-44,35.6c-12.4,21.7-11.2,48.6-21.1,71.5c-8,18.5-27.9,29.6-43.5,40.9c-24.3,17.7-48.3,38.7-56.7,68.6
			c-11.2,40-7.9,87.6,14.9,123.1c17,26.5,46.1,34.5,76.1,35c28.3,0.5,63-6.6,89.4,6.3c45.1,22,104.5,46.7,154.9,29.3
			c52-18,77.5-52.9,85-98.3c7.6-45.3-13.2-83.1-19.8-119C557.3,235.4,554.6,210.3,547.5,187.7z"/>
		<path class="st2" d="M507.7,109.8c-14.9,0-28.2,5.7-37.4,14.7l4.7-21.1l-10.3,5.8c0,0-5.8,1.9-11.5,7.1
			c-5.8,5.1-8.3,14.1-8.3,14.1l18.6-8.3c0,0-19.2,17.9-19.2,23.1c0,5.1-1.3,16-1.3,16l14.8-10c0,0.8-0.1,1.6-0.1,2.4
			c0,5.9,1.3,11.4,3.7,16.5c-1.5,2.8-3.1,6.7-3.1,10.4c0,7.1,1.9,11.5,1.9,11.5l9.5-10.1c0.7,0.7,1.4,1.3,2.1,2l3.8,8.1l5.8,7.1
			l1.3-7.1l-0.8-1.1c7.5,4,16.4,6.2,25.8,6.2c27.6,0,50-19.5,50-43.6S535.4,109.8,507.7,109.8z"/>
		<path class="st3" d="M536.7,111.8c-7.5-6-17-9.7-27.4-9.7c-10.4,0-19.9,3.6-27.4,9.7h-16.3v34c0,24.1,19.6,43.7,43.7,43.7
			c24.1,0,43.7-19.6,43.7-43.7v-34H536.7z"/>
		<path class="st4" d="M509.3,155.4c24.1,0,43.7-19.6,43.7-43.7c0-24.1-19.6-43.7-43.7-43.7c-24.1,0-43.7,19.6-43.7,43.7
			C465.6,135.9,485.2,155.4,509.3,155.4z"/>
		<path class="st3" d="M509.3,151.5c22,0,39.8-17.8,39.8-39.8S531.3,72,509.3,72c-22,0-39.8,17.8-39.8,39.8S487.3,151.5,509.3,151.5
			z"/>
		<path class="st5" d="M509.3,151.5c20.8,0,37.6-16.3,37.6-36.3c0-20.1-16.8-36.3-37.6-36.3c-20.8,0-37.6,16.3-37.6,36.3
			C471.7,135.3,488.5,151.5,509.3,151.5z"/>
		<path class="st6" d="M507.3,110V38.2"/>
		<path class="st6" d="M506.7,97.9c0,0-31.4,11.5-41,40.4"/>
		<path class="st6" d="M506.7,60.7c0,0-13.3-15.7-40.4-19.9"/>
		<path class="st7" d="M474.6,121.6c0,0-19.3-4.8-27.2,3.7c-7.8,8.6-5.6,21.2-5.6,21.2s1.9-1.9,11.9-7.1
			C463.8,134.2,474.6,121.6,474.6,121.6z"/>
		<path class="st8" d="M474.6,121.6c0,0-12.7,1.9-23.4,12.3L474.6,121.6z"/>
		<path class="st9" d="M474.6,121.6c0,0-12.7,1.9-23.4,12.3"/>
		<path class="st10" d="M466.8,136.7c0,0-18.3,7.8-19.4,19.4c-1.1,11.5,8.4,20.3,8.4,20.3s0.4-2.6,5.2-12.8
			C465.8,153.3,466.8,136.7,466.8,136.7z"/>
		<path class="st8" d="M466.8,136.7c0,0-9,9.1-11.3,23.9L466.8,136.7z"/>
		<path class="st9" d="M466.8,136.7c0,0-9,9.1-11.3,23.9"/>
		<path class="st7" d="M483.4,112.1c0,0,18.3,7.8,19.4,19.4c1.1,11.5-8.4,20.3-8.4,20.3s-0.4-2.6-5.2-12.8
			C484.3,128.7,483.4,112.1,483.4,112.1z"/>
		<path class="st8" d="M483.4,112.1c0,0,9,9.1,11.3,23.9L483.4,112.1z"/>
		<path class="st9" d="M483.4,112.1c0,0,9,9.1,11.3,23.9"/>
		<path class="st7" d="M506.8,98c0,0,18.3,7.8,19.4,19.4c1.1,11.5-8.3,20.3-8.3,20.3s-0.4-2.6-5.2-12.8
			C507.8,114.6,506.8,98,506.8,98z"/>
		<path class="st8" d="M506.8,98c0,0,9,9.1,11.3,23.9L506.8,98z"/>
		<path class="st9" d="M506.8,98c0,0,9,9.1,11.3,23.9"/>
		<path class="st7" d="M484.5,110.7c0,0-11.9-16-23.4-14.3c-11.5,1.7-17.7,12.9-17.7,12.9s2.6-0.3,13.7,2
			C468.2,113.7,484.5,110.7,484.5,110.7z"/>
		<path class="st8" d="M484.5,110.7c0,0-11-6.6-25.9-5.3L484.5,110.7z"/>
		<path class="st9" d="M484.5,110.7c0,0-11-6.6-25.9-5.3"/>
		<path class="st6" d="M507.1,90.9c0,0,31.4,11.5,41,40.4"/>
		<path class="st7" d="M539.1,114.5c0,0,19.3-4.8,27.2,3.7c7.8,8.6,5.6,21.2,5.6,21.2s-1.9-1.9-11.9-7.1
			C549.9,127.2,539.1,114.5,539.1,114.5z"/>
		<path class="st8" d="M539.1,114.5c0,0,12.7,1.9,23.4,12.3L539.1,114.5z"/>
		<path class="st9" d="M539.1,114.5c0,0,12.7,1.9,23.4,12.3"/>
		<path class="st7" d="M547,129.7c0,0,18.3,7.8,19.4,19.4s-8.4,20.3-8.4,20.3s-0.4-2.6-5.2-12.8C547.9,146.3,547,129.7,547,129.7z"
			/>
		<path class="st8" d="M547,129.7c0,0,9,9.1,11.3,23.9L547,129.7z"/>
		<path class="st9" d="M547,129.7c0,0,9,9.1,11.3,23.9"/>
		<path class="st7" d="M530.4,105.1c0,0-18.3,7.8-19.4,19.4c-1.1,11.5,8.4,20.3,8.4,20.3s0.4-2.6,5.2-12.8
			C529.4,121.7,530.4,105.1,530.4,105.1z"/>
		<path class="st8" d="M530.4,105.1c0,0-9,9.1-11.3,23.9L530.4,105.1z"/>
		<path class="st9" d="M530.4,105.1c0,0-9,9.1-11.3,23.9"/>
		<path class="st11" d="M529.2,103.7c0,0,11.9-16,23.4-14.3c11.5,1.7,17.7,12.9,17.7,12.9s-2.6-0.3-13.7,2
			C545.6,106.6,529.2,103.7,529.2,103.7z"/>
		<path class="st8" d="M529.2,103.7c0,0,11-6.6,25.9-5.3L529.2,103.7z"/>
		<path class="st9" d="M529.2,103.7c0,0,11-6.6,25.9-5.3"/>
		<path class="st7" d="M506.9,97.7c0,0-11.9-16-23.4-14.3c-11.5,1.7-17.7,12.9-17.7,12.9s2.6-0.3,13.7,2.1
			C490.5,100.6,506.9,97.7,506.9,97.7z"/>
		<path class="st8" d="M506.9,97.7c0,0-11-6.6-25.9-5.3L506.9,97.7z"/>
		<path class="st9" d="M506.9,97.7c0,0-11-6.6-25.9-5.3"/>
		<path class="st11" d="M506.2,59.6c0,0-19.9-0.4-25.6,9.7c-5.7,10.1-0.7,21.9-0.7,21.9s1.4-2.2,10-9.6
			C498.5,74.3,506.2,59.6,506.2,59.6z"/>
		<path class="st8" d="M506.2,59.6c0,0-11.9,4.7-20.1,17.2L506.2,59.6z"/>
		<path class="st9" d="M506.2,59.6c0,0-11.9,4.7-20.1,17.2"/>
		<path class="st10" d="M478.9,43c0,0-14.5-13.7-25.5-10c-11,3.7-15.2,15.8-15.2,15.8s2.5-0.7,13.8-0.4
			C463.3,48.8,478.9,43,478.9,43z"/>
		<path class="st12" d="M478.9,43c0,0-12-4.5-26.5-0.7L478.9,43z"/>
		<path class="st9" d="M478.9,43c0,0-12-4.5-26.5-0.7"/>
		<path class="st7" d="M488.7,48.3c0,0-19.9-1.1-26,8.8c-6.1,9.9-1.5,21.9-1.5,21.9s1.5-2.2,10.4-9.2
			C480.5,62.8,488.7,48.3,488.7,48.3z"/>
		<path class="st8" d="M488.7,48.3c0,0-12.1,4.2-20.7,16.5L488.7,48.3z"/>
		<path class="st9" d="M488.7,48.3c0,0-12.1,4.2-20.7,16.5"/>
		<path class="st7" d="M493.7,49.6c0,0,4.2-19.5-4.5-27c-8.8-7.6-21.4-4.9-21.4-4.9s1.9,1.8,7.4,11.7
			C480.7,39.2,493.7,49.6,493.7,49.6z"/>
		<path class="st8" d="M493.7,49.6c0,0-2.2-12.6-13-23.1L493.7,49.6z"/>
		<path class="st9" d="M493.7,49.6c0,0-2.2-12.6-13-23.1"/>
		<path class="st6" d="M507.8,83c0,0,13.3-15.7,40.4-19.9"/>
		<path class="st10" d="M508.2,81.9c0,0,19.9-0.4,25.6,9.7c5.7,10.1,0.7,21.9,0.7,21.9s-1.4-2.2-10-9.6
			C515.9,96.6,508.2,81.9,508.2,81.9z"/>
		<path class="st8" d="M508.2,81.9c0,0,11.9,4.7,20.1,17.2L508.2,81.9z"/>
		<path class="st9" d="M508.2,81.9c0,0,11.9,4.7,20.1,17.2"/>
		<path class="st7" d="M535.5,65.4c0,0,14.5-13.7,25.5-10c11,3.7,15.2,15.8,15.2,15.8s-2.5-0.7-13.8-0.4
			C551.1,71.1,535.5,65.4,535.5,65.4z"/>
		<path class="st8" d="M535.5,65.4c0,0,12-4.5,26.5-0.7L535.5,65.4z"/>
		<path class="st9" d="M535.5,65.4c0,0,12-4.5,26.5-0.7"/>
		<path class="st7" d="M525.7,70.7c0,0,19.9-1.1,26,8.8c6.1,9.9,1.5,21.9,1.5,21.9s-1.5-2.2-10.4-9.2
			C533.9,85.1,525.7,70.7,525.7,70.7z"/>
		<path class="st8" d="M525.7,70.7c0,0,12.1,4.2,20.7,16.5L525.7,70.7z"/>
		<path class="st9" d="M525.7,70.7c0,0,12.1,4.2,20.7,16.5"/>
		<path class="st7" d="M520.8,71.9c0,0-4.2-19.5,4.5-27c8.8-7.6,21.4-4.9,21.4-4.9s-1.9,1.8-7.4,11.7
			C533.7,61.5,520.8,71.9,520.8,71.9z"/>
		<path class="st8" d="M520.8,71.9c0,0,2.2-12.6,13-23.1L520.8,71.9z"/>
		<path class="st9" d="M520.8,71.9c0,0,2.2-12.6,13-23.1"/>
		<path class="st6" d="M507,43.9c0,0,13.3-15.7,40.4-19.9"/>
		<path class="st7" d="M507.5,42.8c0,0,19.9-0.4,25.6,9.7c5.7,10.1,0.7,21.9,0.7,21.9s-1.4-2.2-10-9.6
			C515.2,57.6,507.5,42.8,507.5,42.8z"/>
		<path class="st8" d="M507.5,42.8c0,0,11.9,4.7,20.1,17.2L507.5,42.8z"/>
		<path class="st9" d="M507.5,42.8c0,0,11.9,4.7,20.1,17.2"/>
		<path class="st7" d="M507.9,42.2c0,0-12-15.9-7.2-26.4C505.5,5.2,518,2.3,518,2.3s-1,2.4-1.8,13.7
			C515.3,27.3,507.9,42.2,507.9,42.2z"/>
		<path class="st8" d="M507.9,42.2c0,0-3.3-12.4,2.1-26.4L507.9,42.2z"/>
		<path class="st9" d="M507.9,42.2c0,0-3.3-12.4,2.1-26.4"/>
		<path class="st10" d="M534.8,26.3c0,0,14.5-13.7,25.5-10c11,3.7,15.2,15.8,15.2,15.8s-2.5-0.7-13.8-0.4
			C550.3,32.1,534.8,26.3,534.8,26.3z"/>
		<path class="st12" d="M534.8,26.3c0,0,12-4.5,26.5-0.7L534.8,26.3z"/>
		<path class="st9" d="M534.8,26.3c0,0,12-4.5,26.5-0.7"/>
		<path class="st7" d="M525,31.6c0,0,19.9-1.1,26,8.8c6.1,9.9,1.5,21.9,1.5,21.9s-1.5-2.2-10.4-9.2C533.2,46.1,525,31.6,525,31.6z"
			/>
		<path class="st8" d="M525,31.6c0,0,12.1,4.2,20.7,16.5L525,31.6z"/>
		<path class="st9" d="M525,31.6c0,0,12.1,4.2,20.7,16.5"/>
		<path class="st10" d="M520,32.8c0,0-4.2-19.5,4.5-27c8.8-7.6,21.4-4.9,21.4-4.9s-1.9,1.8-7.4,11.7C533,22.4,520,32.8,520,32.8z"/>
		<path class="st12" d="M520,32.8c0,0,2.2-12.6,13-23.1L520,32.8z"/>
		<path class="st9" d="M520,32.8c0,0,2.2-12.6,13-23.1"/>
		<path class="st7" d="M506.6,62.5c0,0,8.8-17.9,2-27.3c-6.7-9.4-19.6-9.9-19.6-9.9s1.4,2.2,4.4,13.1
			C496.4,49.3,506.6,62.5,506.6,62.5z"/>
		<path class="st8" d="M506.6,62.5c0,0,0.8-12.8-7.1-25.5L506.6,62.5z"/>
		<path class="st9" d="M506.6,62.5c0,0,0.8-12.8-7.1-25.5"/>
		<path class="st2" d="M565.6,354.8l-48.4-20c-3.9-1.6-5.8-6.1-4.2-10l42.9-104c1.6-3.9,6.1-5.8,10-4.2l48.4,20
			c3.9,1.6,5.8,6.1,4.2,10l-42.9,104C574,354.6,569.5,356.4,565.6,354.8z"/>
		<path class="st13" d="M567.8,354.8l-48.4-20c-3.9-1.6-5.8-6.1-4.2-10l42.9-104c1.6-3.9,6.1-5.8,10-4.2l48.4,20
			c3.9,1.6,5.8,6.1,4.2,10l-42.9,104C576.2,354.6,571.7,356.4,567.8,354.8z"/>
		<path class="st14" d="M615.6,251.3l-57-23.5l-38.1,92.3l57,23.5L615.6,251.3z"/>
		<path class="st15" d="M548.7,299.3l-15,4.6"/>
		<path class="st15" d="M600.7,283.5l-47.4,14.4"/>
		<path class="st15" d="M572.9,286.8l3.3-1"/>
		<path class="st15" d="M539.6,296.9l29.3-8.8"/>
		<path class="st16" d="M595.9,235.7l-12.4-5.1c-0.5-0.2-0.7-0.7-0.5-1.2c0.2-0.5,0.7-0.7,1.2-0.5l12.4,5.1c0.5,0.2,0.7,0.7,0.5,1.2
			C596.9,235.6,596.4,235.9,595.9,235.7z"/>
		<path class="st17" d="M546.8,340.7c2,0,3.7-1.6,3.7-3.7c0-2-1.6-3.7-3.7-3.7c-2,0-3.7,1.6-3.7,3.7
			C543.2,339.1,544.8,340.7,546.8,340.7z"/>
		<path class="st16" d="M549.2,336.1l-3.4-1.4l-1.4,3.4l3.4,1.4L549.2,336.1z"/>
		<path class="st2" d="M104,129.7l-17.3,9.4l14.5,43.4l-7.2,8.7l5.1,7.2l149.6-50.7l-123.5-25.9L104,129.7z"/>
		<path class="st14" d="M127.2,73.6l-27.3,60.2l3.1,3.1L130.3,76L127.2,73.6z"/>
		<path class="st3" d="M103,136.9l51.7-16.4L130.3,76L103,136.9z"/>
		<path class="st3" d="M218.8,19.1l-79.3,158.1L109.1,42.7l104.1-26.3L218.8,19.1z"/>
		<path class="st3" d="M248.5,147.6L145,180L114.6,45.5l104.1-26.3L248.5,147.6z"/>
		<path class="st13" d="M240.4,141.9l-91,28.5L122.7,52l91.6-23.2L240.4,141.9z"/>
		<path class="st14" d="M114.6,45.5l-5.5-2.8l30.4,134.6l5.5,2.8L114.6,45.5z"/>
		<path class="st13" d="M220.9,57.3c-2.5-2.2-6-4.2-10.9-5c-16.3-2.5-41.3,4.3-44.9,23c-2,10.7-2.6,17.9-6.6,21.4
			c-4.1,3.6-12.2,6.1-12.8,10.2c-0.5,4.1,7.6,9.2,7.6,9.2c0.4,0.2-1.2,6.9-1.3,7.5c-0.6,4.3-1.8,8.7-1.4,13.1
			c0.5,5.7,4.1,11.3,9.4,13.7c4.2,1.9,8.9,1.2,13.1,3c1.1,0.5,7,7.3,6.1,7.6l61.1-19.1L220.9,57.3z"/>
		<path class="st14" d="M192.7,41.3c0,0-4.8-3.4-10.9-4.3l-12.9,3.3c-8.1,6.9,3.5,17.8,0.5,19.6c-3.1,1.9-16.5-7.5-25.5,5.9
			c-9,13.3,5.6,22.7,13.7,24.2c8.1,1.6,16.8-10.2,24.2-6.2c7.4,4-0.9,13.3,0.3,20.5s14.3,8.7,15.8,18.3c1.6,9.6-9.6,1.6-18.9,13.3
			c-9.3,11.8-2.2,25.8-2.2,25.8l63.5-19.9l-22.9-97.5C217.6,44.4,210.1,36.3,192.7,41.3z"/>
		<path class="st18" d="M201.5,148.5c-0.2,0.7-0.3,1.4-0.4,2.3"/>
		<path class="st18" d="M203.8,76.8c5.1,5.7,3.1,12.1-1.8,18.8c-5.6,7.7,1.5,12.7,13.8,17.4c12.4,4.7,14.1,18.6,6.8,23.6
			c-6,4.1-15.8,2.7-19.8,8.8"/>
		<path class="st18" d="M177,74.2c0,0,15.9-5.9,24.2,0.3c0.4,0.3,0.8,0.6,1.1,0.9"/>
		<path class="st18" d="M218,66.1c1.5,1.4,2.3,2.4,2.3,2.4"/>
		<path class="st18" d="M205.3,60c5,0.9,8.8,3,11.3,5"/>
		<path class="st18" d="M183.2,63c0,0,9.1-4.4,20.3-3.2"/>
		<path class="st18" d="M167,78.3c0,0-4.4,2.1-10.6,1.8c-6.2-0.3-9.7-6.8-3.5-8.2c6.2-1.5,11.2,2.9,7.1,4.7
			c-4.1,1.8-6.5-1.8-5.3-1.8"/>
		<path class="st19" d="M166.2,124.4c0.5-0.2,1.1-0.5,1.6-0.8L166.2,124.4z"/>
		<path class="st20" d="M166.2,124.4c0.5-0.2,1.1-0.5,1.6-0.8"/>
		<path class="st19" d="M155.4,124.5c0,0,3.5,2.3,8.9,0.7L155.4,124.5z"/>
		<path class="st20" d="M155.4,124.5c0,0,3.5,2.3,8.9,0.7"/>
		<path class="st14" d="M167.8,98.2c-0.2,0.4-0.4,0.8-0.6,1.2c-0.6,1.8-0.3,3.4,0.7,3.7c1,0.3,2.2-0.9,2.8-2.6
			c0.2-0.7,0.6-0.6,0.6-1.2L167.8,98.2z"/>
		<path class="st19" d="M165.1,92c0,0,1.3-2.4,5.1-1.6c3.8,0.9,3.3,6,3.3,6"/>
		<path class="st20" d="M165.1,92c0,0,1.3-2.4,5.1-1.6c3.8,0.9,3.3,6,3.3,6"/>
		<path class="st19" d="M167.4,94.5l-1.6,2.4l6.2,2.7"/>
		<path class="st20" d="M167.4,94.5l-1.6,2.4l6.2,2.7"/>
		<path class="st2" d="M417.6,154.9l0.3,216.7c0,6.3-5.1,11.4-11.4,11.4l-133.1,0.2c-6.3,0-11.4-5.1-11.4-11.4l-0.3-216.7
			c0-6.3,5.1-11.4,11.4-11.4l133.1-0.2C412.5,143.5,417.6,148.6,417.6,154.9z"/>
		<path class="st21" d="M418.5,156.9l0.3,216.5c0,6.3-5.1,11.4-11.4,11.4l-132.3,0.2c-6.3,0-11.4-5.1-11.4-11.4l-0.3-216.5
			c0-6.3,5.1-11.4,11.4-11.4l132.3-0.2C413.4,145.5,418.5,150.6,418.5,156.9z"/>
		<path class="st16" d="M418.5,156.9H418l0,0H418.5z M418.8,373.4l-0.5,0l0,0L418.8,373.4z M407.5,384.8v-0.5l0,0V384.8z
			 M275.2,384.9l0-0.5l0,0L275.2,384.9z M263.8,373.6h0.5l0,0H263.8z M263.5,157.1l0.5,0l0,0L263.5,157.1z M274.8,145.7v0.5l0,0
			V145.7z M407.1,145.5l0,0.5l0,0L407.1,145.5z M418,156.9l0.3,216.5l1,0L419,156.9L418,156.9z M418.3,373.4c0,6-4.9,10.9-10.9,10.9
			l0,1c6.6,0,11.9-5.3,11.9-11.9L418.3,373.4z M407.5,384.3l-132.3,0.2l0,1l132.3-0.2L407.5,384.3z M275.2,384.4
			c-6,0-10.9-4.9-10.9-10.9l-1,0c0,6.6,5.3,11.9,11.9,11.9L275.2,384.4z M264.3,373.6L264,157.1l-1,0l0.3,216.5L264.3,373.6z
			 M264,157.1c0-6,4.9-10.9,10.9-10.9l0-1c-6.6,0-11.9,5.3-11.9,11.9L264,157.1z M274.8,146.2l132.3-0.2l0-1l-132.3,0.2L274.8,146.2
			z M407.1,146c6,0,10.9,4.9,10.9,10.9l1,0c0-6.6-5.3-11.9-11.9-11.9L407.1,146z"/>
		<path class="st14" d="M272,161.5l0.3,199.8l137.9-0.2L410,161.3L272,161.5z"/>
		<path class="st16" d="M352.8,154.8l-23.2,0.1c-0.9,0-1.6-0.7-1.6-1.6c0-0.9,0.7-1.6,1.6-1.6l23.2-0.1c0.9,0,1.6,0.7,1.6,1.6
			C354.4,154,353.7,154.7,352.8,154.8z"/>
		<path class="st17" d="M341.3,378.3c2.9,0,5.2-2.4,5.2-5.2c0-2.9-2.3-5.2-5.2-5.2c-2.9,0-5.2,2.4-5.2,5.2
			C336.1,375.9,338.4,378.3,341.3,378.3z"/>
		<path class="st16" d="M338.7,370.3l0,5.3l5.3,0l0-5.3L338.7,370.3z"/>
		<path class="st22" d="M272.3,162.8v-1.1c2.3,0,21.1-0.1,30.7-0.1l106.7-0.1h0l0.3,199.3L272.7,361h0h-0.2L272.3,162.8L272.3,162.8
			z M409.9,161.5C409.9,161.5,409.9,161.5,409.9,161.5L409.9,161.5z"/>
		<path class="st23" d="M395.5,176.8c0,1.2-1.1,2.1-2.4,2.1H286.6c-1.3,0-2.4-0.9-2.4-2.1v-0.5c0-1.2,1.1-2.1,2.4-2.1h106.4
			c1.3,0,2.4,0.9,2.4,2.1V176.8z"/>
		<path class="st23" d="M288.1,333.2V190c0-1.2-0.9-2.1-2.1-2.1s-2.1,0.9-2.1,2.1v143.1c0,1.2,0.9,2.1,2.1,2.1
			S288.1,334.3,288.1,333.2z"/>
		<path class="st23" d="M387,209.7c0,0.9-0.9,1.6-2.1,1.6h-86.5c-1.2,0-2.1-0.7-2.1-1.6c0-0.9,0.9-1.6,2.1-1.6h86.5
			C386,208,387,208.8,387,209.7z"/>
		<path class="st23" d="M396,204.1c0,0.9-0.9,1.6-2.1,1.6h-95.5c-1.2,0-2.1-0.7-2.1-1.6s0.9-1.6,2.1-1.6h95.5
			C395.1,202.5,396,203.2,396,204.1z"/>
		<path class="st23" d="M331.6,190.2c0,0.9-0.8,1.6-1.9,1.6h-31.5c-1,0-1.9-0.7-1.9-1.6c0-0.9,0.8-1.6,1.9-1.6h31.5
			C330.7,188.5,331.6,189.3,331.6,190.2z"/>
		<path class="st23" d="M396,215.1c0,0.9-0.9,1.6-2.1,1.6h-95.5c-1.2,0-2.1-0.7-2.1-1.6c0-0.9,0.9-1.6,2.1-1.6h95.5
			C395.1,213.4,396,214.2,396,215.1z"/>
		<path class="st23" d="M381,220.6c0,0.9-0.9,1.6-2.1,1.6h-80.5c-1.2,0-2.1-0.7-2.1-1.6c0-0.9,0.9-1.6,2.1-1.6h80.5
			C380,219,381,219.7,381,220.6z"/>
		<path class="st23" d="M390,226c0,0.9-0.9,1.6-2.1,1.6h-89.5c-1.2,0-2.1-0.7-2.1-1.6s0.9-1.6,2.1-1.6h89.5
			C389.1,224.4,390,225.1,390,226z"/>
		<path class="st23" d="M396,231.6c0,0.9-0.9,1.6-2.1,1.6h-95.5c-1.2,0-2.1-0.7-2.1-1.6c0-0.9,0.9-1.6,2.1-1.6h95.5
			C395.1,229.9,396,230.7,396,231.6z"/>
		<path class="st23" d="M396,237.3c0,0.9-0.9,1.6-2.1,1.6h-95.5c-1.2,0-2.1-0.7-2.1-1.6s0.9-1.6,2.1-1.6h95.5
			C395.1,235.6,396,236.4,396,237.3z"/>
		<path class="st23" d="M396,303.8c0,0.9-0.9,1.6-2.1,1.6h-95.5c-1.2,0-2.1-0.7-2.1-1.6c0-0.9,0.9-1.6,2.1-1.6h95.5
			C395.1,302.2,396,302.9,396,303.8z"/>
		<path class="st23" d="M381,311.2c0,0.9-0.9,1.6-2.1,1.6h-80.5c-1.2,0-2.1-0.7-2.1-1.6c0-0.9,0.9-1.6,2.1-1.6h80.5
			C380,309.6,381,310.3,381,311.2z"/>
		<path class="st23" d="M362.9,318.6c0,0.9-0.9,1.6-2.1,1.6h-62.4c-1.2,0-2.1-0.7-2.1-1.6s0.9-1.6,2.1-1.6h62.4
			C361.9,317,362.9,317.7,362.9,318.6z"/>
		<path class="st23" d="M396,325.6c0,0.9-0.9,1.6-2.1,1.6h-95.5c-1.2,0-2.1-0.7-2.1-1.6s0.9-1.6,2.1-1.6h95.5
			C395.1,324,396,324.7,396,325.6z"/>
		<path class="st23" d="M396,332.4c0,0.9-0.9,1.6-2.1,1.6h-95.5c-1.2,0-2.1-0.7-2.1-1.6s0.9-1.6,2.1-1.6h95.5
			C395.1,330.8,396,331.5,396,332.4z"/>
		<path class="st23" d="M390,243.2c0,0.9-0.9,1.6-2.1,1.6h-89.5c-1.2,0-2.1-0.7-2.1-1.6s0.9-1.6,2.1-1.6h89.5
			C389.1,241.6,390,242.3,390,243.2z"/>
		<path class="st23" d="M396,249.2c0,0.9-0.9,1.6-2.1,1.6h-95.5c-1.2,0-2.1-0.7-2.1-1.6s0.9-1.6,2.1-1.6h95.5
			C395.1,247.6,396,248.3,396,249.2z"/>
		<path class="st23" d="M383.7,255.3c0,0.9-0.9,1.6-2.1,1.6h-83.2c-1.2,0-2.1-0.7-2.1-1.6s0.9-1.6,2.1-1.6h83.2
			C382.7,253.6,383.7,254.4,383.7,255.3z"/>
		<path class="st23" d="M347.8,261c0,0.9-0.9,1.6-2.1,1.6h-47.3c-1.2,0-2.1-0.7-2.1-1.6s0.9-1.6,2.1-1.6h47.3
			C346.9,259.4,347.8,260.2,347.8,261z"/>
		<path class="st23" d="M347.8,286.2c0,0.9-0.9,1.6-2.1,1.6h-47.3c-1.2,0-2.1-0.7-2.1-1.6s0.9-1.6,2.1-1.6h47.3
			C346.9,284.6,347.8,285.3,347.8,286.2z"/>
		<path class="st23" d="M396,266.6c0,0.9-0.9,1.6-2.1,1.6h-95.5c-1.2,0-2.1-0.7-2.1-1.6s0.9-1.6,2.1-1.6h95.5
			C395.1,265,396,265.7,396,266.6z"/>
		<path class="st2" d="M477.9,427.3c-1.1-13-9.2-42.4-20.1-46.2c-6.7-2.4-23.7,4.8-35.7,10.6c1-4.4,1.7-8.8,1.7-8.8l-33.3-34.8
			l0.5,4.5l11.9,31.3c0,0-4.7,5.2-3.6,7c1,1.8,7.8,3.1,7.8,3.1s-2.1,0.5-0.8,3.9c1.3,3.4,4.1,6.7,4.1,6.7s0.1-0.1,0.4-0.2
			c0.6,0.6,1.3,1.3,2.2,2c6.5,4.9,7.9,5.1,7.9,5.1s2.7-0.5,3.8,13.6c1.1,14.1-3.3,19,3.8,27.7c7.1,8.7,59.3,67.9,59.3,67.9
			S478.9,440.4,477.9,427.3z"/>
		<path class="st24" d="M420.3,358.2c0,0-6.4,7-11.6,10.5c-5.2,3.5-8.9,8.1-4.1,10.5c2.9,1.4,7-0.6,7-0.6s-6.4,1.7-7.6,7.6
			c-1.2,5.8,11.6,3.5,11.6,3.5s-9.3,6.4-6.4,8.7c2.9,2.3,8.7,0.6,11.6,0.6c2.9,0,17.5-9.3,21-9.3c3.5,0,10.5,7.6,10.5,13.4
			c0,5.8,9.3,5.2,10.5-12.8c1.2-18-3.5-33.2-11.1-37.8S420.3,358.2,420.3,358.2z"/>
		<path class="st20" d="M416.8,378l23.2-8.7c0,0,10.2-2.2,17.5,9.8"/>
		<path class="st20" d="M420.8,385l21-3.5c0,0,9.3-0.6,15.1,10.5"/>
		<path class="st25" d="M558.8,510.4c-12.8-12.3-67-59.4-67.5-62.6c-0.6-3.5-2.9-44.2-2.9-50.1c0-5.8-11.6-19.8-11.6-19.8
			s-4.8-6.9-7.1-18.5c-2.3-11.6-13-16.4-18.8-15.8c-5.8,0.6-21.8,2.3-28.2,7c-6.4,4.7-12.2,10.5-6.4,12.2c9.7,2.9,25.5-10,33.1-1.1
			c3.5,4.1,7.6,22,8.2,24.4c0,0,0.9,4-2.2,6.8c-3.1,2.7-8.9,6-8.9,6s-9.5,2.8-13.5,3.1c-4.1,0.3-4.1,20,0.3,25.8
			c4.4,5.8,10.9,32.6,16.3,39.4c5.2,6.5,51.5,75.8,51.5,75.8"/>
		<path class="st20" d="M558.8,510.4c-12.8-12.3-67-59.4-67.5-62.6c-0.6-3.5-2.9-44.2-2.9-50.1c0-5.8-11.6-19.8-11.6-19.8
			s-4.8-6.9-7.1-18.5c-2.3-11.6-13-16.4-18.8-15.8c-5.8,0.6-21.8,2.3-28.2,7c-6.4,4.7-12.2,10.5-6.4,12.2c9.7,2.9,25.5-10,33.1-1.1
			c3.5,4.1,7.6,22,8.2,24.4c0,0,0.9,4-2.2,6.8c-3.1,2.7-8.9,6-8.9,6s-9.5,2.8-13.5,3.1c-4.1,0.3-4.1,20,0.3,25.8
			c4.4,5.8,10.9,32.6,16.3,39.4c5.2,6.5,51.5,75.8,51.5,75.8"/>
		<path class="st14" d="M388.1,345.2c0.2-0.2,0.5-0.2,0.7-0.1l2.8,1.3c0.5,0.3,0.6,1,0.3,1.5c-0.3,0.5-1,0.6-1.5,0.3l-2.2-2.1
			C388,345.8,387.9,345.5,388.1,345.2C388.1,345.2,388.1,345.2,388.1,345.2z"/>
		<path class="st26" d="M390.6,346.8c0.8-0.9,2.2-1,3.2-0.3l7.5,3.8l73.2,48.2c2.6,1.8,3.3,5.4,1.4,8.1c-1.8,2.6-5.4,3.3-8.1,1.4
			l-71.1-52.4l-5.8-5c-1.1-0.8-1.4-2.3-0.6-3.4C390.4,347,390.5,346.9,390.6,346.8z"/>
		<path class="st14" d="M474.5,398.5l-21.1-13.9c-3.4,1.1-5.8,4-5.8,7.5c0,0.3,0,0.7,0.1,1l20.2,14.9c2.6,1.8,6.2,1.2,8.1-1.4
			C477.8,403.9,477.1,400.3,474.5,398.5z"/>
		<path class="st25" d="M447.9,464.3c-23-26-19.2-40.4-22.7-45c-3.5-4.7-5.6-9-9.1-19.5c-3.5-10.5-5.8-18.8-5.8-27.5
			s7.5-10.2,13.3-0.9c5.8,9.3,12.9,23.6,12.9,23.6s4.7,5.8,14,4.1"/>
		<path class="st20" d="M447.9,464.3c-23-26-19.2-40.4-22.7-45c-3.5-4.7-5.6-9-9.1-19.5c-3.5-10.5-5.8-18.8-5.8-27.5
			s7.5-10.2,13.3-0.9c5.8,9.3,12.9,23.6,12.9,23.6s4.7,5.8,14,4.1"/>
		<path class="st25" d="M436.6,394.9c0,0,6.5,6.2,9.5,11.2L436.6,394.9z"/>
		<path class="st20" d="M436.6,394.9c0,0,6.5,6.2,9.5,11.2"/>
		<path class="st27" d="M417.7,368.5l1.9,3.9c0,0-0.4,0-3.5,1.8c-3.1,1.8-4.5,4.4-4.5,4.4s-3-8.4-0.3-11c0.8-0.8,1.6-1.2,2.4-1.3
			C415.3,366,416.9,367,417.7,368.5z"/>
		<path class="st25" d="M426,389.7c0.3,0,0.6-0.1,0.9-0.1L426,389.7z"/>
		<path class="st20" d="M426,389.7c0.3,0,0.6-0.1,0.9-0.1"/>
		<path class="st25" d="M417.3,394.6c0,0,0.5-3.2,6.9-4.5L417.3,394.6z"/>
		<path class="st20" d="M417.3,394.6c0,0,0.5-3.2,6.9-4.5"/>
		<path class="st25" d="M424.2,392.3c0,0-0.4,1.3-4.9,3.1L424.2,392.3z"/>
		<path class="st20" d="M424.2,392.3c0,0-0.4,1.3-4.9,3.1"/>
		<path class="st25" d="M424,388c0,0-3.9,0.6-6.2,2.5L424,388z"/>
		<path class="st20" d="M424,388c0,0-3.9,0.6-6.2,2.5"/>
	</g>
</g>
<g>
	<defs>
		<rect id="SVGID_00000163788886695354886000000011164908530271492266_" x="-29" y="200.1" width="163" height="192"/>
	</defs>
	<clipPath id="SVGID_00000165225396155254958920000012914500573299598979_">
		<use xlink:href="#SVGID_00000163788886695354886000000011164908530271492266_"  style="overflow:visible;"/>
	</clipPath>
	<g style="clip-path:url(#SVGID_00000165225396155254958920000012914500573299598979_);">
		<g>
			<defs>
				<polygon id="SVGID_00000133531365917583400460000017775221475921799308_" points="-2.4,316.6 102.8,231.5 146.8,286.4 
					41.6,371.5 				"/>
			</defs>
			<clipPath id="SVGID_00000067951376376991052290000013472083002336807098_">
				<use xlink:href="#SVGID_00000133531365917583400460000017775221475921799308_"  style="overflow:visible;"/>
			</clipPath>
			<g style="clip-path:url(#SVGID_00000067951376376991052290000013472083002336807098_);">
				<g>
					<g>
						<path class="st30" d="M37.2,354.2c2.2-0.6,3.2-2.7,3.1-6.3c2.4-1.2,4.7-2.4,6.8-3.6c3.1-1.7,5.8-3.2,8.3-4.7
							c5.1-3,9.4-5.9,13.1-8.5c3.6-2.6,3.8-9.5,0.5-20.5c-0.3-1.1-0.7-2.2-1-3.2c-0.4-1.2-0.7-2.3-1.1-3.3l4.9-3.4l3.3-1.6
							c0.7,0.8,1.5,1.7,2.4,2.7c0.8,0.8,1.6,1.7,2.4,2.6c7.9,8.3,14,11.5,18,9.6c4.1-1.9,8.7-4.3,13.8-7.3c4.3-2.5,9.1-5.5,14.4-9.1
							c2.8,1.6,4.9,1.8,6.4,0.5c0.3-0.2,0.5-0.5,0.7-0.7c2.1-2.8,1.6-5-1.5-6.6c0.2-1.1,0.3-2.3,0.3-3.4c-0.1-3.5-1.2-8.2-3.2-14.3
							c-1-3.3-2.5-6.4-4.4-9.3l0.6-0.5c0.4-0.2,0.6-0.6,0.7-1c0.1-0.4,0.1-0.9-0.1-1.3c-0.4-0.8-1-1.6-1.7-2.2c0,0,0,0,0,0
							c0,0,0-0.1-0.1-0.1c-0.2-0.2-0.4-0.3-0.7-0.4c-0.3-0.1-0.5-0.1-0.8-0.1c-0.2,0-0.4,0.1-0.6,0.2l-1.9,1.3
							c-1-0.5-2.2-0.7-3.3-0.8c-1.1,0-2.3,0.2-3.4,0.6c-6.6,2.3-14.3,6.2-22.9,11.6c-8.1,5.1-13.4,8.6-15.9,10.5l-0.5,0.4
							c-2.1,1.7-3.8,3.9-4.7,6.4c-0.1,0.4-0.2,0.8-0.1,1.2c-0.7,1-1.5,1.9-2.4,2.7c-1.5,1.2-3.4,1.8-5.3,1.9
							c-0.3-0.2-0.7-0.4-1.1-0.5c0,0-0.1,0-0.1,0c-0.5-0.1-1.1-0.1-1.6-0.1l-0.4,0c-0.5,0-1,0-1.5,0.1l-0.4,0
							c-0.6,0.1-1.1,0.2-1.7,0.3l-0.1,0c-0.7,0.2-1.4,0.4-2,0.7c-2.7,1.1-8.5,4.1-17.4,9c-8.9,4.9-16,9.7-21.3,14.4
							c-0.9,0.7-1.6,1.6-2.1,2.6c-0.5,1-0.9,2.1-1,3.2c-1.4,0.6-2.2,1-2.4,1.2l-0.2,0.2c-0.3,0.2-0.5,0.5-0.6,0.9
							c-0.1,0.3-0.1,0.7,0,1.1c0.2,0.9,0.6,1.8,1.1,2.6c0.2,0.3,0.5,0.6,0.9,0.7c0.4,0.1,0.7,0.1,1.1,0l0.4-0.1l1-0.4
							c1.6,3.1,3.6,6,6,8.5c4.3,4.7,7.9,8,10.8,9.8c0.9,0.6,2,1.1,3,1.4c-0.2,3.8,1.5,5.4,5,4.9C36.8,354.3,37,354.3,37.2,354.2z
							 M67.3,297.5c0.8-0.6,1.8-1.1,2.8-1.4l-1.1,0.8l-1.4,0.6l-0.6,0.3L67.3,297.5z"/>
					</g>
				</g>
				<path class="st31" d="M86,277.9l-27.3,18.8c-8.6,6-14.5,10.1-17.5,12.4c-2.8,2-5,4.7-6.4,7.8c-1.2,2.9-1.9,6.1-1.9,9.3
					c0,3.3,0.2,7.3,0.6,12c0.4,4.7-0.8,7.3-3.5,7.7c-3.6,0.5-5.3-1.1-5.1-4.9c1-9.2,1.9-15.7,2.9-19.5c1.1-4.4,4.1-8.7,8.8-12.9
					c4.7-4.1,13.3-10.8,25.6-19.9c19.5-14.4,33-24.4,40.6-29.9c7.5-5.5,11.6-8.5,12.3-8.9c0.7-0.4,1.4-0.3,2.2,0.4
					c0.7,0.6,1.3,1.4,1.7,2.2c0.2,0.4,0.2,0.8,0.1,1.3c-0.1,0.4-0.4,0.8-0.7,1c-0.8,0.7-4,3.1-9.6,7.1
					C103.1,266,95.6,271.3,86,277.9z"/>
				<path class="st32" d="M85.8,277.6c-9.9,6.8-19.8,13.6-29.6,20.4c-3.9,2.7-7.7,5.3-11.5,8.1c-3.3,2.4-6.6,4.7-8.9,8.2
					c-2.8,4.4-3.4,9.5-3.3,14.6c0.1,2.7,0.2,5.4,0.5,8.1c0.2,2.3,0.7,5.3-0.8,7.3c-0.5,0.7-1.3,1.2-2.2,1.3
					c-1.1,0.3-2.3,0.1-3.3-0.4c-2.2-1.4-1.3-5-1.1-7.1c0.5-4.6,1.1-9.3,2-13.9c0.3-1.8,0.8-3.5,1.4-5.2c0.9-2.2,2.2-4.2,3.7-6
					c2.6-2.9,5.5-5.5,8.6-7.9c7.9-6.4,16.1-12.5,24.3-18.6l24.5-18.1c5.9-4.4,11.8-8.7,17.8-13c2.3-1.7,4.6-3.4,7-5
					c0.8-0.5,1.4-0.2,2.1,0.4c0.7,0.7,2,2.1,1.4,3.2c-0.3,0.4-0.7,0.8-1.1,1.1c-0.5,0.4-1,0.8-1.5,1.2c-7.5,5.6-15.2,11-22.8,16.3
					L85.8,277.6c-0.5,0.3,0,1,0.5,0.7c8.6-5.9,17.3-11.9,25.7-18.1c1.6-1.2,3.3-2.4,4.9-3.7c0.9-0.7,2.2-1.4,2.5-2.6
					c0.4-1.1-0.4-2.1-1-2.9c-0.6-0.8-1.6-1.8-2.7-1.8c-0.9,0-1.7,0.8-2.3,1.2c-6,4.3-12,8.7-18,13.1c-7.5,5.5-14.9,11-22.3,16.5
					c-9.2,6.8-18.5,13.6-27.5,20.7c-2.9,2.3-5.8,4.6-8.6,6.9c-3.6,3.1-6.9,6.7-8.7,11.1c-0.7,1.7-1.2,3.5-1.5,5.3
					c-0.4,2.1-0.7,4.1-1,6.2c-0.4,2.7-0.7,5.4-1,8c-0.2,2.2-0.9,5.2,0.9,7c1.4,1.4,3.9,1.4,5.6,0.7c1.8-0.8,2.5-2.8,2.7-4.6
					c0.1-1.5,0.1-2.9-0.1-4.4c-0.1-1.5-0.2-2.9-0.3-4.4c-0.2-2.6-0.2-5.1-0.1-7.7c0.2-2.8,0.8-5.6,2-8.1c1.2-2.4,2.8-4.6,4.9-6.4
					c2.9-2.4,5.9-4.6,9.1-6.7c9.7-6.8,19.4-13.5,29.2-20.2l7.7-5.3C86.7,278,86.3,277.2,85.8,277.6z"/>
				<path class="st31" d="M39.9,304.9l29.7-14.7c9.4-4.6,15.8-7.7,19.3-9.3c3.1-1.5,6.5-2.1,9.9-1.8c3.2,0.3,6.2,1.3,9,2.9
					c2.9,1.6,6.3,3.7,10.2,6.4c3.9,2.7,6.7,2.9,8.4,0.7c2.2-2.9,1.6-5.2-1.9-6.8c-8.4-3.6-14.6-6-18.4-7c-4.4-1.2-9.6-0.7-15.5,1.4
					c-5.9,2.2-15.9,6.4-29.9,12.6c-22.1,10-37.3,17-45.8,20.9c-8.5,3.9-13.1,6-13.7,6.4c-0.7,0.4-0.9,1.1-0.7,2.1
					c0.2,0.9,0.6,1.8,1.1,2.6c0.2,0.4,0.6,0.6,1,0.7c0.4,0.1,0.9,0.1,1.3-0.1c1-0.3,4.7-2,10.9-4.9C21.2,314,29.5,310,39.9,304.9z"
					/>
				<path class="st32" d="M40.2,305.2c11.2-5.5,22.3-11.1,33.5-16.6c4.2-2.1,8.4-4.1,12.6-6.1c1.7-0.8,3.4-1.5,5.1-2.2
					c2.4-0.8,5-1.1,7.5-0.9c5.5,0.6,10.1,3.4,14.6,6.3c1.3,0.8,2.6,1.7,3.8,2.6c1.1,0.8,2.2,1.4,3.4,2c1.6,0.6,3.4,0.9,5-0.1
					c0.7-0.5,1.3-1.2,1.8-2c0.4-0.8,0.7-1.7,0.7-2.6c-0.1-1.9-1.9-3.2-3.5-3.9c-4.7-2.1-9.5-4-14.4-5.7c-1.7-0.6-3.3-1.1-5.1-1.5
					c-2.2-0.4-4.5-0.5-6.7-0.2c-4.2,0.5-8.2,2-12.1,3.5c-9.5,3.8-18.9,8-28.2,12.2c-9.7,4.4-19.4,8.8-29,13.2
					c-7,3.2-14.1,6.5-21.1,9.7l-4.8,2.2c-0.8,0.3-1.5,0.7-2.2,1.1c-0.8,0.7-0.8,1.8-0.5,2.7c0.3,0.9,0.9,2.5,2,3
					c1.1,0.5,2.6-0.3,3.7-0.8c8.8-3.8,17.4-8.1,26-12.3L40.2,305.2c0.5-0.3,0-0.9-0.4-0.7c-9.3,4.6-18.6,9.2-28,13.5
					c-1.9,0.9-3.8,1.8-5.7,2.6c-0.9,0.4-2.6,1.5-3.5,0.7c-0.5-0.5-0.8-1.1-1-1.7c-0.3-0.7-0.4-1.4-0.3-2.1c0.1-0.2,0.2-0.4,0.4-0.5
					c0.2-0.1,0.4-0.3,0.6-0.3c1-0.5,2-1,3-1.4c6.8-3.2,13.6-6.3,20.5-9.4c8.6-3.9,17.2-7.9,25.8-11.8c10.1-4.6,20.1-9.2,30.3-13.4
					c3.2-1.3,6.3-2.6,9.5-3.8c4.5-1.6,9.5-2.6,14.2-1.5c3.8,1,7.6,2.3,11.3,3.9c1.3,0.5,2.5,1,3.8,1.6c1.4,0.6,2.8,1.1,4.2,1.8
					c1.6,0.8,3.2,2.2,2.6,4.2c-0.5,1.6-1.8,3.3-3.6,3.4c-2.3,0.1-4.5-1.6-6.3-2.8c-2.2-1.5-4.5-3-6.8-4.4c-2.1-1.3-4.4-2.4-6.8-3.3
					c-2.4-0.8-4.9-1.2-7.4-1c-2.5,0.2-5,0.8-7.3,1.8c-3.3,1.4-6.5,3-9.7,4.5C68.8,290,58.4,295.2,48,300.4l-8.2,4.1
					C39.2,304.8,39.7,305.4,40.2,305.2z"/>
				<path class="st31" d="M106.5,251.1c-6.6,2.3-14.3,6.2-22.9,11.6s-14,9.1-16.3,10.9c-2.1,1.7-3.8,3.9-4.7,6.4
					c-0.1,0.4-0.2,0.8-0.1,1.2c-0.8,1.4-2,2.5-3.3,3.3c-1.4,0.8-2.9,1.2-4.5,1.3c-0.3-0.3-0.7-0.4-1.1-0.5c-2.7-0.4-5.4,0-7.9,1
					c-2.7,1.1-8.5,4.1-17.4,8.9c-8.9,4.9-16,9.7-21.3,14.4c-5.3,4.7-3.9,11.5,4.2,20.3c4.3,4.7,7.9,8,10.8,9.8
					c3.3,2.1,6.5,2.5,9.4,1.1c6.7-3.4,12.5-6.6,17.3-9.4c5.1-3,9.5-5.9,13.1-8.5c3.6-2.6,3.8-9.5,0.5-20.6c-0.3-1.1-0.7-2.2-1-3.2
					c-0.8-2.6-1.7-5.1-2.8-7.5c0.8-1.2,1.9-2.2,3.1-2.9c1.2-0.7,2.6-1.2,4-1.3c1.3,1.8,3,3.8,5.1,6.1c0.8,0.8,1.6,1.7,2.4,2.6
					c7.9,8.3,14,11.5,18,9.6c4.1-1.9,8.7-4.3,13.8-7.3c4.9-2.8,10.4-6.4,16.7-10.6c2.7-1.9,3.9-4.8,3.6-8.7
					c-0.1-3.4-1.2-8.2-3.2-14.3C118.3,253.3,113.1,248.8,106.5,251.1L106.5,251.1z M85.7,265.9c7.6-4.8,14.3-8.2,20.2-10.3
					c5.3-1.9,9.6,1.2,12.7,9.2c0.3,0.8,0.6,1.6,0.8,2.4c1.7,5.2,2.6,9.3,2.6,12.2c0.2,3.4-1,5.9-3.3,7.6c-5.5,3.7-10.5,6.9-14.7,9.4
					c-4.5,2.6-8.6,4.8-12.2,6.5c-3.6,1.7-8.8-1-15.6-8.1c-1-1-1.9-2-2.8-2.9c-4.9-5.4-7-9-6.4-10.8c0.9-2.2,2.3-4.1,4.2-5.6
					C73.3,273.8,78.1,270.6,85.7,265.9L85.7,265.9z M45.2,290.8c2.2-0.9,4.6-1.3,6.9-1c1.9,0.3,4,3.9,6.3,11
					c0.4,1.1,0.8,2.4,1.2,3.7c2.8,9.4,2.6,15.3-0.6,17.6c-3.2,2.3-7,4.8-11.5,7.5c-4.3,2.5-9.4,5.3-15.3,8.3c-2.6,1.2-5.4,1-8.2-0.8
					c-2.5-1.5-5.7-4.3-9.4-8.3c-0.3-0.4-0.7-0.8-1-1.2c-6-7-6.8-12.4-2.4-16.3c4.7-4.1,10.9-8.3,18.8-12.6
					C37.7,294.4,42.9,291.8,45.2,290.8L45.2,290.8z"/>
				<path class="st33" d="M59.6,304.4c-0.4-1.3-0.8-2.6-1.2-3.7l-44.9,26.9c0.3,0.4,0.7,0.8,1,1.2c3.7,4,6.8,6.8,9.4,8.3
					c2.9,1.8,5.6,2,8.2,0.8c6-3,11.1-5.8,15.3-8.3c4.5-2.7,8.3-5.2,11.5-7.5C62.2,319.7,62.4,313.9,59.6,304.4z M73.5,291.8
					c0.8,0.9,1.8,1.9,2.7,2.9c6.9,7,12.1,9.7,15.6,8.1c3.6-1.7,7.6-3.8,12.2-6.5c4.3-2.5,9.2-5.6,14.7-9.4c2.4-1.7,3.5-4.2,3.3-7.6
					c-0.1-3-0.9-7-2.6-12.2c-0.3-0.9-0.6-1.6-0.8-2.4L73.5,291.8z"/>
				<path class="st34" d="M52.2,289.8c-2.4-0.3-4.7,0-6.9,1c-2.4,1-7.5,3.6-15.4,8c-7.8,4.3-14.1,8.6-18.8,12.6
					c-4.4,3.9-3.6,9.3,2.4,16.3l44.9-26.9C56.2,293.7,54.1,290.1,52.2,289.8L52.2,289.8z M105.9,255.6c-5.8,2.1-12.6,5.5-20.2,10.3
					c-7.6,4.8-12.4,8-14.4,9.6c-1.9,1.5-3.3,3.4-4.2,5.6c-0.7,1.8,1.4,5.4,6.4,10.8l45.1-27.1C115.5,256.7,111.3,253.7,105.9,255.6
					L105.9,255.6z"/>
				<path class="st32" d="M7.3,309.8c4.9-4.2,10.1-7.9,15.6-11.2c1.9-1.1,3.7-2.2,5.6-3.2c0.2-0.1,0.1-0.3,0-0.4
					c-0.1-0.1-0.2-0.1-0.3-0.1c-0.1,0-0.2,0-0.3,0.1c-6.1,3.3-12,7-17.5,11.3c-1.3,1-2.5,2-3.7,3.1C6.3,309.7,7,310.1,7.3,309.8z"/>
				<path class="st32" d="M6.7,309.4c-1,0.8-1.8,1.9-2.4,3.1c-0.6,1.2-0.9,2.5-0.9,3.8c0,3.2,1.6,6.3,3.4,8.9
					c2.8,3.9,6,7.4,9.5,10.6c2.7,2.5,5.9,5.2,9.6,6c1.8,0.4,3.6,0.2,5.3-0.5c1.2-0.5,2.4-1.2,3.6-1.8c1.2-0.6,2.3-1.2,3.5-1.9
					c4.3-2.3,8.5-4.6,12.6-7.1c2.2-1.3,4.4-2.7,6.6-4.2c1-0.7,2-1.3,2.9-2c0.7-0.5,1.5-1,2.1-1.6c2-1.9,2.5-4.9,2.5-7.5
					c0-4.6-1.3-9.2-2.6-13.6c-0.8-2.5-1.6-5-2.5-7.4c-0.2-0.5-0.4-1-0.6-1.5l-0.3-0.7c-0.2-0.4-0.1-0.5,0.1-0.8
					c0.8-1,1.7-1.8,2.8-2.4c1.1-0.6,2.4-1,3.7-1.1l-0.5-0.1c2.5,3.3,5.3,6.5,8.3,9.4c2.5,2.6,5.3,5,8.3,7c1.9,1.4,4.2,2.2,6.5,2.5
					c0.9,0.1,1.8-0.1,2.7-0.4c1.7-0.7,3.3-1.5,4.8-2.3c7.4-3.8,14.5-8,21.4-12.6c3.1-2,6.8-3.8,8-7.6c1-3.1,0.4-6.5-0.2-9.6
					c-0.8-4.1-2-8.1-3.5-12c-1.1-3.1-2.8-6-5-8.4c-1.6-1.8-3.8-2.9-6.1-3.1c-2.8-0.2-5.4,1-7.9,2c-7.6,3.1-14.7,7.4-21.6,11.7
					c-3.1,2-6.2,3.9-9.2,6c-1.9,1.2-3.7,2.6-5.5,4.1c-1.4,1.3-2.6,2.8-3.5,4.6c-0.2,0.4-0.4,0.9-0.6,1.3c-0.2,0.4-0.1,1-0.3,1.4
					c-0.5,0.9-1.2,1.7-2.1,2.3c-0.7,0.6-1.6,1.1-2.5,1.4c-0.8,0.3-2.1,0.7-2.9,0.3c-0.8-0.3-1.6-0.5-2.5-0.4c-0.9,0-1.8,0-2.6,0.1
					c-2.5,0.5-5,1.4-7.2,2.6c-2.9,1.4-5.8,2.9-8.6,4.5c-1.9,1-3.7,2-5.5,3c-0.5,0.3,0.3,0.6,0.6,0.4c4.8-2.6,9.6-5.3,14.6-7.7
					c1.7-0.9,3.5-1.6,5.4-2c1.5-0.3,2.9-0.4,4.4-0.3c0.8,0.1,1.3,0.6,2,0.5c0.7-0.1,1.4-0.2,2.1-0.4c1.3-0.4,2.6-1.1,3.6-2
					c0.6-0.5,1-1,1.5-1.6c0.2-0.2,0.4-0.5,0.6-0.8c0.1-0.4,0-0.8,0.1-1.2c1-2.7,2.8-5,5.1-6.6c3.5-2.7,7.3-5.1,11-7.5
					c5.7-3.7,11.5-7.2,17.5-10.3c2.5-1.3,5.1-2.4,7.7-3.5c1.9-0.8,3.9-1.6,6.1-1.4c4.4,0.4,7.2,4.6,9,8.2c1.4,3,2.5,6,3.4,9.2
					c0.8,2.8,1.5,5.6,1.9,8.4c0.3,2.6,0.4,5.3-0.8,7.7c-0.6,1.2-1.5,2.2-2.6,3c-1.4,1-3,2-4.5,3c-5.4,3.5-10.8,6.9-16.5,10
					c-2.8,1.6-5.7,3.1-8.6,4.4c-0.8,0.4-1.6,0.7-2.4,0.8c-0.7,0.1-1.5,0-2.2-0.1c-1.9-0.5-3.8-1.3-5.4-2.5c-2.3-1.6-4.5-3.5-6.5-5.5
					c-2.4-2.4-4.8-4.9-7-7.5c-0.4-0.5-0.9-1.1-1.3-1.6c-0.2-0.3-0.4-0.6-0.7-0.8c-0.2-0.3-0.3-0.6-0.6-0.6c-0.3,0-0.6,0-0.9,0.1
					c-1.1,0.2-2.2,0.5-3.2,1.1c-1.3,0.7-2.5,1.8-3.4,3c-0.3,0.5,0,0.9,0.3,1.4c0.3,0.7,0.6,1.5,0.9,2.2c1.2,3.2,2.3,6.6,3.2,9.9
					c0.8,2.9,1.4,5.8,1.6,8.8c0.2,2,0,4.1-0.6,6.1c-0.3,0.7-0.6,1.4-1.1,2.1c-0.7,0.7-1.5,1.4-2.3,1.9c-2.6,1.9-5.3,3.6-8,5.3
					c-5.5,3.4-11.2,6.6-16.9,9.5c-2.5,1.3-5.1,3.1-8.1,2.8c-2.5-0.2-4.8-1.6-6.8-3.1c-2.2-1.7-4.3-3.6-6.3-5.6
					c-2.2-2.2-4.3-4.6-6.1-7.1c-2.3-3.2-4.5-7.4-3.4-11.4c0.5-1.6,1.4-3.1,2.7-4.2c0.4-0.3-0.3-0.7-0.6-0.4L6.7,309.4z"/>
				<path class="st32" d="M119,264.6c-1.6-4.1-4.3-9.3-9.2-9.9c-2.3-0.3-4.4,0.6-6.4,1.4c-2.7,1.1-5.4,2.3-8,3.7
					c-6,3.1-11.7,6.8-17.3,10.4c-1.8,1.2-3.7,2.4-5.5,3.7c-1.9,1.3-3.6,3-4.9,4.9c-0.6,0.8-1,1.8-1.1,2.8c0,0.7,0.2,1.4,0.5,2
					c1.1,2.2,2.6,4.3,4.2,6.1c0.5,0.7,1.2,1.3,1.8,2c0.2,0.3,1.1,0,0.7-0.3c-1.9-2-3.7-4.3-5.2-6.6c-0.6-1.1-1.6-2.6-1.1-3.9
					c1.5-4.3,5.8-6.8,9.4-9.2c5.2-3.5,10.6-6.9,16.1-10c2.6-1.5,5.3-2.8,8.1-4.1c1.2-0.5,2.5-1.1,3.7-1.5c1-0.4,2.1-0.8,3.2-1
					c4.6-0.6,7.7,3.6,9.4,7.4c0.3,0.7,0.6,1.4,0.9,2.1C118.4,265.1,119.2,265,119,264.6L119,264.6z"/>
				<path class="st32" d="M119.9,267c-0.3-0.8-0.5-1.6-0.8-2.4c-0.1-0.1-0.1-0.2-0.2-0.2c-0.1,0-0.2,0-0.3,0c-0.2,0-0.4,0.2-0.3,0.4
					c0.3,0.8,0.6,1.6,0.8,2.4C119.2,267.6,120,267.5,119.9,267L119.9,267z"/>
				<path class="st32" d="M122.5,279.4c-0.1-4.2-1.4-8.4-2.6-12.3c-0.1-0.4-1-0.3-0.8,0.2c1.3,3.9,2.5,8,2.6,12.2
					C121.7,279.7,122.5,279.8,122.5,279.4z"/>
				<path class="st32" d="M119.1,287.2c1.2-0.8,2.1-2,2.7-3.3c0.6-1.4,0.9-3,0.8-4.5c0-0.4-0.9-0.4-0.9,0c0.1,1.5-0.1,2.9-0.7,4.3
					c-0.5,1.2-1.4,2.3-2.5,3.1C118,287,118.7,287.4,119.1,287.2L119.1,287.2z"/>
				<path class="st32" d="M104.3,296.5c5-2.9,9.9-6.1,14.7-9.4c0.4-0.3-0.3-0.7-0.6-0.4c-4.8,3.3-9.7,6.4-14.7,9.4
					C103.3,296.4,104,296.7,104.3,296.5z"/>
				<path class="st32" d="M92.1,303c4.2-2,8.2-4.2,12.2-6.5c0.4-0.3-0.3-0.6-0.6-0.4c-3.9,2.3-7.9,4.5-12,6.4
					C91.2,302.7,91.8,303.2,92.1,303L92.1,303z"/>
				<path class="st32" d="M75.9,294.8c2.2,2.4,4.8,4.6,7.5,6.4c1.8,1.3,3.8,2.1,6,2.3c1,0.1,1.9-0.1,2.8-0.5c0.5-0.2,0-0.7-0.4-0.5
					c-0.7,0.3-1.5,0.4-2.3,0.4c-0.8,0-1.6-0.2-2.3-0.5c-2.3-1-4.4-2.3-6.2-3.9c-1.5-1.2-2.8-2.6-4.2-3.9
					C76.4,294.2,75.6,294.5,75.9,294.8L75.9,294.8z"/>
				<path class="st32" d="M73.1,291.9c0.9,1,1.8,2,2.8,2.9c0.1,0.1,0.2,0.1,0.3,0.1c0.1,0,0.2,0,0.3,0c0.1-0.1,0.3-0.3,0.2-0.4
					c-0.9-1-1.8-1.9-2.8-2.9c-0.1-0.1-0.2-0.1-0.3-0.1c-0.1,0-0.2,0-0.3,0C73.1,291.6,73,291.8,73.1,291.9z"/>
				<path class="st32" d="M14,327.5c-1.7-1.9-3.1-4-4.2-6.3c-0.8-1.6-1.1-3.5-0.9-5.3c0.3-1.7,1.2-3.2,2.5-4.3
					c1.9-1.7,3.9-3.3,6-4.7c5.2-3.6,10.7-6.9,16.3-9.8c3.7-2,7.5-4.2,11.4-5.8c2.2-1.1,4.7-1.5,7.2-1.2c1.3,0.2,2.2,1.9,2.8,2.9
					c1.3,2.4,2.3,5,3.1,7.6c1,3,1.9,6,2.5,9c0.6,2.4,0.7,4.8,0.6,7.3c-0.1,1.6-0.7,3.2-1.7,4.5c-0.8,0.7-1.6,1.4-2.6,1.9
					c-1.2,0.8-2.4,1.6-3.6,2.4c-2.6,1.7-5.3,3.3-7.9,4.9c-2.6,1.5-5.2,2.9-7.8,4.3c-1.4,0.8-2.9,1.5-4.3,2.2
					c-1.1,0.7-2.4,1.1-3.7,1.3c-2.3,0.2-4.5-0.9-6.3-2.3c-2.1-1.5-4.1-3.2-5.9-5.1C16.1,329.9,15,328.8,14,327.5
					c-0.2-0.2-1,0-0.7,0.4c2,2.3,4.2,4.5,6.5,6.6c1.7,1.6,3.8,3,5.9,3.9c1.1,0.4,2.3,0.6,3.5,0.6c1.2-0.1,2.4-0.4,3.4-0.9
					c3-1.5,5.9-3,8.8-4.6c5.5-3,10.8-6.2,16-9.8c0.9-0.6,1.8-1.2,2.6-2c0.5-0.6,0.9-1.2,1.2-1.9c0.7-1.9,0.9-4,0.7-6
					c-0.3-3-0.8-5.9-1.7-8.7c-0.9-3.2-1.9-6.2-3.2-9.3c-0.7-1.9-1.7-3.7-3.1-5.2c-1.4-1.3-3.4-1.2-5.2-1c-2,0.3-4,1-5.8,1.9
					c-1.9,0.9-3.9,1.9-5.8,2.9c-5.8,3-11.5,6.1-17,9.7c-2.4,1.6-4.8,3.3-7.1,5.1c-1.6,1.3-3.4,2.6-4.5,4.5c-2,3.6-0.2,7.8,1.9,10.9
					c0.8,1.2,1.6,2.3,2.5,3.3C13.5,328.1,14.2,327.9,14,327.5z"/>
				<path class="st35" d="M49.7,288.1c0.1,0,0.2-0.1,0.3-0.2c0.1-0.1,0.1-0.2,0.1-0.3c0-0.1,0-0.2,0-0.3c0-0.1-0.1-0.2-0.1-0.3
					c-0.2-0.4-1-0.5-2.3-0.2s-1.8,0.8-1.4,1.5c0.1,0.2,0.6,0.3,1.4,0.2C48.3,288.6,49.1,288.4,49.7,288.1L49.7,288.1z M9.2,310.1
					l0.3,0.3c0.1,0.1,0.2,0.1,0.3,0.1s0.2,0,0.3-0.1c0.1-0.1,0.2-0.1,0.3-0.2c0.1-0.1,0.1-0.2,0.1-0.3c0-0.2,0-0.3-0.1-0.5
					c0-0.1-0.1-0.2-0.2-0.2c-0.1-0.1-0.2-0.1-0.3-0.1c-0.1,0-0.2,0-0.3,0c-0.1,0-0.2,0.1-0.3,0.1c-0.1,0-0.2,0.1-0.2,0.2
					c-0.1,0.1-0.1,0.2-0.1,0.3c0,0.1,0,0.2,0,0.3C9.1,309.9,9.1,310,9.2,310.1L9.2,310.1z M8.2,312.3c0.6-0.7,0.9-1.2,0.7-1.5
					c-0.4-0.6-1-0.5-1.8,0.4c-0.8,0.9-1.1,1.7-0.7,2.3c0,0.1,0.1,0.2,0.2,0.2c0.1,0.1,0.2,0.1,0.3,0.1c0.1,0,0.2,0,0.3,0
					c0.1,0,0.2-0.1,0.3-0.1c0.2-0.2,0.3-0.4,0.4-0.6C7.9,312.8,8,312.5,8.2,312.3L8.2,312.3z M59.9,287c0.7-0.4,0.9-0.8,0.6-1.3
					c-0.3-0.5-1-0.4-2.2,0.2c-1.2,0.6-1.7,1.1-1.4,1.7c0.1,0.1,0.2,0.3,0.4,0.3c0.2,0.1,0.3,0.1,0.5,0
					C58.6,287.8,59.3,287.5,59.9,287z M104.4,254c0.2,0.2,0.6,0.3,1.5,0.1c0.6-0.1,1.2-0.3,1.8-0.6c0.1-0.1,0.2-0.1,0.3-0.2
					c0.1-0.1,0.1-0.2,0.1-0.3c0-0.2,0-0.3-0.1-0.5c-0.2-0.4-1-0.4-2.2,0C104.5,252.8,104,253.4,104.4,254L104.4,254z M115.2,254.5
					c0-0.2,0-0.3-0.1-0.5c0-0.1-0.1-0.2-0.2-0.3c-0.1-0.1-0.2-0.1-0.3-0.1c-0.1,0-0.2,0-0.3,0c-0.1,0-0.2,0.1-0.3,0.1
					c-0.4,0.3-0.5,0.6-0.3,1c0.1,0.1,0.2,0.2,0.3,0.3c0.1,0.1,0.2,0.1,0.4,0.1c0.1,0,0.3,0,0.4-0.1c0.1-0.1,0.2-0.2,0.2-0.3
					C115.2,254.8,115.2,254.6,115.2,254.5L115.2,254.5z M111.4,254.1c0.2,0.1,0.4,0.1,0.6,0.1c0.2,0,0.4-0.1,0.6-0.2
					c0.5-0.3,0.5-0.8,0.1-1.4c-0.4-0.6-1.2-0.9-2.4-0.7c-1.2,0.2-1.6,0.6-1.2,1.3c0.1,0.1,0.1,0.2,0.2,0.2c0.1,0.1,0.2,0.1,0.3,0.1
					c0.6,0.1,1,0.2,1.1,0.2C110.9,253.9,111.2,254,111.4,254.1L111.4,254.1z"/>
			</g>
		</g>
	</g>
</g>
<path class="st2" d="M255.1,277.6c0,0-0.9,12-1.7,15.1c-0.8,3.1-6.4,15.4-7.2,18.4c-0.8,3.1-1.6,12.3-1.6,12.3l23.6-13.6
	c0,0-4.1,12.6-6.8,19c-2.7,6.4-8.5,19.9-8.1,21.5c0.4,1.6,0.1,8.4,0.1,8.4l14.5,5.5l22.1-15.8l8.9-6.5c0,0-16.4,18.2-20.9,26.2
	c-4.5,8-23,26.8-27.5,32.6c-4.6,5.8-16,11.3-20.4,13.7c-4.4,2.4-36.3,47.5-36.3,47.5l25.2-139.2l9.2-33.6l12.1-15.3l3.3,17.7
	L255.1,277.6z"/>
<path class="st25" d="M179.8,488l41.9-76.3c0,0,5.8-2.2,14.6-8.1c8.8-5.8,11.4-7.5,15-12.2c3.6-4.7,19.6-19.9,26.1-27.3
	c6.5-7.4,18.8-17,20.8-20c1.9-3-0.9-5.3-8.1-4.8c-7.2,0.5-13.6,4.1-21.5,10.7c-8,6.5-16.4,12.6-16.7,10.5
	c-0.3-2.1-1.4-12.5-0.6-16.4c0.7-3.9,12.6-27.1,12.7-28c0-0.9,1.8-2.3,4.3-6.4c2.5-4.1,6.9-9.3,6.2-14.9c-0.7-5.6-4.4-2.5-5.8-1.1
	c-1.5,1.3-12,9.8-14.5,12.7c-2.6,2.9-15.4,27.2-15.4,27.2l5.3-30.5c0,0,2.1-3.4,3.2-6.1c1.1-2.8,8.2-16.7,8-19.4
	c-0.2-2.7-3.6-5.1-6.5-3.4c-2.9,1.7-10.3,13.2-12.8,16.5c-5.3,6.9-10.9,28.8-10.9,28.8l5.8-25.2c0,0,6.8-10.8,8.3-14
	c1.6-3.2,2.7-9.6-0.5-11.5c-3.4-2-7.7,4.2-10.7,9.8c-2.8,5.1-7.1,11.8-7.1,11.8s2.3-4.9,0.5-8.1c-1.8-3.2-7,3.5-8.8,4.6
	c-1.8,1.1-14.6,21-16.6,23.7c-2,2.7-2.7,20.5-2.7,20.5l-8.5,48.9L97.3,488"/>
<path class="st20" d="M179.8,488l41.9-76.3c0,0,5.8-2.2,14.6-8.1c8.8-5.8,11.4-7.5,15-12.2c3.6-4.7,19.6-19.9,26.1-27.3
	c6.5-7.4,18.8-17,20.8-20c1.9-3-0.9-5.3-8.1-4.8c-7.2,0.5-13.6,4.1-21.5,10.7c-8,6.5-16.4,12.6-16.7,10.5
	c-0.3-2.1-1.4-12.5-0.6-16.4c0.7-3.9,12.6-27.1,12.7-28c0-0.9,1.8-2.3,4.3-6.4c2.5-4.1,6.9-9.3,6.2-14.9c-0.7-5.6-4.4-2.5-5.8-1.1
	c-1.5,1.3-12,9.8-14.5,12.7c-2.6,2.9-15.4,27.2-15.4,27.2l5.3-30.5c0,0,2.1-3.4,3.2-6.1c1.1-2.8,8.2-16.7,8-19.4
	c-0.2-2.7-3.6-5.1-6.5-3.4c-2.9,1.7-10.3,13.2-12.8,16.5c-5.3,6.9-10.9,28.8-10.9,28.8l5.8-25.2c0,0,6.8-10.8,8.3-14
	c1.6-3.2,2.7-9.6-0.5-11.5c-3.4-2-7.7,4.2-10.7,9.8c-2.8,5.1-7.1,11.8-7.1,11.8s2.3-4.9,0.5-8.1c-1.8-3.2-7,3.5-8.8,4.6
	c-1.8,1.1-14.6,21-16.6,23.7c-2,2.7-2.7,20.5-2.7,20.5l-8.5,48.9L97.3,488"/>
<path class="st20" d="M220.6,290.4l-6.3,9.6c-0.7,1-1.2,2.2-1.5,3.4l-8,28.4"/>
<path class="st20" d="M296.3,339.9l-4.2,1.5c0,0,3.6,1.8,2.1,6.2"/>
<path class="st20" d="M267.8,295.4c0,0,1.8-0.8,4.8,2c0,0,1.2-1.7,1.2-3.7"/>
<path class="st20" d="M245.8,277.5c0,0,3.4-0.2,5.5,0.7c0.9,0.4,2.1-1.1,2.4-2"/>
<path class="st20" d="M232.1,272.7c0,0,1.1-0.3,2.5-0.1c1.3,0.3,3.1,1,3.1,1s1.4-0.9,1.6-2.9"/>
<path class="st20" d="M215.1,284.9c0,0,1.9-0.8,3-0.2c1.7,0.8,1.1,1.6,1.1,1.6s2.1-1.5,2-2.7"/>
<path class="st20" d="M256.1,308.9c0,0,3.1,1,5.3,3.5"/>
<path class="st20" d="M254.6,309.9c0,0,2.3,1.5,4.7,2.4"/>
<path class="st20" d="M260.7,308.5l2.7,2"/>
<path class="st20" d="M277.1,348.6l3,2.9"/>
<path class="st20" d="M281.2,353.4l0.9,1"/>
<path class="st20" d="M282,348.2c0,0,1.9,3.5,2.6,7"/>
<path class="st20" d="M234.5,296.7c0,0,2.8-1.1,6,1.7"/>
<path class="st20" d="M236.9,299.8l3,0.7"/>
<path class="st20" d="M236.6,295.2l2,0.7"/>
<path class="st20" d="M218.2,297c0,0,2.6-1.7,5.8-0.1"/>
<path class="st20" d="M219.8,298.4c0,0,2,0.4,4.4,0.3"/>
<path class="st20" d="M222.4,294.3l2.2,0"/>
<path class="st20" d="M200.7,307.2c0,0,1.8-1.1,5.4-1.5"/>
<path class="st20" d="M206.2,303.8l3.2,0.3"/>
<path class="st20" d="M224.8,319.5L222,333"/>
<path class="st36" d="M370,345.4c-0.1,0.1-0.1,0.2-0.2,0.3c-0.4,0.4-0.7,0.9-1.1,1.3c-0.1,0.2-0.3,0.3-0.5,0.4
	c-0.2,0.1-0.4,0.1-0.6,0c-0.2,0-0.4-0.1-0.5-0.3c-0.1-0.1-0.2-0.3-0.2-0.5c0-0.3,0.1-0.6,0.2-0.9c0.4-0.6,0.8-1.1,1.3-1.6
	c0.2-0.3,0.5-0.5,0.9-0.6c0.3-0.1,0.7-0.2,1.1-0.2c0.4,0,0.7,0.2,1,0.4c0.3,0.2,0.6,0.5,0.7,0.8c0.1,0.2,0.2,0.3,0.2,0.4
	c0.1,0.1,0.2,0.2,0.3,0.3c0.1-0.1,0.1-0.2,0.2-0.3c0.2-0.7,0.5-1.5,0.7-2.3c0.1-0.4,0.4-0.8,0.7-1.1c0.3-0.3,0.7-0.5,1.2-0.6
	c0.4-0.1,0.9-0.1,1.3,0.1c0.4,0.1,0.8,0.4,1.1,0.7c0.2,0.2,0.3,0.4,0.4,0.7c0.3,0.7,0.7,1.3,1,1.9c0.5,1,1.4,1.1,2.2,0.5
	c0.5-0.5,1.1-0.5,1.5,0c0.1,0.1,0.2,0.2,0.2,0.4s0.1,0.3,0,0.5c0,0.2-0.1,0.3-0.1,0.4c-0.1,0.1-0.2,0.2-0.3,0.3
	c-0.4,0.4-0.9,0.6-1.4,0.8c-0.5,0.2-1,0.2-1.6,0.1c-0.5-0.1-1-0.3-1.5-0.6c-0.4-0.3-0.8-0.7-1-1.2c-0.4-0.7-0.7-1.4-1.1-2
	c0-0.1-0.1-0.2-0.2-0.2c-0.1-0.1-0.2-0.1-0.3-0.1c-0.3,0-0.4,0.2-0.5,0.5c-0.2,0.7-0.5,1.5-0.7,2.2c-0.1,0.4-0.4,0.8-0.7,1.1
	c-0.3,0.3-0.8,0.5-1.2,0.5c-0.5,0-0.9,0-1.3-0.3c-0.4-0.2-0.7-0.6-0.9-1c-0.1-0.2-0.2-0.5-0.4-0.7C370.1,345.4,370,345.4,370,345.4z
	"/>
<path class="st36" d="M384.3,345.5c0-0.3,0.1-0.6,0.3-0.7c0.2-0.2,0.5-0.3,0.8-0.3s0.6,0.1,0.8,0.3c0.2,0.2,0.3,0.5,0.3,0.7
	c0,0.3-0.1,0.6-0.3,0.8s-0.5,0.3-0.8,0.3c-0.1,0-0.3,0-0.4-0.1s-0.2-0.1-0.3-0.2c-0.1-0.1-0.2-0.2-0.2-0.4
	C384.3,345.7,384.3,345.6,384.3,345.5z"/>
</svg>
