<svg width="72" height="72" viewBox="0 0 72 72" fill="none" xmlns="http://www.w3.org/2000/svg">
<path d="M27.0343 0.714453C34.7592 0.714453 41.0443 6.99863 41.0443 14.7234C41.0443 22.4483 34.7591 28.7334 27.0343 28.7334C19.3095 28.7334 13.0244 22.4483 13.0244 14.7234C13.0244 6.99863 19.3095 0.714453 27.0343 0.714453ZM27.0346 3.04884C20.5966 3.04884 15.359 8.28644 15.359 14.7234C15.359 21.1614 20.5966 26.399 27.0346 26.399C33.4725 26.399 38.7101 21.1614 38.7101 14.7234C38.7101 8.28644 33.4725 3.04884 27.0346 3.04884Z" fill="black" stroke="#DBF9EA" stroke-width="0.3"/>
<path d="M50.9683 66.6467L51.1183 66.6467V66.4967V47.6538C51.1183 42.2504 46.7236 37.8545 41.3204 37.8545H12.7465C7.34312 37.8545 2.94813 42.2497 2.94813 47.6529V66.4958V66.6458L3.09812 66.6458L50.9683 66.6467ZM0.613501 67.8133V47.6538C0.613501 40.9626 6.05675 35.5201 12.747 35.5201L41.3209 35.521C48.0112 35.521 53.4537 40.9635 53.4537 47.6538V67.8133C53.4537 68.4582 52.9309 68.981 52.286 68.981H1.78119C1.13541 68.981 0.613501 68.4583 0.613501 67.8133Z" fill="black" stroke="#DBF9EA" stroke-width="0.3"/>
<rect x="41.4379" y="42.873" width="29.7741" height="28.3138" fill="#DBF9EA"/>
<path d="M61.8298 48.976V48.5417H65.4248C65.629 48.5417 65.7794 48.7084 65.7794 48.8964V53.235H45.177L45.1769 48.8965C45.1769 48.8965 45.1769 48.8965 45.1769 48.8965C45.1769 48.6922 45.3435 48.5418 45.5316 48.5418H49.1265V49.0293C49.1265 49.9621 49.8842 50.7197 50.817 50.7197H51.0295H51.0398L51.05 50.7183C51.8977 50.6015 52.534 49.8443 52.534 48.9761V48.5417H58.4224V49.0292C58.4224 49.9621 59.18 50.7197 60.1128 50.7197H60.3253H60.3356L60.3458 50.7183C61.1936 50.6014 61.8298 49.8443 61.8298 48.976ZM65.3981 47.4982H61.6874C61.476 46.8284 60.8614 46.3295 60.1126 46.3295C59.3613 46.3295 58.7486 46.8308 58.5153 47.4982H52.4179C52.2032 46.8258 51.5629 46.3295 50.8169 46.3295C50.0655 46.3295 49.4528 46.8308 49.2196 47.4982H45.5315C44.7602 47.4982 44.1067 48.1211 44.1067 48.923V67.1348C44.1067 67.9061 44.7296 68.5596 45.5315 68.5596H65.3715C66.1428 68.5596 66.7963 67.9367 66.7963 67.1348L66.7965 48.8964C66.7965 48.1229 66.1714 47.4982 65.3981 47.4982ZM59.4925 47.9935C59.4925 47.6514 59.7707 47.3734 60.1126 47.3734C60.4548 47.3734 60.7328 47.6515 60.7328 47.9935V49.0293C60.7328 49.3714 60.4546 49.6495 60.1126 49.6495C59.7705 49.6495 59.4925 49.3713 59.4925 49.0293V47.9935ZM50.1966 47.9935C50.1966 47.6514 50.4748 47.3734 50.8168 47.3734C51.1589 47.3734 51.4369 47.6515 51.4369 47.9935V49.0293C51.4369 49.3714 51.1588 49.6495 50.8168 49.6495C50.4747 49.6495 50.1966 49.3713 50.1966 49.0293V47.9935ZM65.7527 67.1083C65.7527 67.3126 65.5861 67.463 65.3981 67.463H45.5315C45.3272 67.463 45.1768 67.2963 45.1768 67.1083L45.177 54.3318H65.7528L65.7527 67.1083Z" fill="black" stroke="black" stroke-width="0.3"/>
</svg>
