<svg width="14" height="14" viewBox="0 0 14 14" fill="none" xmlns="http://www.w3.org/2000/svg">
<path d="M5.78074 11.2023C6.95604 11.203 8.09688 10.7901 9.01651 10.0309L12.176 13.3076L13.0265 12.4256L9.86701 9.14892C10.8512 7.85872 11.2156 6.17408 10.8573 4.57175C10.499 2.9691 9.45688 1.62273 8.02566 0.913403C6.5943 0.203926 4.92952 0.20842 3.50199 0.925883C2.07439 1.6432 1.03934 2.99521 0.689209 4.59976C0.339101 6.20428 0.712157 7.88688 1.70288 9.17173C2.69373 10.4566 4.19437 11.2039 5.78092 11.2026L5.78074 11.2023ZM5.78074 1.63261C6.84477 1.63261 7.86529 2.07101 8.6177 2.8513C9.37012 3.63158 9.79286 4.68989 9.79286 5.79333C9.79286 6.89678 9.37012 7.95509 8.6177 8.73537C7.86529 9.51566 6.84477 9.95406 5.78074 9.95406C4.71656 9.95406 3.69604 9.51566 2.94363 8.73537C2.19121 7.95509 1.76861 6.89678 1.76861 5.79333C1.76861 4.68989 2.19121 3.63158 2.94363 2.8513C3.69604 2.07101 4.71656 1.63261 5.78074 1.63261Z" fill="#0B1F42"/>
</svg>
