<svg width="34" height="24" viewBox="0 0 34 24" fill="none" xmlns="http://www.w3.org/2000/svg">
<path d="M9.20703 3.62695C9.01823 4.17383 8.85872 4.80208 8.72852 5.51172C8.59831 6.21484 8.5332 6.98958 8.5332 7.83594C8.5332 8.4349 8.55273 9.04036 8.5918 9.65234C8.63086 10.2643 8.66341 10.9219 8.68945 11.625C8.8457 11.5404 8.98242 11.498 9.09961 11.498C9.19076 11.498 9.27214 11.5306 9.34375 11.5957C9.41536 11.6543 9.45117 11.7324 9.45117 11.8301C9.45117 11.9733 9.38607 12.0807 9.25586 12.1523C9.12565 12.2174 8.9401 12.3021 8.69922 12.4062V13.2559C8.69922 14.7402 8.61133 16.1009 8.43555 17.3379C8.26628 18.5814 7.98958 19.6491 7.60547 20.541C7.22135 21.4395 6.71354 22.1393 6.08203 22.6406C5.45703 23.1419 4.69206 23.3926 3.78711 23.3926C3.40299 23.3926 3.02539 23.3177 2.6543 23.168C2.2832 23.0247 1.95117 22.8034 1.6582 22.5039C1.37174 22.2044 1.13737 21.8301 0.955078 21.3809C0.779297 20.9382 0.691406 20.4173 0.691406 19.8184C0.691406 19.1608 0.811849 18.5326 1.05273 17.9336C1.30013 17.3411 1.6224 16.7845 2.01953 16.2637C2.42318 15.7363 2.88216 15.2513 3.39648 14.8086C3.91081 14.3594 4.4349 13.9525 4.96875 13.5879C5.50911 13.2233 6.03971 12.9043 6.56055 12.6309C7.08138 12.3574 7.54688 12.1328 7.95703 11.957C7.94401 11.2865 7.91471 10.6159 7.86914 9.94531C7.82357 9.26823 7.80078 8.57487 7.80078 7.86523C7.80078 7.20117 7.83984 6.56315 7.91797 5.95117C8.0026 5.33268 8.11654 4.75651 8.25977 4.22266C8.00586 4.36589 7.72591 4.49935 7.41992 4.62305C7.12044 4.74674 6.80469 4.86393 6.47266 4.97461C6.14062 5.08529 5.79883 5.19271 5.44727 5.29688C5.10221 5.40104 4.76042 5.50195 4.42188 5.59961C3.90755 5.74935 3.4388 5.91536 3.01562 6.09766C2.59896 6.27344 2.24089 6.47852 1.94141 6.71289C1.64193 6.94727 1.40755 7.21419 1.23828 7.51367C1.07552 7.81315 0.994141 8.1582 0.994141 8.54883C0.994141 9.00456 1.08203 9.39193 1.25781 9.71094C1.43359 10.0299 1.66146 10.2904 1.94141 10.4922C2.22786 10.6875 2.54688 10.8307 2.89844 10.9219C3.25651 11.0065 3.61133 11.0488 3.96289 11.0488C4.06706 11.0488 4.15169 11.0846 4.2168 11.1562C4.28841 11.2279 4.32422 11.3158 4.32422 11.4199C4.32422 11.5241 4.28516 11.612 4.20703 11.6836C4.13542 11.7487 4.05404 11.7812 3.96289 11.7812C3.52018 11.7812 3.07747 11.7194 2.63477 11.5957C2.19857 11.4655 1.80469 11.2702 1.45312 11.0098C1.10156 10.7428 0.815104 10.4076 0.59375 10.0039C0.372396 9.60026 0.261719 9.125 0.261719 8.57812C0.261719 8.10286 0.35612 7.67969 0.544922 7.30859C0.740234 6.93099 1.01042 6.5957 1.35547 6.30273C1.70052 6.00977 2.11719 5.7526 2.60547 5.53125C3.09375 5.3099 3.63411 5.11458 4.22656 4.94531C4.65625 4.82161 5.08268 4.69141 5.50586 4.55469C5.92904 4.41797 6.32943 4.27799 6.70703 4.13477C7.09115 3.98503 7.44271 3.83203 7.76172 3.67578C8.08073 3.51302 8.35417 3.34375 8.58203 3.16797C8.84245 2.4388 9.1224 1.87891 9.42188 1.48828C9.72135 1.09115 10.0078 0.892578 10.2812 0.892578C10.3398 0.892578 10.4017 0.905599 10.4668 0.931641C10.5384 0.951172 10.6035 0.986979 10.6621 1.03906C10.7272 1.08464 10.7793 1.14974 10.8184 1.23438C10.8574 1.31901 10.877 1.42318 10.877 1.54688C10.877 1.83333 10.7272 2.15885 10.4277 2.52344C10.1283 2.88802 9.72135 3.25586 9.20703 3.62695ZM7.9668 12.7285C7.58919 12.8913 7.16602 13.0996 6.69727 13.3535C6.22852 13.6074 5.75 13.9036 5.26172 14.2422C4.77995 14.5807 4.30794 14.9551 3.8457 15.3652C3.38997 15.7754 2.97982 16.2148 2.61523 16.6836C2.25716 17.1589 1.96745 17.6569 1.74609 18.1777C1.53125 18.7051 1.42383 19.2487 1.42383 19.8086C1.42383 20.2839 1.49219 20.7005 1.62891 21.0586C1.76562 21.4167 1.94792 21.7161 2.17578 21.957C2.41016 22.1979 2.67383 22.377 2.9668 22.4941C3.26628 22.6178 3.57227 22.6797 3.88477 22.6797C4.42513 22.6797 4.90039 22.5527 5.31055 22.2988C5.7207 22.0514 6.07552 21.7031 6.375 21.2539C6.68099 20.8112 6.9349 20.2806 7.13672 19.6621C7.33854 19.0501 7.5013 18.373 7.625 17.6309C7.7487 16.8952 7.83659 16.1139 7.88867 15.2871C7.94076 14.4538 7.9668 13.6009 7.9668 12.7285ZM30.6953 16.498C30.7214 16.5436 30.7344 16.599 30.7344 16.6641C30.7344 16.7617 30.6986 16.8464 30.627 16.918C30.5618 16.9896 30.474 17.0254 30.3633 17.0254C30.2917 17.0254 30.2266 17.0091 30.168 16.9766C30.1159 16.944 30.0736 16.8952 30.041 16.8301C29.9173 16.5892 29.8066 16.2897 29.709 15.9316C29.6178 15.5671 29.5365 15.1634 29.4648 14.7207C29.3997 14.278 29.3444 13.8027 29.2988 13.2949C29.2598 12.7806 29.2272 12.25 29.2012 11.7031C28.7129 11.7682 28.1628 11.8398 27.5508 11.918C26.9453 11.9961 26.252 12.0872 25.4707 12.1914C24.9238 12.2695 24.3672 12.3379 23.8008 12.3965C22.4076 13.9134 20.9395 15.0658 19.3965 15.8535C17.86 16.6348 16.3171 17.0254 14.7676 17.0254C14.0775 17.0254 13.4785 16.957 12.9707 16.8203C12.4694 16.6901 12.0527 16.5436 11.7207 16.3809C11.3952 16.2116 11.151 16.0553 10.9883 15.9121C10.819 15.7689 10.7279 15.6908 10.7148 15.6777C10.6497 15.6126 10.6172 15.528 10.6172 15.4238C10.6172 15.3197 10.653 15.2318 10.7246 15.1602C10.7962 15.0885 10.8809 15.0527 10.9785 15.0527C11.0892 15.0527 11.1803 15.0918 11.252 15.1699C11.265 15.1829 11.3431 15.2513 11.4863 15.375C11.6296 15.4922 11.8411 15.6191 12.1211 15.7559C12.4076 15.8926 12.7689 16.0163 13.2051 16.127C13.6413 16.2376 14.1589 16.293 14.7578 16.293C15.5781 16.293 16.3626 16.1823 17.1113 15.9609C17.86 15.7396 18.5664 15.4531 19.2305 15.1016C19.901 14.7435 20.5228 14.3366 21.0957 13.8809C21.6751 13.4251 22.1992 12.9629 22.668 12.4941C22.2057 12.5332 21.7467 12.5625 21.291 12.582C20.8353 12.6016 20.3861 12.6113 19.9434 12.6113C19.071 12.6113 18.2409 12.5625 17.4531 12.4648C16.6654 12.3672 15.972 12.2044 15.373 11.9766C14.7741 11.7422 14.2956 11.4329 13.9375 11.0488C13.5859 10.6647 13.4102 10.1862 13.4102 9.61328C13.4102 9.35286 13.4622 9.09245 13.5664 8.83203C13.6771 8.57161 13.8073 8.33724 13.957 8.12891C14.1068 7.91406 14.263 7.74154 14.4258 7.61133C14.5885 7.47461 14.7285 7.40625 14.8457 7.40625C14.9368 7.40625 15.0215 7.4388 15.0996 7.50391C15.1777 7.56901 15.2168 7.6569 15.2168 7.76758C15.2168 7.82617 15.2038 7.88477 15.1777 7.94336C15.1517 7.99544 15.1126 8.03776 15.0605 8.07031C15.0475 8.08333 14.9922 8.12891 14.8945 8.20703C14.7969 8.28516 14.6927 8.39258 14.582 8.5293C14.4714 8.65951 14.3704 8.81901 14.2793 9.00781C14.1882 9.1901 14.1426 9.38867 14.1426 9.60352C14.1426 9.97461 14.2695 10.3034 14.5234 10.5898C14.7839 10.8698 15.1582 11.1074 15.6465 11.3027C16.1413 11.4915 16.7467 11.6348 17.4629 11.7324C18.179 11.8301 18.9961 11.8789 19.9141 11.8789C20.4414 11.8789 20.998 11.8626 21.584 11.8301C22.1699 11.7975 22.7884 11.7487 23.4395 11.6836C23.752 11.3385 24.0286 11.013 24.2695 10.707C24.5104 10.401 24.7155 10.1276 24.8848 9.88672C25.1647 9.48958 25.4577 9.06641 25.7637 8.61719C26.0697 8.16797 26.3724 7.71224 26.6719 7.25C26.9779 6.78776 27.2741 6.33203 27.5605 5.88281C27.8535 5.42708 28.127 5.00065 28.3809 4.60352C28.6348 4.19987 28.8626 3.83529 29.0645 3.50977C29.2663 3.17773 29.4323 2.9043 29.5625 2.68945C29.6016 2.51367 29.6602 2.35417 29.7383 2.21094C29.8164 2.0612 29.9434 1.98633 30.1191 1.98633C30.2168 1.98633 30.3112 2.02865 30.4023 2.11328C30.4935 2.19141 30.5391 2.29232 30.5391 2.41602C30.5391 2.50716 30.5065 2.60482 30.4414 2.70898C30.3763 2.81315 30.3145 2.90104 30.2559 2.97266C30.2363 3.09635 30.2038 3.36003 30.1582 3.76367C30.1191 4.16732 30.0768 4.66211 30.0312 5.24805C29.9922 5.82747 29.9564 6.46875 29.9238 7.17188C29.8978 7.86849 29.8848 8.57487 29.8848 9.29102C29.8848 9.55794 29.8848 9.82161 29.8848 10.082C29.8848 10.3424 29.8913 10.6061 29.9043 10.873C30.8809 10.7493 31.5938 10.6647 32.043 10.6191C32.4922 10.5671 32.7298 10.541 32.7559 10.541C32.8405 10.541 32.9219 10.5768 33 10.6484C33.0846 10.7135 33.127 10.8014 33.127 10.9121C33.127 11.0033 33.0944 11.0846 33.0293 11.1562C32.9707 11.2214 32.8926 11.2604 32.7949 11.2734C32.6777 11.2865 32.541 11.3027 32.3848 11.3223C32.2285 11.3418 32.0365 11.3646 31.8086 11.3906C31.5807 11.4167 31.3138 11.4492 31.0078 11.4883C30.7018 11.5208 30.3438 11.5632 29.9336 11.6152C29.9531 12.1491 29.9824 12.6634 30.0215 13.1582C30.0671 13.6465 30.1191 14.1022 30.1777 14.5254C30.2428 14.9486 30.3177 15.3294 30.4023 15.668C30.487 16.0065 30.5846 16.2832 30.6953 16.498ZM25.373 11.459C26.1413 11.3548 26.8379 11.2637 27.4629 11.1855C28.0944 11.1009 28.6641 11.026 29.1719 10.9609C29.1654 10.681 29.1589 10.401 29.1523 10.1211C29.1523 9.84115 29.1523 9.55794 29.1523 9.27148C29.1523 8.35352 29.1686 7.47786 29.2012 6.64453C29.2337 5.80469 29.2793 5.07552 29.3379 4.45703C29.0775 4.86719 28.7878 5.32292 28.4688 5.82422C28.1562 6.31901 27.8307 6.82682 27.4922 7.34766C27.1536 7.86198 26.8118 8.37305 26.4668 8.88086C26.1217 9.38867 25.793 9.86393 25.4805 10.3066C25.3242 10.528 25.1647 10.7428 25.002 10.9512C24.8392 11.1595 24.6764 11.3646 24.5137 11.5664C24.6569 11.5534 24.7969 11.5371 24.9336 11.5176C25.0768 11.498 25.2233 11.4785 25.373 11.459Z" fill="#1A2434"/>
</svg>
