<svg width="14" height="13" viewBox="0 0 14 13" fill="none" xmlns="http://www.w3.org/2000/svg">
<path d="M13.9795 2.25176C13.5003 2.47894 12.9846 2.63219 12.4436 2.70077C12.996 2.34799 13.4196 1.78919 13.6194 1.12259C13.1026 1.44968 12.5306 1.68703 11.9213 1.81516C11.4336 1.26087 10.7386 0.914307 9.96944 0.914307C8.4928 0.914307 7.29557 2.19136 7.29557 3.76672C7.29557 3.98996 7.31911 4.20755 7.36489 4.41668C5.14239 4.29758 3.17178 3.1622 1.85283 1.43642C1.62264 1.85749 1.49088 2.34743 1.49088 2.87067C1.49088 3.86014 1.9629 4.73333 2.68045 5.24472C2.2423 5.22976 1.82981 5.10135 1.46919 4.88771C1.46892 4.89956 1.46892 4.9117 1.46892 4.92383C1.46892 6.30559 2.39073 7.45818 3.61416 7.72065C3.38979 7.78556 3.15352 7.82056 2.90958 7.82056C2.73707 7.82056 2.56959 7.80278 2.40634 7.76919C2.74686 8.90231 3.73428 9.72725 4.90427 9.75011C3.98907 10.5152 2.83629 10.9713 1.58322 10.9713C1.36759 10.9713 1.1546 10.9577 0.945312 10.9312C2.12906 11.7409 3.53452 12.2128 5.04449 12.2128C9.96335 12.2128 12.6528 7.86656 12.6528 4.0972C12.6528 3.97359 12.6505 3.85026 12.6454 3.72778C13.1677 3.32646 13.6212 2.82382 13.9795 2.25176Z" fill="#1DA1F2"/>
</svg>
