<svg width="18" height="24" viewBox="0 0 18 24" fill="none" xmlns="http://www.w3.org/2000/svg">
<path d="M9.03481 5.5144C11.1434 5.5144 12.8528 7.30932 12.8528 9.52332C12.8528 11.7376 11.1434 13.5322 9.03481 13.5322C6.92593 13.5322 5.2168 11.7376 5.2168 9.52332C5.2168 7.30932 6.92593 5.5144 9.03481 5.5144ZM9.03481 6.99936C7.76265 6.99936 6.7015 8.11371 6.7015 9.52332C6.7015 10.9332 7.76265 12.0475 9.03481 12.0475C10.3067 12.0475 11.3679 10.9332 11.3679 9.52332C11.3679 8.11371 10.3067 6.99936 9.03481 6.99936Z" fill="white"/>
<path d="M9.03342 0.169198C13.9536 0.169198 17.9421 4.56068 17.9421 9.97769C17.9421 15.395 9.03342 24.0274 9.03342 23.9249L8.99489 23.8767C8.36129 23.1787 0.125 15.1862 0.125 9.97719C0.125 4.56012 4.11355 0.168701 9.03371 0.168701L9.03342 0.169198ZM8.7237 21.4476L9.07245 21.8165L9.3486 21.5282L9.94666 20.8871C10.7481 20.0135 11.5599 19.0673 12.3222 18.1012C14.9019 14.8318 16.4574 11.9091 16.4574 9.97773C16.4574 5.35061 13.1 1.65445 9.03326 1.65445C4.96656 1.65445 1.60913 5.35093 1.60913 9.97773C1.60913 11.021 2.07768 12.3948 2.97178 13.9943C3.67671 15.2551 4.61728 16.6093 5.74035 18.0197C6.44331 18.9026 7.18082 19.7624 7.94716 20.6075L8.7237 21.4476Z" fill="white"/>
</svg>
