<svg width="29" height="33" viewBox="0 0 29 33" fill="none" xmlns="http://www.w3.org/2000/svg">
<path d="M28.6866 6.91843L21.9922 0.224037C21.8916 0.115702 21.7496 0.0549365 21.6017 0.056677H5.34516C4.77509 0.0596656 4.22891 0.287544 3.82572 0.690502C3.42276 1.09371 3.19488 1.63989 3.19189 2.20994V12.8878C3.19189 13.1959 3.44169 13.4457 3.74976 13.4457C4.05783 13.4457 4.30763 13.1959 4.30763 12.8878V2.20994C4.30763 1.93474 4.41696 1.671 4.61146 1.47623C4.80622 1.28173 5.06996 1.1724 5.34517 1.1724H21.0438V7.30892C21.0438 7.45686 21.1026 7.59882 21.2072 7.70341C21.3118 7.80801 21.4538 7.86679 21.6017 7.86679H27.7382V30.2598C27.7382 30.535 27.6289 30.7988 27.4344 30.9936C27.2396 31.1881 26.9759 31.2974 26.7007 31.2974H5.34558C5.07038 31.2974 4.80664 31.1881 4.61187 30.9936C4.41736 30.7988 4.30804 30.5351 4.30804 30.2598V27.3923C4.30804 27.0842 4.05824 26.8344 3.75017 26.8344C3.4421 26.8344 3.1923 27.0842 3.1923 27.3923V30.2598C3.19529 30.8299 3.42317 31.3761 3.82613 31.7793C4.22933 32.1822 4.77552 32.4101 5.34556 32.4131H26.7007C27.2707 32.4101 27.8169 32.1822 28.2201 31.7793C28.6231 31.3761 28.8509 30.8299 28.8539 30.2598V7.30892C28.8557 7.16099 28.7949 7.01903 28.6866 6.91842L28.6866 6.91843ZM22.1592 1.96464L26.9457 6.75107H22.1592V1.96464Z" fill="#404A5A"/>
<path d="M6.62135 18.1191H5.61719V20.4509H6.73292C7.13164 20.5024 7.53433 20.3896 7.84865 20.1386C8.08923 19.8955 8.22198 19.5658 8.21674 19.2235C8.24638 18.8911 8.10318 18.5665 7.83744 18.3646C7.46337 18.1693 7.04177 18.0844 6.62136 18.119L6.62135 18.1191Z" fill="#E73934"/>
<path fill-rule="evenodd" clip-rule="evenodd" d="M24.3936 16.3682V23.9105C24.3965 24.391 24.207 24.8522 23.8676 25.1919C23.5278 25.5314 23.0664 25.7209 22.5859 25.7179H2.77054C2.29007 25.7209 1.82861 25.5314 1.48891 25.1919C1.14946 24.8522 0.959937 24.391 0.962925 23.9105V16.3682C0.959935 15.8877 1.14946 15.4263 1.48891 15.0866C1.82867 14.7471 2.29012 14.5576 2.77054 14.5606H22.5859C23.0664 14.5576 23.5279 14.7471 23.8676 15.0866C24.207 15.4263 24.3965 15.8878 24.3936 16.3682Z" fill="#08743B"/>
<path d="M5.00432 22.7774C5.08908 22.927 5.24794 23.0197 5.42013 23.0197H6.15812H6.15767C6.33208 23.0197 6.49272 22.9248 6.57615 22.7721L7.16591 21.6946C7.22227 21.6001 7.27241 21.5136 7.31857 21.4333C7.3665 21.5123 7.41709 21.5948 7.47078 21.6822L8.10536 22.7814C8.19056 22.9288 8.3481 23.0197 8.5185 23.0197H9.26359C9.43577 23.0197 9.59464 22.927 9.6794 22.7766C9.76372 22.6266 9.76105 22.4424 9.67141 22.2951L8.27488 19.9937L9.63188 17.8228L9.63143 17.8233C9.72329 17.6759 9.72818 17.4909 9.6443 17.3391C9.55999 17.1873 9.40024 17.0933 9.22672 17.0933H8.48918C8.31922 17.0933 8.16212 17.1833 8.07692 17.3302L7.39795 18.496C7.37976 18.5271 7.36245 18.5577 7.34515 18.5874C7.32917 18.559 7.31275 18.5306 7.29633 18.5018L6.64001 17.3365V17.336C6.55525 17.186 6.39638 17.0933 6.22419 17.0933H5.47911C5.30737 17.0933 5.14895 17.1856 5.06419 17.3347C4.97943 17.4838 4.98121 17.6666 5.06907 17.8144L6.38347 20.0252L5.01182 22.2964L5.01137 22.296C4.92262 22.4433 4.91996 22.6275 5.00427 22.7775L5.00432 22.7774Z" fill="white"/>
<path d="M11.5795 23.0197H14.346C14.6096 23.0197 14.823 22.8063 14.823 22.5427V22.004C14.823 21.7404 14.6096 21.5269 14.346 21.5269H12.6983V17.5703C12.6983 17.3067 12.4848 17.0933 12.2212 17.0933H11.5795C11.3159 17.0933 11.1025 17.3067 11.1021 17.5703V22.5428C11.1025 22.8064 11.3159 23.0198 11.5795 23.0198L11.5795 23.0197Z" fill="white"/>
<path d="M16.1929 22.7C16.6593 22.9667 17.1887 23.1038 17.7265 23.0972C19.2593 23.0972 19.9449 22.1386 19.9449 21.189C19.9449 20.0387 19.1035 19.5661 18.3704 19.283C17.6871 19.0185 17.687 18.8921 17.687 18.7692C17.687 18.6014 17.8588 18.5011 18.1468 18.5011C18.3966 18.5002 18.6425 18.561 18.8626 18.6786C18.9864 18.7461 19.1337 18.7558 19.2651 18.7044C19.3964 18.6533 19.4981 18.5464 19.5433 18.4128L19.7204 17.8892C19.7936 17.6722 19.7031 17.4339 19.5038 17.3211C19.092 17.1086 18.6327 17.0038 18.1694 17.0154C16.961 17.0154 16.0838 17.784 16.0838 18.8424C16.0838 19.6922 16.6323 20.3174 17.7031 20.6973C18.3341 20.94 18.3341 21.0923 18.3341 21.2405C18.3341 21.5475 18.0279 21.6119 17.771 21.6119C17.4533 21.6088 17.1426 21.5209 16.8702 21.358C16.7441 21.2804 16.5888 21.2657 16.4504 21.3186C16.3119 21.3709 16.2058 21.485 16.1632 21.627L16.0013 22.1653C15.9409 22.3663 16.018 22.5833 16.1929 22.7Z" fill="white"/>
</svg>
