<svg width="20" height="20" viewBox="0 0 20 20" fill="none" xmlns="http://www.w3.org/2000/svg">
<path d="M18.3997 0.286865H1.36386C0.682424 0.286865 0.125 0.84429 0.125 1.52572V18.5615C0.125 19.243 0.682424 19.8004 1.36386 19.8004H18.3997C19.0811 19.8004 19.6385 19.243 19.6385 18.5615V1.52572C19.6385 0.84429 19.0811 0.286865 18.3997 0.286865ZM18.3997 18.5616H1.36386V1.52583H18.3997V18.5616Z" fill="white"/>
<path d="M7.68259 13.7915C7.80639 13.9153 7.96131 13.9773 8.11622 13.9773C8.27113 13.9773 8.42605 13.9153 8.54984 13.7915L14.9615 7.3798C15.2093 7.13198 15.2093 6.76037 14.9615 6.51253C14.7137 6.2647 14.3421 6.2647 14.0942 6.51253L8.1162 12.4905L5.66936 10.0437C5.42153 9.79587 5.04993 9.79587 4.80208 10.0437C4.55426 10.2915 4.55426 10.6631 4.80208 10.911L7.68259 13.7915Z" fill="white"/>
</svg>
