<svg width="20" height="20" viewBox="0 0 20 20" fill="none" xmlns="http://www.w3.org/2000/svg">
<path d="M3.20168 3.74673L1.68496 2.22665V6.64748H6.10617L4.54813 5.08943L4.47742 5.01872L4.54812 4.94801C5.99149 3.50454 7.94428 2.67997 9.99998 2.67997C13.6739 2.67997 16.7511 5.25973 17.5262 8.70533C17.6111 9.07393 17.9469 9.33698 18.3281 9.3472H18.3512C18.8965 9.3472 19.3115 8.83864 19.1912 8.31066L19.1912 8.31063C18.2375 4.11768 14.4786 0.974849 10 0.974849C7.48809 0.974849 5.10601 1.98028 3.34325 3.74673L3.27247 3.81767L3.20168 3.74673Z" fill="white" stroke="#29477B" stroke-width="0.2"/>
<path d="M2.4738 12.0942L2.47334 12.0943C2.39038 11.7193 2.04339 11.4527 1.64849 11.4527C1.10319 11.4527 0.688179 11.9613 0.80848 12.4892L0.808492 12.4893C1.76216 16.6859 5.52105 19.825 9.99966 19.825C12.5116 19.825 14.8936 18.8196 16.6526 17.0532L16.7233 16.9822L16.7941 17.0531L18.3147 18.5736V14.1524H13.8935L15.4515 15.7105L15.5222 15.7812L15.4515 15.8519C14.0082 17.2954 12.0554 18.1199 9.99966 18.1199C6.32565 18.1199 3.2484 15.54 2.47342 12.0943L2.4738 12.0942Z" fill="white" stroke="#29477B" stroke-width="0.2"/>
</svg>
